Tarefa8_1/if_then_else/simulation/qsim/demux_1x4_ite.msim.vcd
$comment
	File created using the following command:
		vcd file demux_1x4_ite.msim.vcd -direction
$end
$date
	Sun Aug 25 20:19:22 2019
$end
$version
	ModelSim Version 10.5b
$end
$timescale
	1ps
$end

$scope module demux_1x4_ite_vhd_vec_tst $end
$var wire 1 ! a $end
$var wire 1 " o0 $end
$var wire 1 # o1 $end
$var wire 1 $ o2 $end
$var wire 1 % o3 $end
$var wire 1 & s0 $end
$var wire 1 ' s1 $end

$scope module i1 $end
$var wire 1 ( gnd $end
$var wire 1 ) vcc $end
$var wire 1 * unknown $end
$var wire 1 + devoe $end
$var wire 1 , devclrn $end
$var wire 1 - devpor $end
$var wire 1 . ww_devoe $end
$var wire 1 / ww_devclrn $end
$var wire 1 0 ww_devpor $end
$var wire 1 1 ww_a $end
$var wire 1 2 ww_s0 $end
$var wire 1 3 ww_s1 $end
$var wire 1 4 ww_o0 $end
$var wire 1 5 ww_o1 $end
$var wire 1 6 ww_o2 $end
$var wire 1 7 ww_o3 $end
$var wire 1 8 \a~input_o\ $end
$var wire 1 9 \o0~output_o\ $end
$var wire 1 : \o1~output_o\ $end
$var wire 1 ; \o2~output_o\ $end
$var wire 1 < \o3~output_o\ $end
$var wire 1 = \s1~input_o\ $end
$var wire 1 > \s0~input_o\ $end
$var wire 1 ? \process_0~0_combout\ $end
$var wire 1 @ \process_0~1_combout\ $end
$var wire 1 A \process_0~2_combout\ $end
$var wire 1 B \o3~0_combout\ $end
$var wire 1 C \ALT_INV_process_0~0_combout\ $end
$upscope $end
$upscope $end
$enddefinitions $end
#0
$dumpvars
1!
0"
0#
0$
0%
0&
0'
0(
1)
x*
1+
1,
1-
1.
1/
10
11
02
03
04
05
06
07
18
09
0:
0;
0<
x=
x>
x?
x@
xA
xB
xC
$end
#745
0>
#775
0=
#3374
x9
x4
x"
#3378
x:
x5
x#
#3414
x<
x7
x%
#3641
x;
x6
x$
#4177
0B
#4179
0@
#4536
0A
#4537
0?
1C
#7469
0:
05
0#
#7504
0<
07
0%
#7870
19
14
1"
#8075
0;
06
0$
#50000
1&
12
#50639
1>
#53823
1@
#53824
1?
0C
#57201
1:
15
1#
#57240
09
04
0"
#100000
0&
1'
02
13
#100669
1=
#100745
0>
#104087
1B
#104113
0@
#104177
0B
#104194
1A
#107403
0:
05
0#
#107501
1<
17
1%
#107504
0<
07
0%
#107835
1;
16
1$
#150000
1&
12
#150639
1>
#153806
0A
#153822
1B
#157236
1<
17
1%
#157345
0;
06
0$
#200000
0&
0'
02
03
#200745
0>
#200775
0=
#204177
0B
#204194
1A
#204536
0A
#204537
0?
1C
#207504
0<
07
0%
#207835
1;
16
1$
#207870
19
14
1"
#208075
0;
06
0$
#250000
1&
12
#250639
1>
#253823
1@
#253824
1?
0C
#257201
1:
15
1#
#257240
09
04
0"
#300000
0&
1'
02
13
#300669
1=
#300745
0>
#304087
1B
#304113
0@
#304177
0B
#304194
1A
#307403
0:
05
0#
#307501
1<
17
1%
#307504
0<
07
0%
#307835
1;
16
1$
#350000
1&
12
#350639
1>
#353806
0A
#353822
1B
#357236
1<
17
1%
#357345
0;
06
0$
#400000
0&
0'
02
03
#400745
0>
#400775
0=
#404177
0B
#404194
1A
#404536
0A
#404537
0?
1C
#407504
0<
07
0%
#407835
1;
16
1$
#407870
19
14
1"
#408075
0;
06
0$
#450000
1&
12
#450639
1>
#453823
1@
#453824
1?
0C
#457201
1:
15
1#
#457240
09
04
0"
#500000
0&
1'
02
13
#500669
1=
#500745
0>
#504087
1B
#504113
0@
#504177
0B
#504194
1A
#507403
0:
05
0#
#507501
1<
17
1%
#507504
0<
07
0%
#507835
1;
16
1$
#550000
1&
12
#550639
1>
#553806
0A
#553822
1B
#557236
1<
17
1%
#557345
0;
06
0$
#600000
0&
0'
02
03
#600745
0>
#600775
0=
#604177
0B
#604194
1A
#604536
0A
#604537
0?
1C
#607504
0<
07
0%
#607835
1;
16
1$
#607870
19
14
1"
#608075
0;
06
0$
#650000
1&
12
#650639
1>
#653823
1@
#653824
1?
0C
#657201
1:
15
1#
#657240
09
04
0"
#700000
0&
1'
02
13
#700669
1=
#700745
0>
#704087
1B
#704113
0@
#704177
0B
#704194
1A
#707403
0:
05
0#
#707501
1<
17
1%
#707504
0<
07
0%
#707835
1;
16
1$
#750000
1&
12
#750639
1>
#753806
0A
#753822
1B
#757236
1<
17
1%
#757345
0;
06
0$
#800000
0&
0'
02
03
#800745
0>
#800775
0=
#804177
0B
#804194
1A
#804536
0A
#804537
0?
1C
#807504
0<
07
0%
#807835
1;
16
1$
#807870
19
14
1"
#808075
0;
06
0$
#850000
1&
12
#850639
1>
#853823
1@
#853824
1?
0C
#857201
1:
15
1#
#857240
09
04
0"
#900000
0&
1'
02
13
#900669
1=
#900745
0>
#904087
1B
#904113
0@
#904177
0B
#904194
1A
#907403
0:
05
0#
#907501
1<
17
1%
#907504
0<
07
0%
#907835
1;
16
1$
#950000
1&
12
#950639
1>
#953806
0A
#953822
1B
#957236
1<
17
1%
#957345
0;
06
0$
