Tarefa1_2/simulation/qsim/ex2.msim.vcd
$comment
	File created using the following command:
		vcd file ex2.msim.vcd -direction
$end
$date
	Fri Aug 23 20:41:26 2019
$end
$version
	ModelSim Version 10.5b
$end
$timescale
	1ps
$end

$scope module ex2_vhd_vec_tst $end
$var wire 1 ! a [0] $end
$var wire 1 " a [1] $end
$var wire 1 # a [2] $end
$var wire 1 $ a [3] $end
$var wire 1 % b [3] $end
$var wire 1 & b [2] $end
$var wire 1 ' b [1] $end
$var wire 1 ( b [0] $end
$var wire 1 ) c [7] $end
$var wire 1 * c [6] $end
$var wire 1 + c [5] $end
$var wire 1 , c [4] $end
$var wire 1 - c [3] $end
$var wire 1 . c [2] $end
$var wire 1 / c [1] $end
$var wire 1 0 c [0] $end

$scope module i1 $end
$var wire 1 1 gnd $end
$var wire 1 2 vcc $end
$var wire 1 3 unknown $end
$var wire 1 4 devoe $end
$var wire 1 5 devclrn $end
$var wire 1 6 devpor $end
$var wire 1 7 ww_devoe $end
$var wire 1 8 ww_devclrn $end
$var wire 1 9 ww_devpor $end
$var wire 1 : ww_a [0] $end
$var wire 1 ; ww_a [1] $end
$var wire 1 < ww_a [2] $end
$var wire 1 = ww_a [3] $end
$var wire 1 > ww_b [3] $end
$var wire 1 ? ww_b [2] $end
$var wire 1 @ ww_b [1] $end
$var wire 1 A ww_b [0] $end
$var wire 1 B ww_c [7] $end
$var wire 1 C ww_c [6] $end
$var wire 1 D ww_c [5] $end
$var wire 1 E ww_c [4] $end
$var wire 1 F ww_c [3] $end
$var wire 1 G ww_c [2] $end
$var wire 1 H ww_c [1] $end
$var wire 1 I ww_c [0] $end
$var wire 1 J \c[0]~output_o\ $end
$var wire 1 K \c[1]~output_o\ $end
$var wire 1 L \c[2]~output_o\ $end
$var wire 1 M \c[3]~output_o\ $end
$var wire 1 N \c[4]~output_o\ $end
$var wire 1 O \c[5]~output_o\ $end
$var wire 1 P \c[6]~output_o\ $end
$var wire 1 Q \c[7]~output_o\ $end
$var wire 1 R \b[0]~input_o\ $end
$var wire 1 S \b[1]~input_o\ $end
$var wire 1 T \b[2]~input_o\ $end
$var wire 1 U \b[3]~input_o\ $end
$var wire 1 V \a[0]~input_o\ $end
$var wire 1 W \a[1]~input_o\ $end
$var wire 1 X \a[2]~input_o\ $end
$var wire 1 Y \a[3]~input_o\ $end
$upscope $end
$upscope $end
$enddefinitions $end
#0
$dumpvars
01
12
x3
14
15
16
17
18
19
0J
0K
0L
0M
0N
0O
0P
0Q
xR
xS
xT
xU
xV
xW
xX
xY
1!
0"
0#
0$
1%
0&
0'
1(
1:
0;
0<
0=
1>
0?
0@
1A
0B
0C
0D
0E
0F
0G
0H
0I
0)
0*
0+
0,
0-
0.
0/
00
$end
#679
1R
#699
1U
#709
1V
#795
0S
#805
0T
0X
0Y
#825
0W
#7349
xQ
xB
x)
#7488
xL
xG
x.
#7567
xJ
xI
x0
#7579
xM
xF
x-
#7652
xK
xH
x/
#7736
xP
xC
x*
#7924
1J
1I
10
#7950
1M
1F
1-
#7985
xN
xE
x,
#8074
xO
xD
x+
#8112
0Q
0B
0)
#8251
0L
0G
0.
#8342
1N
1E
1,
#8405
0K
0H
0/
#8499
0P
0C
0*
#8857
0O
0D
0+
#10000
1$
0%
1&
0(
1=
0A
1?
0>
#10699
1T
1Y
#10785
0R
#10805
0U
#17861
1Q
1B
1)
#17873
1L
1G
1.
#18310
0J
0I
00
#18342
0M
0F
0-
#20000
1%
0&
1(
1'
1A
1@
0?
1>
#20679
1R
#20689
1S
#20699
1U
#20805
0T
#27924
1J
1I
10
#27950
1M
1F
1-
#28000
1K
1H
1/
#28251
0L
0G
0.
#30000
0%
0$
1"
0>
0=
1;
#30719
1W
#30805
0Y
0U
#38112
0Q
0B
0)
#38342
0M
0F
0-
#38412
1O
1D
1+
#40000
1%
1$
1&
0'
0@
1?
1>
1=
#40699
1Y
1U
1T
#40795
0S
#47861
1Q
1B
1)
#47873
1L
1G
1.
#47950
1M
1F
1-
#48405
0K
0H
0/
#50000
0%
0$
0&
1'
1#
1@
0?
0>
0=
1<
#50689
1S
#50699
1X
#50805
0Y
0U
0T
#58000
1K
1H
1/
#58061
1P
1C
1*
#58112
0Q
0B
0)
#58251
0L
0G
0.
#58342
0M
0F
0-
#60000
1$
0#
0(
1=
0<
0A
#60699
1Y
#60785
0R
#60805
0X
#67861
1Q
1B
1)
#68310
0J
0I
00
#68499
0P
0C
0*
#70000
0$
1#
1%
0'
0=
1<
0@
1>
#70699
1U
1X
#70795
0S
#70805
0Y
#77950
1M
1F
1-
#78061
1P
1C
1*
#78112
0Q
0B
0)
#78405
0K
0H
0/
#80000
1$
0#
0%
1(
1&
0"
1=
0<
0;
1A
1?
0>
#80679
1R
#80699
1T
1Y
#80805
0U
0X
#80825
0W
#87861
1Q
1B
1)
#87873
1L
1G
1.
#87924
1J
1I
10
#88342
0M
0F
0-
#88499
0P
0C
0*
#88857
0O
0D
0+
#90000
1%
0(
0&
1'
0A
1@
0?
1>
#90689
1S
#90699
1U
#90785
0R
#90805
0T
#97950
1M
1F
1-
#98000
1K
1H
1/
#98251
0L
0G
0.
#98310
0J
0I
00
#100000
0%
1(
0'
0$
1#
1"
0!
1A
0@
0>
0=
1<
1;
0:
#100679
1R
#100699
1X
#100719
1W
#100795
0S
#100805
0Y
0U
#100815
0V
#107924
1J
1I
10
#108061
1P
1C
1*
#108112
0Q
0B
0)
#108342
0M
0F
0-
#108405
0K
0H
0/
#108412
1O
1D
1+
#108758
0N
0E
0,
#110000
1$
0#
1!
1&
1=
0<
1:
1?
#110699
1T
1Y
#110709
1V
#110805
0X
#117861
1Q
1B
1)
#117873
1L
1G
1.
#118342
1N
1E
1,
#118499
0P
0C
0*
#120000
0$
1#
0!
0&
1%
0(
0"
0=
1<
0;
0:
0A
0?
1>
#120699
1U
1X
#120785
0R
#120805
0T
0Y
#120815
0V
#120825
0W
#127950
1M
1F
1-
#128061
1P
1C
1*
#128112
0Q
0B
0)
#128251
0L
0G
0.
#128310
0J
0I
00
#128758
0N
0E
0,
#128857
0O
0D
0+
#130000
1$
0#
1!
1&
0%
1(
1'
1=
0<
1:
1A
1@
1?
0>
#130679
1R
#130689
1S
#130699
1T
1Y
#130709
1V
#130805
0U
0X
#137861
1Q
1B
1)
#137873
1L
1G
1.
#137924
1J
1I
10
#138000
1K
1H
1/
#138342
1N
0M
1E
0F
0-
1,
#138499
0P
0C
0*
#140000
0&
1%
0'
0@
0?
1>
#140699
1U
#140795
0S
#140805
0T
#147950
1M
1F
1-
#148251
0L
0G
0.
#148405
0K
0H
0/
#150000
0%
1'
0$
1#
0(
0A
1@
0>
0=
1<
#150689
1S
#150699
1X
#150785
0R
#150805
0Y
0U
#158000
1K
1H
1/
#158061
1P
1C
1*
#158112
0Q
0B
0)
#158310
0J
0I
00
#158342
0M
0F
0-
#160000
1%
0#
1(
0!
1"
1A
1>
0<
1;
0:
#160679
1R
#160699
1U
#160719
1W
#160805
0X
#160815
0V
#167924
1J
1I
10
#167950
1M
1F
1-
#168412
1O
1D
1+
#168499
0P
0C
0*
#168758
0N
0E
0,
#170000
0%
1#
0(
1!
0"
0'
1$
1&
0A
0@
1?
0>
1=
1<
0;
1:
#170699
1X
1Y
1T
#170709
1V
#170785
0R
#170795
0S
#170805
0U
#170825
0W
#177861
1Q
1B
1)
#177873
1L
1G
1.
#178061
1P
1C
1*
#178310
0J
0I
00
#178342
1N
0M
1E
0F
0-
1,
#178405
0K
0H
0/
#178857
0O
0D
0+
#180000
0#
1'
0$
0=
0<
1@
#180689
1S
#180805
0X
0Y
#188000
1K
1H
1/
#188112
0Q
0B
0)
#188499
0P
0C
0*
#190000
1#
0'
1$
1%
0!
0&
1=
1<
0:
0@
0?
1>
#190699
1U
1X
1Y
#190795
0S
#190805
0T
#190815
0V
#197861
1Q
1B
1)
#197950
1M
1F
1-
#198061
1P
1C
1*
#198251
0L
0G
0.
#198405
0K
0H
0/
#198758
0N
0E
0,
#200000
0$
0%
1!
1&
1"
0=
1;
1:
1?
0>
#200699
1T
#200709
1V
#200719
1W
#200805
0U
0Y
#207873
1L
1G
1.
#208112
0Q
0B
0)
#208342
1N
0M
1E
0F
0-
1,
#208412
1O
1D
1+
#210000
0&
0"
1'
1(
1A
1@
0?
0;
#210679
1R
#210689
1S
#210805
0T
#210825
0W
#217924
1J
1I
10
#218000
1K
1H
1/
#218251
0L
0G
0.
#218857
0O
0D
0+
#220000
1"
1$
1%
0!
0#
1=
0<
1;
0:
1>
#220699
1U
1Y
#220719
1W
#220805
0X
#220815
0V
#227861
1Q
1B
1)
#227950
1M
1F
1-
#228412
1O
1D
1+
#228499
0P
0C
0*
#228758
0N
0E
0,
#230000
0'
0(
0A
0@
#230785
0R
#230795
0S
#238310
0J
0I
00
#238405
0K
0H
0/
#240000
1(
0"
0$
0%
1A
0>
0=
0;
#240679
1R
#240805
0Y
0U
#240825
0W
#247924
1J
1I
10
#248112
0Q
0B
0)
#248342
0M
0F
0-
#248857
0O
0D
0+
#250000
0(
1"
1$
1'
1!
0A
1@
1=
1;
1:
#250689
1S
#250699
1Y
#250709
1V
#250719
1W
#250785
0R
#257861
1Q
1B
1)
#258000
1K
1H
1/
#258310
0J
0I
00
#258342
1N
1E
1,
#258412
1O
1D
1+
#260000
1(
0'
0!
1&
1A
0@
1?
0:
#260679
1R
#260699
1T
#260795
0S
#260815
0V
#267873
1L
1G
1.
#267924
1J
1I
10
#268405
0K
0H
0/
#268758
0N
0E
0,
#270000
1'
1!
1%
1#
1@
1>
1<
1:
#270689
1S
#270699
1X
1U
#270709
1V
#277950
1M
1F
1-
#278000
1K
1H
1/
#278061
1P
1C
1*
#278342
1N
1E
1,
#280000
0'
0!
0"
0$
0@
0=
0;
0:
#280795
0S
#280805
0Y
#280815
0V
#280825
0W
#288112
0Q
0B
0)
#288405
0K
0H
0/
#288758
0N
0E
0,
#288857
0O
0D
0+
#290000
1"
1$
0%
1=
1;
0>
#290699
1Y
#290719
1W
#290805
0U
#297861
1Q
1B
1)
#298342
0M
0F
0-
#298412
1O
1D
1+
#300000
0$
1%
1'
1!
0&
0=
1:
1@
0?
1>
#300689
1S
#300699
1U
#300709
1V
#300805
0T
0Y
#307950
1M
1F
1-
#308000
1K
1H
1/
#308112
0Q
0B
0)
#308251
0L
0G
0.
#308342
1N
1E
1,
#310000
0%
0'
0!
0"
0#
0(
0A
0@
0>
0<
0;
0:
#310785
0R
#310795
0S
#310805
0X
0U
#310815
0V
#310825
0W
#318310
0J
0I
00
#318342
0M
0F
0-
#318405
0K
0H
0/
#318499
0P
0C
0*
#318758
0N
0E
0,
#318857
0O
0D
0+
#320000
1'
1#
1(
1$
1&
1A
1@
1?
1=
1<
#320679
1R
#320689
1S
#320699
1X
1Y
1T
#327861
1Q
1B
1)
#327873
1L
1G
1.
#327924
1J
1I
10
#328000
1K
1H
1/
#328061
1P
1C
1*
#330000
0'
0#
0&
1!
0@
0?
0<
1:
#330709
1V
#330795
0S
#330805
0X
0T
#338251
0L
0G
0.
#338342
1N
1E
1,
#338405
0K
0H
0/
#338499
0P
0C
0*
#340000
1'
1#
0!
0(
0$
1%
0A
1@
1>
0=
1<
0:
#340689
1S
#340699
1X
1U
#340785
0R
#340805
0Y
#340815
0V
#347950
1M
1F
1-
#348000
1K
1H
1/
#348061
1P
1C
1*
#348112
0Q
0B
0)
#348310
0J
0I
00
#348758
0N
0E
0,
#350000
0'
0#
1&
0@
1?
0<
#350699
1T
#350795
0S
#350805
0X
#357873
1L
1G
1.
#358405
0K
0H
0/
#358499
0P
0C
0*
#360000
0&
1(
1$
1"
1A
0?
1=
1;
#360679
1R
#360699
1Y
#360719
1W
#360805
0T
#367861
1Q
1B
1)
#367924
1J
1I
10
#368251
0L
0G
0.
#368412
1O
1D
1+
#370000
1&
0(
1#
0%
0A
1?
0>
1<
#370699
1X
1T
#370785
0R
#370805
0U
#377873
1L
1G
1.
#378061
1P
1C
1*
#378310
0J
0I
00
#378342
0M
0F
0-
#380000
0#
1%
0$
0=
0<
1>
#380699
1U
#380805
0X
0Y
#387950
1M
1F
1-
#388112
0Q
0B
0)
#388499
0P
0C
0*
#390000
1#
1(
0"
1<
0;
1A
#390679
1R
#390699
1X
#390825
0W
#397924
1J
1I
10
#398061
1P
1C
1*
#398857
0O
0D
0+
#400000
0#
0%
1'
1!
0<
1:
1@
0>
#400689
1S
#400709
1V
#400805
0U
0X
#408000
1K
1H
1/
#408342
1N
0M
1E
0F
0-
1,
#408499
0P
0C
0*
#410000
1#
1%
0'
0(
1"
1<
1;
0A
0@
1>
#410699
1U
1X
#410719
1W
#410785
0R
#410795
0S
#417950
1M
1F
1-
#418061
1P
1C
1*
#418310
0J
0I
00
#418405
0K
0H
0/
#418412
1O
1D
1+
#420000
0#
1$
1=
0<
#420699
1Y
#420805
0X
#427861
1Q
1B
1)
#428499
0P
0C
0*
#430000
0$
0%
1(
0"
0!
0=
0;
0:
1A
0>
#430679
1R
#430805
0U
0Y
#430815
0V
#430825
0W
#437924
1J
1I
10
#438112
0Q
0B
0)
#438342
0M
0F
0-
#438758
0N
0E
0,
#438857
0O
0D
0+
#440000
0(
1"
1'
0&
0A
1@
0?
1;
#440689
1S
#440719
1W
#440785
0R
#440805
0T
#448000
1K
1H
1/
#448251
0L
0G
0.
#448310
0J
0I
00
#448412
1O
1D
1+
#450000
0"
1&
1$
1%
1!
1#
1=
1<
0;
1:
1?
1>
#450699
1U
1T
1X
1Y
#450709
1V
#450825
0W
#457861
1Q
1B
1)
#457873
1L
1G
1.
#457950
1M
1F
1-
#458061
1P
1C
1*
#458342
1N
1E
1,
#458857
0O
0D
0+
#460000
1"
0&
0!
1(
1;
0:
1A
0?
#460679
1R
#460719
1W
#460805
0T
#460815
0V
#467924
1J
1I
10
#468251
0L
0G
0.
#468412
1O
1D
1+
#468758
0N
0E
0,
#470000
0(
0$
0A
0=
#470785
0R
#470805
0Y
#478112
0Q
0B
0)
#478310
0J
0I
00
#480000
1&
0%
1?
0>
#480699
1T
#480805
0U
#487873
1L
1G
1.
#488342
0M
0F
0-
#490000
0&
0#
0?
0<
#490805
0X
0T
#498251
0L
0G
0.
#498499
0P
0C
0*
#500000
1(
0"
1A
0;
#500679
1R
#500825
0W
#507924
1J
1I
10
#508857
0O
0D
0+
#510000
0(
1"
1%
1$
0A
1>
1=
1;
#510699
1Y
1U
#510719
1W
#510785
0R
#517861
1Q
1B
1)
#517950
1M
1F
1-
#518310
0J
0I
00
#518412
1O
1D
1+
#520000
0"
0%
1&
1!
0'
0;
1:
0@
1?
0>
#520699
1T
#520709
1V
#520795
0S
#520805
0U
#520825
0W
#527873
1L
1G
1.
#528342
1N
0M
1E
0F
0-
1,
#528405
0K
0H
0/
#528857
0O
0D
0+
#530000
0!
1'
0:
1@
#530689
1S
#530815
0V
#538000
1K
1H
1/
#538758
0N
0E
0,
#540000
0&
0$
0?
0=
#540805
0Y
0T
#548112
0Q
0B
0)
#548251
0L
0G
0.
#550000
1&
1$
1!
0'
1%
0@
1?
1>
1=
1:
#550699
1Y
1U
1T
#550709
1V
#550795
0S
#557861
1Q
1B
1)
#557873
1L
1G
1.
#557950
1M
1F
1-
#558342
1N
1E
1,
#558405
0K
0H
0/
#560000
0!
1'
0%
0:
1@
0>
#560689
1S
#560805
0U
#560815
0V
#568000
1K
1H
1/
#568342
0M
0F
0-
#568758
0N
0E
0,
#570000
1%
0$
1(
1#
1A
1>
0=
1<
#570679
1R
#570699
1X
1U
#570805
0Y
#577924
1J
1I
10
#577950
1M
1F
1-
#578061
1P
1C
1*
#578112
0Q
0B
0)
#580000
0&
1"
0?
1;
#580719
1W
#580805
0T
#588251
0L
0G
0.
#588412
1O
1D
1+
#590000
0"
0%
0(
0;
0A
0>
#590785
0R
#590805
0U
#590825
0W
#598310
0J
0I
00
#598342
0M
0F
0-
#598857
0O
0D
0+
#600000
1"
1%
1$
0#
0'
1=
0<
1;
0@
1>
#600699
1U
1Y
#600719
1W
#600795
0S
#600805
0X
#607861
1Q
1B
1)
#607950
1M
1F
1-
#608405
0K
0H
0/
#608412
1O
1D
1+
#608499
0P
0C
0*
#610000
0%
0$
1#
1(
1&
1A
1?
0>
0=
1<
#610679
1R
#610699
1X
1T
#610805
0Y
0U
#617873
1L
1G
1.
#617924
1J
1I
10
#618061
1P
1C
1*
#618112
0Q
0B
0)
#618342
0M
0F
0-
#620000
1$
0&
0"
1=
0;
0?
#620699
1Y
#620805
0T
#620825
0W
#627861
1Q
1B
1)
#628251
0L
0G
0.
#628857
0O
0D
0+
#630000
1&
1%
0#
1?
1>
0<
#630699
1U
1T
#630805
0X
#637873
1L
1G
1.
#637950
1M
1F
1-
#638499
0P
0C
0*
#640000
0&
0%
0$
0(
0A
0?
0>
0=
#640785
0R
#640805
0Y
0U
0T
#648112
0Q
0B
0)
#648251
0L
0G
0.
#648310
0J
0I
00
#648342
0M
0F
0-
#650000
1#
1"
1!
1<
1;
1:
#650699
1X
#650709
1V
#650719
1W
#658061
1P
1C
1*
#658342
1N
1E
1,
#658412
1O
1D
1+
#660000
0#
0!
1&
1$
1(
1'
1=
0<
0:
1A
1@
1?
#660679
1R
#660689
1S
#660699
1T
1Y
#660805
0X
#660815
0V
#667861
1Q
1B
1)
#667873
1L
1G
1.
#667924
1J
1I
10
#668000
1K
1H
1/
#668499
0P
0C
0*
#668758
0N
0E
0,
#670000
1!
0&
0"
0;
1:
0?
#670709
1V
#670805
0T
#670825
0W
#678251
0L
0G
0.
#678342
1N
1E
1,
#678857
0O
0D
0+
#680000
0!
1&
0(
0'
1%
0:
0A
0@
1?
1>
#680699
1U
1T
#680785
0R
#680795
0S
#680815
0V
#687873
1L
1G
1.
#687950
1M
1F
1-
#688310
0J
0I
00
#688405
0K
0H
0/
#688758
0N
0E
0,
#690000
1!
0&
1(
0%
1"
1#
1<
1;
1:
1A
0?
0>
#690679
1R
#690699
1X
#690709
1V
#690719
1W
#690805
0U
0T
#697924
1J
1I
10
#698061
1P
1C
1*
#698251
0L
0G
0.
#698342
1N
0M
1E
0F
0-
1,
#698412
1O
1D
1+
#700000
0!
1&
0#
0$
0=
0<
0:
1?
#700699
1T
#700805
0X
0Y
#700815
0V
#707873
1L
1G
1.
#708112
0Q
0B
0)
#708499
0P
0C
0*
#708758
0N
0E
0,
#710000
1!
0&
0(
1'
1:
0A
1@
0?
#710689
1S
#710709
1V
#710785
0R
#710805
0T
#718000
1K
1H
1/
#718251
0L
0G
0.
#718310
0J
0I
00
#718342
1N
1E
1,
#720000
0!
1&
1%
0:
1?
1>
#720699
1U
1T
#720815
0V
#727873
1L
1G
1.
#727950
1M
1F
1-
#728758
0N
0E
0,
#730000
0%
0'
1#
1$
0"
0@
0>
1=
1<
0;
#730699
1X
1Y
#730795
0S
#730805
0U
#730825
0W
#737861
1Q
1B
1)
#738061
1P
1C
1*
#738342
0M
0F
0-
#738405
0K
0H
0/
#738857
0O
0D
0+
#740000
1%
1!
1(
1A
1>
1:
#740679
1R
#740699
1U
#740709
1V
#747924
1J
1I
10
#747950
1M
1F
1-
#748342
1N
1E
1,
#750000
0!
0(
1'
0$
0&
0=
0:
0A
1@
0?
#750689
1S
#750785
0R
#750805
0T
0Y
#750815
0V
#758000
1K
1H
1/
#758112
0Q
0B
0)
#758251
0L
0G
0.
#758310
0J
0I
00
#758758
0N
0E
0,
#760000
1(
0'
1$
1"
1A
0@
1=
1;
#760679
1R
#760699
1Y
#760719
1W
#760795
0S
#767861
1Q
1B
1)
#767924
1J
1I
10
#768405
0K
0H
0/
#768412
1O
1D
1+
#770000
0(
1'
1&
0A
1@
1?
#770689
1S
#770699
1T
#770785
0R
#777873
1L
1G
1.
#778000
1K
1H
1/
#778310
0J
0I
00
#780000
0'
0&
0"
1!
0#
0@
0?
0<
0;
1:
#780709
1V
#780795
0S
#780805
0X
0T
#780825
0W
#788251
0L
0G
0.
#788342
1N
1E
1,
#788405
0K
0H
0/
#788499
0P
0C
0*
#788857
0O
0D
0+
#790000
1'
1&
1#
1(
0%
1A
1@
1?
0>
1<
#790679
1R
#790689
1S
#790699
1X
1T
#790805
0U
#797873
1L
1G
1.
#797924
1J
1I
10
#798000
1K
1H
1/
#798061
1P
1C
1*
#798342
0M
0F
0-
#800000
0'
0(
1"
0!
0$
0A
0@
0=
1;
0:
#800719
1W
#800785
0R
#800795
0S
#800805
0Y
#800815
0V
#808112
0Q
0B
0)
#808310
0J
0I
00
#808405
0K
0H
0/
#808412
1O
1D
1+
#808758
0N
0E
0,
#810000
1(
0"
1$
0&
1A
0?
1=
0;
#810679
1R
#810699
1Y
#810805
0T
#810825
0W
#817861
1Q
1B
1)
#817924
1J
1I
10
#818251
0L
0G
0.
#818857
0O
0D
0+
#820000
0(
1"
0$
0#
0A
0=
0<
1;
#820719
1W
#820785
0R
#820805
0X
0Y
#828112
0Q
0B
0)
#828310
0J
0I
00
#828412
1O
1D
1+
#828499
0P
0C
0*
#830000
0"
1#
1&
1!
1<
0;
1:
1?
#830699
1T
1X
#830709
1V
#830825
0W
#837873
1L
1G
1.
#838061
1P
1C
1*
#838342
1N
1E
1,
#838857
0O
0D
0+
#840000
1"
0#
1(
1$
1%
1=
0<
1;
1A
1>
#840679
1R
#840699
1U
1Y
#840719
1W
#840805
0X
#847861
1Q
1B
1)
#847924
1J
1I
10
#847950
1M
1F
1-
#848412
1O
1D
1+
#848499
0P
0C
0*
#850000
0$
0!
1'
0=
0:
1@
#850689
1S
#850805
0Y
#850815
0V
#858000
1K
1H
1/
#858112
0Q
0B
0)
#858758
0N
0E
0,
#860000
1!
1#
0%
1<
1:
0>
#860699
1X
#860709
1V
#860805
0U
#868061
1P
1C
1*
#868342
1N
0M
1E
0F
0-
1,
#870000
0!
0#
0'
0"
0(
0<
0;
0:
0A
0@
#870785
0R
#870795
0S
#870805
0X
#870815
0V
#870825
0W
#878310
0J
0I
00
#878405
0K
0H
0/
#878499
0P
0C
0*
#878758
0N
0E
0,
#878857
0O
0D
0+
#880000
1#
1'
1%
1$
0&
1=
1<
1@
0?
1>
#880689
1S
#880699
1U
1X
1Y
#880805
0T
#887861
1Q
1B
1)
#887950
1M
1F
1-
#888000
1K
1H
1/
#888061
1P
1C
1*
#888251
0L
0G
0.
#890000
0#
0$
1"
0=
0<
1;
#890719
1W
#890805
0X
0Y
#898112
0Q
0B
0)
#898412
1O
1D
1+
#898499
0P
0C
0*
#900000
0%
1!
0>
1:
#900709
1V
#900805
0U
#908342
1N
0M
1E
0F
0-
1,
#910000
1$
0'
1&
1=
0@
1?
#910699
1T
1Y
#910795
0S
#917861
1Q
1B
1)
#917873
1L
1G
1.
#918405
0K
0H
0/
#920000
0$
1'
1%
1#
1(
0=
1<
1A
1@
1>
#920679
1R
#920689
1S
#920699
1U
1X
#920805
0Y
#927924
1J
1I
10
#927950
1M
1F
1-
#928000
1K
1H
1/
#928061
1P
1C
1*
#928112
0Q
0B
0)
#930000
1$
0%
0#
0&
1=
0<
0?
0>
#930699
1Y
#930805
0U
0T
0X
#937861
1Q
1B
1)
#938251
0L
0G
0.
#938342
0M
0F
0-
#938499
0P
0C
0*
#940000
1%
1#
0!
0"
1>
1<
0;
0:
#940699
1X
1U
#940815
0V
#940825
0W
#947950
1M
1F
1-
#948061
1P
1C
1*
#948758
0N
0E
0,
#948857
0O
0D
0+
#950000
0%
1"
0$
1&
0'
0(
0A
0@
1?
0>
0=
1;
#950699
1T
#950719
1W
#950785
0R
#950795
0S
#950805
0Y
0U
#957873
1L
1G
1.
#958112
0Q
0B
0)
#958310
0J
0I
00
#958342
0M
0F
0-
#958405
0K
0H
0/
#958412
1O
1D
1+
#960000
1%
1$
0#
1!
1>
1=
0<
1:
#960699
1Y
1U
#960709
1V
#960805
0X
#967861
1Q
1B
1)
#967950
1M
1F
1-
#968342
1N
1E
1,
#968499
0P
0C
0*
#970000
0%
0!
0"
1(
1A
0>
0;
0:
#970679
1R
#970805
0U
#970815
0V
#970825
0W
#977924
1J
1I
10
#978342
0M
0F
0-
#978758
0N
0E
0,
#978857
0O
0D
0+
#980000
1%
1"
0(
0$
1#
1'
0A
1@
1>
0=
1<
1;
#980689
1S
#980699
1X
1U
#980719
1W
#980785
0R
#980805
0Y
#987950
1M
1F
1-
#988000
1K
1H
1/
#988061
1P
1C
1*
#988112
0Q
0B
0)
#988310
0J
0I
00
#988412
1O
1D
1+
#990000
1$
0#
0'
0&
1=
0<
0@
0?
#990699
1Y
#990795
0S
#990805
0T
0X
#997861
1Q
1B
1)
#998251
0L
0G
0.
#998405
0K
0H
0/
#998499
0P
0C
0*
