Tarefa26_2/simulation/qsim/car_dashboard.msim.vcd
$comment
	File created using the following command:
		vcd file car_dashboard.msim.vcd -direction
$end
$date
	Sat Nov 02 19:30:55 2019
$end
$version
	ModelSim Version 10.5b
$end
$timescale
	1ps
$end

$scope module car_dashboard_vhd_vec_tst $end
$var wire 1 ! bt $end
$var wire 1 " clk $end
$var wire 1 # data [2] $end
$var wire 1 $ data [1] $end
$var wire 1 % data [0] $end

$scope module i1 $end
$var wire 1 & gnd $end
$var wire 1 ' vcc $end
$var wire 1 ( unknown $end
$var wire 1 ) devoe $end
$var wire 1 * devclrn $end
$var wire 1 + devpor $end
$var wire 1 , ww_devoe $end
$var wire 1 - ww_devclrn $end
$var wire 1 . ww_devpor $end
$var wire 1 / ww_clk $end
$var wire 1 0 ww_bt $end
$var wire 1 1 ww_data [2] $end
$var wire 1 2 ww_data [1] $end
$var wire 1 3 ww_data [0] $end
$var wire 1 4 \data[0]~output_o\ $end
$var wire 1 5 \data[1]~output_o\ $end
$var wire 1 6 \data[2]~output_o\ $end
$var wire 1 7 \clk~input_o\ $end
$var wire 1 8 \bt~input_o\ $end
$var wire 1 9 \Mux2~0_combout\ $end
$var wire 1 : \Mux1~0_combout\ $end
$var wire 1 ; \Mux5~0_combout\ $end
$var wire 1 < \data[0]~reg0_q\ $end
$var wire 1 = \Mux4~0_combout\ $end
$var wire 1 > \data[1]~reg0_q\ $end
$var wire 1 ? sig [2] $end
$var wire 1 @ sig [1] $end
$var wire 1 A sig [0] $end
$var wire 1 B ALT_INV_sig [2] $end
$upscope $end
$upscope $end
$enddefinitions $end
#0
$dumpvars
0!
0"
0&
1'
x(
1)
1*
1+
1,
1-
1.
0/
00
04
05
06
07
08
09
0:
1;
0<
0=
0>
01
02
03
0?
0@
0A
1B
0#
0$
0%
$end
#20000
1"
1/
17
1<
14
13
1%
#40000
0"
0/
07
#60000
1"
1/
17
#80000
0"
1!
0/
10
18
07
19
0;
1=
#100000
1"
1/
17
1?
1A
0<
1>
0B
1;
0=
15
04
12
03
0%
1$
#120000
0"
0/
07
#140000
1"
1/
17
#160000
0"
0/
07
#180000
1"
1/
17
#200000
0"
0!
0/
00
08
07
1:
0;
1=
#220000
1"
1/
17
0?
1@
1B
#240000
0"
0/
07
#260000
1"
1/
17
#280000
0"
1!
0/
10
18
07
09
0:
1;
#300000
1"
1/
17
1?
0A
0@
1<
0B
0;
14
13
1%
#320000
0"
0/
07
#340000
1"
1/
17
#360000
0"
0/
07
#380000
1"
1/
17
#400000
0"
0!
0/
00
08
07
1:
1;
0=
#420000
1"
1/
17
0?
1@
1B
1=
#440000
0"
0/
07
#460000
1"
1/
17
#480000
0"
1!
0/
10
18
07
19
0;
0=
#500000
1"
1/
17
1?
1A
0<
0>
0B
1;
1=
05
04
02
03
0%
0$
#520000
0"
0/
07
#540000
1"
1/
17
#560000
0"
0/
07
#580000
1"
1/
17
#600000
0"
0!
0/
00
08
07
0:
0;
0=
#620000
1"
1/
17
0?
0@
1B
#640000
0"
0/
07
#660000
1"
1/
17
#680000
0"
1!
0/
10
18
07
09
1:
1;
#700000
1"
1/
17
1?
0A
1@
1<
0B
0;
14
13
1%
#720000
0"
0/
07
#740000
1"
1/
17
#760000
0"
0/
07
#780000
1"
1/
17
#800000
0"
0!
0/
00
08
07
0:
1;
#820000
1"
1/
17
0?
0@
1B
#840000
0"
1!
0/
10
18
07
19
0;
1=
#860000
1"
1/
17
1?
1A
0<
1>
0B
1;
0=
15
04
12
03
0%
1$
#880000
0"
0!
0/
00
08
07
1:
0;
1=
#900000
1"
1/
17
0?
1@
1B
#920000
0"
1!
0/
10
18
07
09
0:
1;
#940000
1"
1/
17
1?
0A
0@
1<
0B
0;
14
13
1%
#960000
0"
0!
0/
00
08
07
1:
1;
0=
#980000
1"
1/
17
0?
1@
1B
1=
