Maq_Refrigerante/e1/simulation/qsim/rtl.msim.vcd
$comment
	File created using the following command:
		vcd file rtl.msim.vcd -direction
$end
$date
	Sun Nov 03 20:02:48 2019
$end
$version
	ModelSim Version 10.5b
$end
$timescale
	1ps
$end

$scope module rtl_vhd_vec_tst $end
$var wire 1 ! a [7] $end
$var wire 1 " a [6] $end
$var wire 1 # a [5] $end
$var wire 1 $ a [4] $end
$var wire 1 % a [3] $end
$var wire 1 & a [2] $end
$var wire 1 ' a [1] $end
$var wire 1 ( a [0] $end
$var wire 1 ) c $end
$var wire 1 * clk $end
$var wire 1 + d $end
$var wire 1 , s [7] $end
$var wire 1 - s [6] $end
$var wire 1 . s [5] $end
$var wire 1 / s [4] $end
$var wire 1 0 s [3] $end
$var wire 1 1 s [2] $end
$var wire 1 2 s [1] $end
$var wire 1 3 s [0] $end

$scope module i1 $end
$var wire 1 4 gnd $end
$var wire 1 5 vcc $end
$var wire 1 6 unknown $end
$var wire 1 7 devoe $end
$var wire 1 8 devclrn $end
$var wire 1 9 devpor $end
$var wire 1 : ww_devoe $end
$var wire 1 ; ww_devclrn $end
$var wire 1 < ww_devpor $end
$var wire 1 = ww_clk $end
$var wire 1 > ww_c $end
$var wire 1 ? ww_s [7] $end
$var wire 1 @ ww_s [6] $end
$var wire 1 A ww_s [5] $end
$var wire 1 B ww_s [4] $end
$var wire 1 C ww_s [3] $end
$var wire 1 D ww_s [2] $end
$var wire 1 E ww_s [1] $end
$var wire 1 F ww_s [0] $end
$var wire 1 G ww_a [7] $end
$var wire 1 H ww_a [6] $end
$var wire 1 I ww_a [5] $end
$var wire 1 J ww_a [4] $end
$var wire 1 K ww_a [3] $end
$var wire 1 L ww_a [2] $end
$var wire 1 M ww_a [1] $end
$var wire 1 N ww_a [0] $end
$var wire 1 O ww_d $end
$var wire 1 P \d~output_o\ $end
$var wire 1 Q \clk~input_o\ $end
$var wire 1 R \c~input_o\ $end
$var wire 1 S \a[7]~input_o\ $end
$var wire 1 T \a[6]~input_o\ $end
$var wire 1 U \a[5]~input_o\ $end
$var wire 1 V \a[4]~input_o\ $end
$var wire 1 W \a[3]~input_o\ $end
$var wire 1 X \a[2]~input_o\ $end
$var wire 1 Y \a[1]~input_o\ $end
$var wire 1 Z \a[0]~input_o\ $end
$var wire 1 [ \i1|tot_saida[0]~8_combout\ $end
$var wire 1 \ \i2|d~1_combout\ $end
$var wire 1 ] \i1|tot_saida[0]~9\ $end
$var wire 1 ^ \i1|tot_saida[1]~10_combout\ $end
$var wire 1 _ \i1|tot_saida[1]~11\ $end
$var wire 1 ` \i1|tot_saida[2]~12_combout\ $end
$var wire 1 a \i1|tot_saida[2]~13\ $end
$var wire 1 b \i1|tot_saida[3]~14_combout\ $end
$var wire 1 c \i1|tot_saida[3]~15\ $end
$var wire 1 d \i1|tot_saida[4]~16_combout\ $end
$var wire 1 e \i1|tot_saida[4]~17\ $end
$var wire 1 f \i1|tot_saida[5]~18_combout\ $end
$var wire 1 g \i1|tot_saida[5]~19\ $end
$var wire 1 h \i1|tot_saida[6]~20_combout\ $end
$var wire 1 i \i1|tot_saida[6]~21\ $end
$var wire 1 j \i1|tot_saida[7]~22_combout\ $end
$var wire 1 k \s[7]~input_o\ $end
$var wire 1 l \s[6]~input_o\ $end
$var wire 1 m \s[5]~input_o\ $end
$var wire 1 n \s[4]~input_o\ $end
$var wire 1 o \s[3]~input_o\ $end
$var wire 1 p \s[2]~input_o\ $end
$var wire 1 q \s[1]~input_o\ $end
$var wire 1 r \s[0]~input_o\ $end
$var wire 1 s \i1|LessThan0~1_cout\ $end
$var wire 1 t \i1|LessThan0~3_cout\ $end
$var wire 1 u \i1|LessThan0~5_cout\ $end
$var wire 1 v \i1|LessThan0~7_cout\ $end
$var wire 1 w \i1|LessThan0~9_cout\ $end
$var wire 1 x \i1|LessThan0~11_cout\ $end
$var wire 1 y \i1|LessThan0~13_cout\ $end
$var wire 1 z \i1|LessThan0~14_combout\ $end
$var wire 1 { \i2|Mux0~0_combout\ $end
$var wire 1 | \i2|Mux1~0_combout\ $end
$var wire 1 } \i2|d~0_combout\ $end
$var wire 1 ~ \i1|tot_saida\ [7] $end
$var wire 1 !! \i1|tot_saida\ [6] $end
$var wire 1 "! \i1|tot_saida\ [5] $end
$var wire 1 #! \i1|tot_saida\ [4] $end
$var wire 1 $! \i1|tot_saida\ [3] $end
$var wire 1 %! \i1|tot_saida\ [2] $end
$var wire 1 &! \i1|tot_saida\ [1] $end
$var wire 1 '! \i1|tot_saida\ [0] $end
$var wire 1 (! \i2|y\ [1] $end
$var wire 1 )! \i2|y\ [0] $end
$var wire 1 *! \i2|ALT_INV_y\ [0] $end
$upscope $end
$upscope $end
$enddefinitions $end
#0
$dumpvars
0)
0*
0+
04
15
x6
17
18
19
1:
1;
1<
0=
0>
0O
0P
0Q
0R
0S
0T
0U
1V
0W
0X
0Y
0Z
0[
1\
0]
0^
1_
0`
0a
0b
1c
1d
0e
0f
1g
0h
0i
0j
0k
0l
0m
0n
0o
1p
0q
0r
0s
1t
1u
0v
1w
0x
1y
1z
0{
1|
0}
0!
0"
0#
1$
0%
0&
0'
0(
0,
0-
0.
0/
00
11
02
03
0?
0@
0A
0B
0C
1D
0E
0F
0G
0H
0I
1J
0K
0L
0M
0N
0~
0!!
0"!
0#!
0$!
0%!
0&!
0'!
0(!
0)!
1*!
$end
#20000
1*
1=
1Q
1)!
0*!
0\
#40000
0*
1)
0=
1>
1R
0Q
1{
0|
#60000
1*
1=
1Q
1(!
0)!
1*!
0{
1|
#80000
0*
0)
0=
0>
0R
0Q
#100000
1*
1=
1Q
1#!
0(!
1)!
0*!
0d
1e
0w
1x
1f
0y
0z
1{
#120000
0*
0=
0Q
#140000
1*
1=
1Q
1(!
0{
0|
1}
1P
1O
1+
#160000
0*
0$
1(
0=
1N
0J
0V
1Z
0Q
1[
1d
0e
0f
#180000
1*
1=
1Q
0(!
0)!
1*!
1\
1|
0}
0P
0O
0+
#200000
0*
0=
0Q
#220000
1*
1=
1Q
0#!
1)!
0*!
0\
1{
0d
1w
0x
1y
1z
0{
#240000
0*
0=
0Q
#260000
1*
1=
1Q
#280000
0*
0=
0Q
#300000
1*
1=
1Q
#320000
0*
1)
0=
1>
1R
0Q
1{
0|
#340000
1*
1=
1Q
1(!
0)!
1*!
0{
1|
#360000
0*
0)
0=
0>
0R
0Q
#380000
1*
1=
1Q
1'!
0(!
1)!
0*!
0[
1]
1^
#400000
0*
1)
0=
1>
1R
0Q
1{
0|
#420000
1*
1=
1Q
1(!
0)!
1*!
0{
1|
#440000
0*
0)
0=
0>
0R
0Q
#460000
1*
1=
1Q
0'!
1&!
0(!
1)!
0*!
0^
0_
1[
0]
1^
1_
1`
0`
#480000
0*
1)
0=
1>
1R
0Q
1{
0|
#500000
1*
1=
1Q
1(!
0)!
1*!
0{
1|
#520000
0*
0)
0=
0>
0R
0Q
#540000
1*
1=
1Q
1'!
0(!
1)!
0*!
0[
1]
0^
0_
1`
#560000
0*
1)
0=
1>
1R
0Q
1{
0|
#580000
1*
1=
1Q
1(!
0)!
1*!
0{
1|
#600000
0*
0)
0=
0>
0R
0Q
#620000
1*
1=
1Q
0'!
0&!
1%!
0(!
1)!
0*!
0`
1a
0u
1^
1_
1[
0]
0^
1`
0a
1v
1b
0w
0b
1x
0y
0z
1{
#640000
0*
0=
0Q
#660000
1*
1=
1Q
1(!
0{
0|
1}
1P
1O
1+
#680000
0*
0=
0Q
#700000
1*
1=
1Q
0(!
0)!
1*!
1\
1|
0}
0P
0O
0+
#720000
0*
0=
0Q
#740000
1*
1=
1Q
0%!
1)!
0*!
0\
1{
0`
1u
0v
1w
0x
1y
1z
0{
#760000
0*
0=
0Q
#780000
1*
1=
1Q
#800000
0*
0=
0Q
#820000
1*
1=
1Q
#840000
0*
0=
0Q
#860000
1*
1=
1Q
#880000
0*
0=
0Q
#900000
1*
1=
1Q
#920000
0*
0=
0Q
#940000
1*
1=
1Q
#960000
0*
0=
0Q
#980000
1*
1=
1Q
