Tarefa10_2/simulation/qsim/calc_8bits.msim.vcd
$comment
	File created using the following command:
		vcd file calc_8bits.msim.vcd -direction
$end
$date
	Wed Aug 28 21:19:49 2019
$end
$version
	ModelSim Version 10.5b
$end
$timescale
	1ps
$end

$scope module calc_8bits_vhd_vec_tst $end
$var wire 1 ! a [7] $end
$var wire 1 " a [6] $end
$var wire 1 # a [5] $end
$var wire 1 $ a [4] $end
$var wire 1 % a [3] $end
$var wire 1 & a [2] $end
$var wire 1 ' a [1] $end
$var wire 1 ( a [0] $end
$var wire 1 ) b [7] $end
$var wire 1 * b [6] $end
$var wire 1 + b [5] $end
$var wire 1 , b [4] $end
$var wire 1 - b [3] $end
$var wire 1 . b [2] $end
$var wire 1 / b [1] $end
$var wire 1 0 b [0] $end
$var wire 1 1 cout $end
$var wire 1 2 luz1 $end
$var wire 1 3 luz2 $end
$var wire 1 4 op $end
$var wire 1 5 s [7] $end
$var wire 1 6 s [6] $end
$var wire 1 7 s [5] $end
$var wire 1 8 s [4] $end
$var wire 1 9 s [3] $end
$var wire 1 : s [2] $end
$var wire 1 ; s [1] $end
$var wire 1 < s [0] $end

$scope module i1 $end
$var wire 1 = gnd $end
$var wire 1 > vcc $end
$var wire 1 ? unknown $end
$var wire 1 @ devoe $end
$var wire 1 A devclrn $end
$var wire 1 B devpor $end
$var wire 1 C ww_devoe $end
$var wire 1 D ww_devclrn $end
$var wire 1 E ww_devpor $end
$var wire 1 F ww_a [7] $end
$var wire 1 G ww_a [6] $end
$var wire 1 H ww_a [5] $end
$var wire 1 I ww_a [4] $end
$var wire 1 J ww_a [3] $end
$var wire 1 K ww_a [2] $end
$var wire 1 L ww_a [1] $end
$var wire 1 M ww_a [0] $end
$var wire 1 N ww_b [7] $end
$var wire 1 O ww_b [6] $end
$var wire 1 P ww_b [5] $end
$var wire 1 Q ww_b [4] $end
$var wire 1 R ww_b [3] $end
$var wire 1 S ww_b [2] $end
$var wire 1 T ww_b [1] $end
$var wire 1 U ww_b [0] $end
$var wire 1 V ww_op $end
$var wire 1 W ww_s [7] $end
$var wire 1 X ww_s [6] $end
$var wire 1 Y ww_s [5] $end
$var wire 1 Z ww_s [4] $end
$var wire 1 [ ww_s [3] $end
$var wire 1 \ ww_s [2] $end
$var wire 1 ] ww_s [1] $end
$var wire 1 ^ ww_s [0] $end
$var wire 1 _ ww_luz1 $end
$var wire 1 ` ww_luz2 $end
$var wire 1 a ww_cout $end
$var wire 1 b \s[0]~output_o\ $end
$var wire 1 c \s[1]~output_o\ $end
$var wire 1 d \s[2]~output_o\ $end
$var wire 1 e \s[3]~output_o\ $end
$var wire 1 f \s[4]~output_o\ $end
$var wire 1 g \s[5]~output_o\ $end
$var wire 1 h \s[6]~output_o\ $end
$var wire 1 i \s[7]~output_o\ $end
$var wire 1 j \luz1~output_o\ $end
$var wire 1 k \luz2~output_o\ $end
$var wire 1 l \cout~output_o\ $end
$var wire 1 m \a[0]~input_o\ $end
$var wire 1 n \b[0]~input_o\ $end
$var wire 1 o \i0|s~combout\ $end
$var wire 1 p \a[1]~input_o\ $end
$var wire 1 q \op~input_o\ $end
$var wire 1 r \b[1]~input_o\ $end
$var wire 1 s \i0|cout~0_combout\ $end
$var wire 1 t \i1|s~combout\ $end
$var wire 1 u \b[2]~input_o\ $end
$var wire 1 v \a[2]~input_o\ $end
$var wire 1 w \i1|cout~0_combout\ $end
$var wire 1 x \i2|s~0_combout\ $end
$var wire 1 y \b[3]~input_o\ $end
$var wire 1 z \i2|cout~0_combout\ $end
$var wire 1 { \a[3]~input_o\ $end
$var wire 1 | \i3|s~0_combout\ $end
$var wire 1 } \b[4]~input_o\ $end
$var wire 1 ~ \a[4]~input_o\ $end
$var wire 1 !! \i3|cout~0_combout\ $end
$var wire 1 "! \i4|s~0_combout\ $end
$var wire 1 #! \b[5]~input_o\ $end
$var wire 1 $! \a[5]~input_o\ $end
$var wire 1 %! \i4|cout~0_combout\ $end
$var wire 1 &! \i5|s~0_combout\ $end
$var wire 1 '! \b[6]~input_o\ $end
$var wire 1 (! \a[6]~input_o\ $end
$var wire 1 )! \i5|cout~0_combout\ $end
$var wire 1 *! \i6|s~0_combout\ $end
$var wire 1 +! \a[7]~input_o\ $end
$var wire 1 ,! \i6|cout~0_combout\ $end
$var wire 1 -! \b[7]~input_o\ $end
$var wire 1 .! \i7|s~0_combout\ $end
$var wire 1 /! \i7|cout~0_combout\ $end
$var wire 1 0! \ALT_INV_op~input_o\ $end
$upscope $end
$upscope $end
$enddefinitions $end
#0
$dumpvars
01
02
03
04
0=
1>
x?
1@
1A
1B
1C
1D
1E
0V
0_
0`
0a
0b
0c
0d
0e
0f
0g
0h
0i
0j
0k
0l
xm
xn
xo
xp
xq
xr
xs
xt
xu
xv
xw
xx
xy
xz
x{
x|
x}
x~
x!!
x"!
x#!
x$!
x%!
x&!
x'!
x(!
x)!
x*!
x+!
x,!
x-!
x.!
x/!
x0!
0!
0"
0#
0$
0%
0&
0'
0(
0)
0*
0+
0,
0-
0.
0/
00
05
06
07
08
09
0:
0;
0<
0F
0G
0H
0I
0J
0K
0L
0M
0N
0O
0P
0Q
0R
0S
0T
0U
0W
0X
0Y
0Z
0[
0\
0]
0^
$end
#735
0n
#755
0+!
#756
0q
10!
#765
0{
#775
0p
0$!
0'!
#785
0m
0y
0}
#795
0u
0~
0#!
0(!
#805
0-!
#806
0v
#825
0r
#3398
xb
x^
x<
#3444
xh
xX
x6
#3455
xg
xY
x7
#3668
xc
x]
x;
#3679
xd
x\
x:
#3845
xf
xZ
x8
#3852
xi
xW
x5
#4070
xe
x[
x9
#4077
xl
xa
x1
#4522
0o
#5041
0/!
#5042
0%!
#5043
0z
#5045
0!!
0s
#5239
0w
#5240
0,!
#5242
0)!
#5421
0&!
#5424
0t
#5426
0"!
#5619
0x
#5624
0*!
#5774
0|
#5972
0.!
#6308
xj
x_
x2
#7064
1j
1_
12
#7449
xk
x`
x3
#7831
0b
0^
0<
#8276
0k
0`
03
#8790
0g
0Y
07
#8986
0h
0X
06
#8988
0c
0]
0;
#9049
0l
0a
01
#9131
0f
0Z
08
#9193
0d
0\
0:
#9692
0i
0W
05
#9776
0e
0[
09
#62500
1&
1.
14
1K
1S
1V
#63150
1q
00!
#63189
1u
#63200
1v
#66935
1x
#66961
1z
#67004
0x
#67164
0z
#67169
1.!
#67170
1"!
#67171
1|
#67172
1s
1x
#67371
1*!
#67372
1&!
#67374
1t
#67524
0t
#67542
1w
#67611
1!!
#67652
0|
#67877
0!!
#67893
1|
#67896
0x
#67911
1z
#67965
0"!
#67982
1%!
#68260
0%!
#68274
1"!
#68334
0&!
#68354
1)!
#68561
1!!
#68602
0|
#68643
0)!
#68655
1&!
#68709
0*!
#68723
1,!
#68915
0"!
#68932
1%!
#69023
0,!
#69041
1*!
#69274
0j
0_
02
#69284
0&!
#69304
1)!
#69374
1/!
#69415
0.!
#69659
0*!
#69673
1,!
#69737
0/!
#69753
1.!
#70324
1/!
#70365
1k
0.!
1`
13
#70815
1h
1X
16
#70827
1g
1Y
17
#70851
1d
1\
1:
#71015
1f
1Z
18
#71021
1i
1W
15
#71042
1c
1]
1;
#71088
0c
0]
0;
#71241
1e
1[
19
#71470
0d
0\
0:
#71654
0e
0[
09
#71670
0f
0Z
08
#71703
0g
0Y
07
#71963
1e
1[
19
#72071
0h
0X
06
#72110
1g
1Y
17
#72119
1f
1Z
18
#72485
1h
1X
16
#72604
0e
0[
09
#72620
0f
0Z
08
#72653
0g
0Y
07
#73021
0h
0X
06
#73135
0i
0W
05
#73451
1l
1a
11
#73605
1i
1W
15
#73745
0l
0a
01
#74085
0i
0W
05
#74401
1l
1a
11
#125000
0&
0.
04
1%
1-
0K
1J
0S
1R
0V
#125659
1{
#125679
1y
#125756
0q
10!
#125795
0u
#125806
0v
#129774
1x
#129840
0x
#130041
0/!
#130042
0%!
#130043
0z
#130045
0s
#130048
1.!
#130050
1"!
#130051
1|
#130052
1x
#130239
0w
#130240
0,!
#130242
0)!
#130245
1*!
#130246
1&!
#130249
1t
#130421
0&!
#130424
0t
#130619
0x
#130624
0*!
#130774
0|
#130972
0.!
#132064
1j
1_
12
#133276
0k
0`
03
#133689
1h
1X
16
#133701
1g
1Y
17
#133731
1d
1\
1:
#133790
0g
0Y
07
#133895
1f
1Z
18
#133900
1i
1W
15
#133917
1c
1]
1;
#133986
0h
0X
06
#133988
0c
0]
0;
#134049
0l
0a
01
#134121
1e
1[
19
#134193
0d
0\
0:
#134692
0i
0W
05
#134776
0e
0[
09
#187500
1&
1.
14
1K
1S
1V
#188150
1q
00!
#188189
1u
#188200
1v
#191935
1x
#191961
1z
#192004
0x
#192164
0"!
0z
#192166
0!!
#192169
1.!
1%!
#192171
1|
#192172
1s
1x
#192371
1*!
#192372
1&!
#192374
1t
#192521
0&!
#192524
0t
#192541
1)!
#192542
1w
#192549
0%!
#192563
1"!
#192611
1!!
#192652
0|
#192877
0!!
#192893
1|
#192896
0x
0*!
#192910
1,!
#192911
1z
#192932
0)!
#192944
1&!
#192965
0"!
#192982
1%!
#193260
0%!
#193274
1"!
#193312
0,!
#193330
1*!
#193334
0&!
#193354
1)!
#193561
1!!
1/!
#193602
0|
0.!
#193643
0)!
#193655
1&!
#193709
0*!
#193723
1,!
#193915
0"!
#193932
1%!
#194023
0,!
#194026
0/!
#194041
1*!
#194042
1.!
#194274
0j
0_
02
#194284
0&!
#194304
1)!
#194374
1/!
#194415
0.!
#194659
0*!
#194673
1,!
#194737
0/!
#194753
1.!
#195324
1/!
#195365
1k
0.!
1`
13
#195815
1h
1X
16
#195827
1g
1Y
17
#195851
1d
1\
1:
#195869
0f
0Z
08
#195890
0g
0Y
07
#196021
1i
1W
15
#196042
1c
1]
1;
#196088
0c
0]
0;
#196241
1e
1[
19
#196258
0h
0X
06
#196399
1g
1Y
17
#196408
1f
1Z
18
#196470
0d
0\
0:
#196654
0e
0[
09
#196670
0f
0Z
08
#196703
0g
0Y
07
#196774
1h
1X
16
#196963
1e
1[
19
#197071
0h
0X
06
#197110
1g
1Y
17
#197119
1f
1Z
18
#197322
0i
0W
05
#197485
1h
1X
16
#197604
0e
0[
09
#197620
0f
0Z
08
#197638
1l
1a
11
#197653
0g
0Y
07
#197894
1i
1W
15
#198021
0h
0X
06
#198034
0l
0a
01
#198135
0i
0W
05
#198451
1l
1a
11
#198605
1i
1W
15
#198745
0l
0a
01
#199085
0i
0W
05
#199401
1l
1a
11
#250000
0&
0.
04
0%
0-
1$
1,
0K
0J
1I
0S
0R
1Q
0V
#250679
1}
#250689
1~
#250756
0q
10!
#250765
0{
#250785
0y
#250795
0u
#250806
0v
#254212
1"!
#254369
0"!
#254774
1x
#254840
0x
#255041
0/!
#255043
0z
#255045
0!!
0s
#255048
1.!
#255050
1"!
#255051
1|
#255052
1x
#255239
0w
#255240
0,!
#255242
0)!
#255245
1*!
#255246
1&!
#255249
1t
#255424
0t
#255426
0"!
#255619
0x
#255624
0*!
#255774
0|
#255972
0.!
#257064
1j
1_
12
#258057
1f
1Z
18
#258074
0f
0Z
08
#258276
0k
0`
03
#258689
1h
1X
16
#258701
1g
1Y
17
#258731
1d
1\
1:
#258895
1f
1Z
18
#258900
1i
1W
15
#258917
1c
1]
1;
#258986
0h
0X
06
#258988
0c
0]
0;
#259049
0l
0a
01
#259121
1e
1[
19
#259131
0f
0Z
08
#259193
0d
0\
0:
#259692
0i
0W
05
#259776
0e
0[
09
#312500
1&
1.
14
1K
1S
1V
#313150
1q
00!
#313189
1u
#313200
1v
#316935
1x
#316961
1z
#317004
0x
#317163
0%!
#317164
0z
#317169
1.!
#317170
1"!
#317171
1|
#317172
1s
1x
#317357
1)!
#317371
1*!
#317374
0&!
1t
#317524
0t
#317542
1w
#317546
0)!
#317558
1&!
#317611
1!!
#317652
0|
#317712
0*!
#317726
1,!
#317877
0!!
#317893
1|
#317896
0x
#317911
1z
#317926
0,!
#317944
1*!
#317965
0"!
#317982
1%!
#318260
0%!
#318274
1"!
#318334
0&!
#318354
1)!
#318377
1/!
#318418
0.!
#318561
1!!
#318602
0|
#318640
0/!
#318643
0)!
#318655
1&!
#318656
1.!
#318709
0*!
#318723
1,!
#318915
0"!
#318932
1%!
#319023
0,!
#319041
1*!
#319274
0j
0_
02
#319284
0&!
#319304
1)!
#319374
1/!
#319415
0.!
#319659
0*!
#319673
1,!
#319737
0/!
#319753
1.!
#320324
1/!
#320365
1k
0.!
1`
13
#320743
0g
0Y
07
#320815
1h
1X
16
#320851
1d
1\
1:
#321013
1g
1Y
17
#321015
1f
1Z
18
#321021
1i
1W
15
#321042
1c
1]
1;
#321074
0h
0X
06
#321088
0c
0]
0;
#321241
1e
1[
19
#321388
1h
1X
16
#321470
0d
0\
0:
#321654
0e
0[
09
#321670
0f
0Z
08
#321703
0g
0Y
07
#321963
1e
1[
19
#322071
0h
0X
06
#322110
1g
1Y
17
#322119
1f
1Z
18
#322138
0i
0W
05
#322454
1l
1a
11
#322485
1h
1X
16
#322508
1i
1W
15
#322604
0e
0[
09
#322620
0f
0Z
08
#322648
0l
0a
01
#322653
0g
0Y
07
#323021
0h
0X
06
#323135
0i
0W
05
#323451
1l
1a
11
#323605
1i
1W
15
#323745
0l
0a
01
#324085
0i
0W
05
#324401
1l
1a
11
#375000
0&
0.
04
1%
1-
0K
1J
0S
1R
0V
#375659
1{
#375679
1y
#375756
0q
10!
#375795
0u
#375806
0v
#379774
1x
#379840
0x
#380041
0/!
#380043
0z
#380045
0s
#380048
1.!
#380050
1"!
#380051
1|
#380052
1x
#380239
0w
#380240
0,!
#380242
0)!
#380245
1*!
#380246
1&!
#380249
1t
#380424
0t
#380619
0x
#380624
0*!
#380774
0|
#380972
0.!
#382064
1j
1_
12
#383276
0k
0`
03
#383689
1h
1X
16
#383701
1g
1Y
17
#383731
1d
1\
1:
#383895
1f
1Z
18
#383900
1i
1W
15
#383917
1c
1]
1;
#383986
0h
0X
06
#383988
0c
0]
0;
#384049
0l
0a
01
#384121
1e
1[
19
#384193
0d
0\
0:
#384692
0i
0W
05
#384776
0e
0[
09
#437500
1&
1.
14
1K
1S
1V
#438150
1q
00!
#438189
1u
#438200
1v
#441935
1x
#441961
1z
#442004
0x
#442164
0"!
0z
#442166
0!!
#442169
1.!
#442171
1|
#442172
1s
1x
#442357
1)!
#442371
1*!
#442374
0&!
1t
#442524
0t
#442542
1w
#442549
0%!
#442563
1"!
#442611
1!!
#442652
0|
#442712
0*!
#442726
1,!
#442877
0!!
#442893
1|
#442896
0x
#442911
1z
#442932
0)!
#442944
1&!
#442965
0"!
#442982
1%!
#443260
0%!
#443274
1"!
#443312
0,!
#443330
1*!
#443334
0&!
#443354
1)!
#443377
1/!
#443418
0.!
#443561
1!!
#443602
0|
#443643
0)!
#443655
1&!
#443709
0*!
#443723
1,!
#443915
0"!
#443932
1%!
#444023
0,!
#444026
0/!
#444041
1*!
#444042
1.!
#444274
0j
0_
02
#444284
0&!
#444304
1)!
#444374
1/!
#444415
0.!
#444659
0*!
#444673
1,!
#444737
0/!
#444753
1.!
#445324
1/!
#445365
1k
0.!
1`
13
#445743
0g
0Y
07
#445815
1h
1X
16
#445851
1d
1\
1:
#445869
0f
0Z
08
#446021
1i
1W
15
#446042
1c
1]
1;
#446074
0h
0X
06
#446088
0c
0]
0;
#446241
1e
1[
19
#446399
1g
1Y
17
#446408
1f
1Z
18
#446470
0d
0\
0:
#446654
0e
0[
09
#446670
0f
0Z
08
#446703
0g
0Y
07
#446774
1h
1X
16
#446963
1e
1[
19
#447071
0h
0X
06
#447110
1g
1Y
17
#447119
1f
1Z
18
#447138
0i
0W
05
#447454
1l
1a
11
#447485
1h
1X
16
#447604
0e
0[
09
#447620
0f
0Z
08
#447653
0g
0Y
07
#447894
1i
1W
15
#448021
0h
0X
06
#448034
0l
0a
01
#448135
0i
0W
05
#448451
1l
1a
11
#448605
1i
1W
15
#448745
0l
0a
01
#449085
0i
0W
05
#449401
1l
1a
11
#500000
0&
0.
04
0%
0-
0$
0,
1#
1+
0K
0J
0I
1H
0S
0R
0Q
1P
0V
#500669
1$!
#500689
1#!
#500756
0q
10!
#500765
0{
#500785
0}
0y
#500795
0u
0~
#500806
0v
#504183
1&!
#504379
0&!
#504571
0%!
#504586
1"!
#504694
1%!
#504719
0"!
#504774
1x
#504840
0x
#505041
0/!
#505042
0%!
#505043
0z
#505045
0!!
0s
#505048
1.!
#505050
1"!
#505051
1|
#505052
1x
#505062
1&!
#505239
0w
#505240
0,!
#505245
1*!
#505249
1t
#505421
0&!
#505424
0t
#505426
0"!
#505619
0x
#505774
0|
#505972
0.!
#507064
1j
1_
12
#507638
1g
1Y
17
#507748
0g
0Y
07
#508276
0k
0`
03
#508517
1g
1Y
17
#508689
1h
1X
16
#508731
1d
1\
1:
#508790
0g
0Y
07
#508895
1f
1Z
18
#508900
1i
1W
15
#508917
1c
1]
1;
#508988
0c
0]
0;
#509049
0l
0a
01
#509121
1e
1[
19
#509131
0f
0Z
08
#509193
0d
0\
0:
#509692
0i
0W
05
#509776
0e
0[
09
#562500
1&
1.
14
1K
1S
1V
#563150
1q
00!
#563189
1u
#563200
1v
#566935
1x
#566961
1z
#567004
0x
#567164
0z
#567169
1.!
#567170
1"!
#567171
1|
#567172
1s
1x
#567355
1,!
#567368
0)!
#567372
1&!
#567373
0*!
#567374
1t
#567524
0t
#567542
1w
#567611
1!!
#567652
0|
#567748
0,!
#567766
1*!
#567877
0!!
#567893
1|
#567896
0x
#567911
1z
#567965
0"!
#567982
1%!
#568006
1/!
#568047
0.!
#568260
0%!
#568274
1"!
#568334
0&!
#568354
1)!
#568462
0/!
#568478
1.!
#568561
1!!
#568602
0|
#568643
0)!
#568655
1&!
#568709
0*!
#568723
1,!
#568915
0"!
#568932
1%!
#569023
0,!
#569041
1*!
#569274
0j
0_
02
#569284
0&!
#569304
1)!
#569374
1/!
#569415
0.!
#569659
0*!
#569673
1,!
#569737
0/!
#569753
1.!
#570324
1/!
#570365
1k
0.!
1`
13
#570735
0h
0X
06
#570827
1g
1Y
17
#570851
1d
1\
1:
#571015
1f
1Z
18
#571021
1i
1W
15
#571042
1c
1]
1;
#571088
0c
0]
0;
#571210
1h
1X
16
#571241
1e
1[
19
#571470
0d
0\
0:
#571654
0e
0[
09
#571670
0f
0Z
08
#571703
0g
0Y
07
#571767
0i
0W
05
#571963
1e
1[
19
#572071
0h
0X
06
#572083
1l
1a
11
#572110
1g
1Y
17
#572119
1f
1Z
18
#572330
1i
1W
15
#572470
0l
0a
01
#572485
1h
1X
16
#572604
0e
0[
09
#572620
0f
0Z
08
#572653
0g
0Y
07
#573021
0h
0X
06
#573135
0i
0W
05
#573451
1l
1a
11
#573605
1i
1W
15
#573745
0l
0a
01
#574085
0i
0W
05
#574401
1l
1a
11
#625000
0&
0.
04
1%
1-
0K
1J
0S
1R
0V
#625659
1{
#625679
1y
#625756
0q
10!
#625795
0u
#625806
0v
#629774
1x
#629840
0x
#630041
0/!
#630042
0%!
#630043
0z
#630045
0s
#630048
1.!
#630050
1"!
#630051
1|
#630052
1x
#630239
0w
#630240
0,!
#630245
1*!
#630246
1&!
#630249
1t
#630421
0&!
#630424
0t
#630619
0x
#630774
0|
#630972
0.!
#632064
1j
1_
12
#633276
0k
0`
03
#633689
1h
1X
16
#633701
1g
1Y
17
#633731
1d
1\
1:
#633790
0g
0Y
07
#633895
1f
1Z
18
#633900
1i
1W
15
#633917
1c
1]
1;
#633988
0c
0]
0;
#634049
0l
0a
01
#634121
1e
1[
19
#634193
0d
0\
0:
#634692
0i
0W
05
#634776
0e
0[
09
#687500
1&
1.
14
1K
1S
1V
#688150
1q
00!
#688189
1u
#688200
1v
#691935
1x
#691961
1z
#692004
0x
#692164
0"!
0z
#692166
0!!
#692169
1.!
1%!
#692171
1|
#692172
1s
1x
#692355
1,!
#692368
0)!
#692372
1&!
#692373
0*!
#692374
1t
#692521
0&!
#692524
0t
#692541
1)!
#692542
1w
#692549
0%!
#692563
1"!
#692611
1!!
#692652
0|
#692748
0,!
#692766
1*!
#692877
0!!
#692893
1|
#692896
0x
0*!
#692910
1,!
#692911
1z
#692932
0)!
#692944
1&!
#692965
0"!
#692982
1%!
#693006
1/!
#693047
0.!
#693260
0%!
#693274
1"!
#693312
0,!
#693330
1*!
#693334
0&!
#693354
1)!
#693462
0/!
#693478
1.!
#693561
1!!
1/!
#693602
0|
0.!
#693643
0)!
#693655
1&!
#693709
0*!
#693723
1,!
#693915
0"!
#693932
1%!
#694023
0,!
#694026
0/!
#694041
1*!
#694042
1.!
#694274
0j
0_
02
#694284
0&!
#694304
1)!
#694374
1/!
#694415
0.!
#694659
0*!
#694673
1,!
#694737
0/!
#694753
1.!
#695324
1/!
#695365
1k
0.!
1`
13
#695735
0h
0X
06
#695827
1g
1Y
17
#695851
1d
1\
1:
#695869
0f
0Z
08
#695890
0g
0Y
07
#696021
1i
1W
15
#696042
1c
1]
1;
#696088
0c
0]
0;
#696210
1h
1X
16
#696241
1e
1[
19
#696258
0h
0X
06
#696399
1g
1Y
17
#696408
1f
1Z
18
#696470
0d
0\
0:
#696654
0e
0[
09
#696670
0f
0Z
08
#696703
0g
0Y
07
#696767
0i
0W
05
#696774
1h
1X
16
#696963
1e
1[
19
#697071
0h
0X
06
#697083
1l
1a
11
#697110
1g
1Y
17
#697119
1f
1Z
18
#697470
0l
0a
01
#697485
1h
1X
16
#697604
0e
0[
09
#697620
0f
0Z
08
#697638
1l
1a
11
#697653
0g
0Y
07
#697894
1i
1W
15
#698021
0h
0X
06
#698034
0l
0a
01
#698135
0i
0W
05
#698451
1l
1a
11
#698605
1i
1W
15
#698745
0l
0a
01
#699085
0i
0W
05
#699401
1l
1a
11
#750000
0&
0.
04
0%
0-
1$
1,
0K
0J
1I
0S
0R
1Q
0V
#750679
1}
#750689
1~
#750756
0q
10!
#750765
0{
#750785
0y
#750795
0u
#750806
0v
#754212
1"!
#754369
0"!
#754774
1x
#754840
0x
#755041
0/!
#755043
0z
#755045
0!!
0s
#755048
1.!
#755050
1"!
#755051
1|
#755052
1x
#755239
0w
#755240
0,!
#755245
1*!
#755246
1&!
#755249
1t
#755424
0t
#755426
0"!
#755619
0x
#755774
0|
#755972
0.!
#757064
1j
1_
12
#758057
1f
1Z
18
#758074
0f
0Z
08
#758276
0k
0`
03
#758689
1h
1X
16
#758701
1g
1Y
17
#758731
1d
1\
1:
#758895
1f
1Z
18
#758900
1i
1W
15
#758917
1c
1]
1;
#758988
0c
0]
0;
#759049
0l
0a
01
#759121
1e
1[
19
#759131
0f
0Z
08
#759193
0d
0\
0:
#759692
0i
0W
05
#759776
0e
0[
09
#812500
1&
1.
14
1K
1S
1V
#813150
1q
00!
#813189
1u
#813200
1v
#816935
1x
#816961
1z
#817004
0x
#817163
0%!
#817164
0z
#817169
1.!
#817170
1"!
#817171
1|
#817172
1s
1x
#817355
1,!
#817373
0*!
#817374
0&!
1t
#817524
0t
#817542
1w
#817546
0)!
#817558
1&!
#817611
1!!
#817652
0|
#817877
0!!
#817893
1|
#817896
0x
#817911
1z
#817926
0,!
#817944
1*!
#817965
0"!
#817982
1%!
#818006
1/!
#818047
0.!
#818260
0%!
#818274
1"!
#818334
0&!
#818354
1)!
#818561
1!!
#818602
0|
#818640
0/!
#818643
0)!
#818655
1&!
#818656
1.!
#818709
0*!
#818723
1,!
#818915
0"!
#818932
1%!
#819023
0,!
#819041
1*!
#819274
0j
0_
02
#819284
0&!
#819304
1)!
#819374
1/!
#819415
0.!
#819659
0*!
#819673
1,!
#819737
0/!
#819753
1.!
#820324
1/!
#820365
1k
0.!
1`
13
#820735
0h
0X
06
#820743
0g
0Y
07
#820851
1d
1\
1:
#821013
1g
1Y
17
#821015
1f
1Z
18
#821021
1i
1W
15
#821042
1c
1]
1;
#821088
0c
0]
0;
#821241
1e
1[
19
#821388
1h
1X
16
#821470
0d
0\
0:
#821654
0e
0[
09
#821670
0f
0Z
08
#821703
0g
0Y
07
#821767
0i
0W
05
#821963
1e
1[
19
#822071
0h
0X
06
#822083
1l
1a
11
#822110
1g
1Y
17
#822119
1f
1Z
18
#822485
1h
1X
16
#822508
1i
1W
15
#822604
0e
0[
09
#822620
0f
0Z
08
#822648
0l
0a
01
#822653
0g
0Y
07
#823021
0h
0X
06
#823135
0i
0W
05
#823451
1l
1a
11
#823605
1i
1W
15
#823745
0l
0a
01
#824085
0i
0W
05
#824401
1l
1a
11
#875000
0&
0.
04
1%
1-
0K
1J
0S
1R
0V
#875659
1{
#875679
1y
#875756
0q
10!
#875795
0u
#875806
0v
#879774
1x
#879840
0x
#880041
0/!
#880043
0z
#880045
0s
#880048
1.!
#880050
1"!
#880051
1|
#880052
1x
#880239
0w
#880240
0,!
#880245
1*!
#880246
1&!
#880249
1t
#880424
0t
#880619
0x
#880774
0|
#880972
0.!
#882064
1j
1_
12
#883276
0k
0`
03
#883689
1h
1X
16
#883701
1g
1Y
17
#883731
1d
1\
1:
#883895
1f
1Z
18
#883900
1i
1W
15
#883917
1c
1]
1;
#883988
0c
0]
0;
#884049
0l
0a
01
#884121
1e
1[
19
#884193
0d
0\
0:
#884692
0i
0W
05
#884776
0e
0[
09
#937500
1&
1.
14
1K
1S
1V
#938150
1q
00!
#938189
1u
#938200
1v
#941935
1x
#941961
1z
#942004
0x
#942164
0"!
0z
#942166
0!!
#942169
1.!
#942171
1|
#942172
1s
1x
#942355
1,!
#942373
0*!
#942374
0&!
1t
#942524
0t
#942542
1w
#942549
0%!
#942563
1"!
#942611
1!!
#942652
0|
#942877
0!!
#942893
1|
#942896
0x
#942911
1z
#942932
0)!
#942944
1&!
#942965
0"!
#942982
1%!
#943006
1/!
#943047
0.!
#943260
0%!
#943274
1"!
#943312
0,!
#943330
1*!
#943334
0&!
#943354
1)!
#943561
1!!
#943602
0|
#943643
0)!
#943655
1&!
#943709
0*!
#943723
1,!
#943915
0"!
#943932
1%!
#944023
0,!
#944026
0/!
#944041
1*!
#944042
1.!
#944274
0j
0_
02
#944284
0&!
#944304
1)!
#944374
1/!
#944415
0.!
#944659
0*!
#944673
1,!
#944737
0/!
#944753
1.!
#945324
1/!
#945365
1k
0.!
1`
13
#945735
0h
0X
06
#945743
0g
0Y
07
#945851
1d
1\
1:
#945869
0f
0Z
08
#946021
1i
1W
15
#946042
1c
1]
1;
#946088
0c
0]
0;
#946241
1e
1[
19
#946399
1g
1Y
17
#946408
1f
1Z
18
#946470
0d
0\
0:
#946654
0e
0[
09
#946670
0f
0Z
08
#946703
0g
0Y
07
#946767
0i
0W
05
#946774
1h
1X
16
#946963
1e
1[
19
#947071
0h
0X
06
#947083
1l
1a
11
#947110
1g
1Y
17
#947119
1f
1Z
18
#947485
1h
1X
16
#947604
0e
0[
09
#947620
0f
0Z
08
#947653
0g
0Y
07
#947894
1i
1W
15
#948021
0h
0X
06
#948034
0l
0a
01
#948135
0i
0W
05
#948451
1l
1a
11
#948605
1i
1W
15
#948745
0l
0a
01
#949085
0i
0W
05
#949401
1l
1a
11
