Tarefa21_1/simulation/qsim/cont_ac.msim.vcd
$comment
	File created using the following command:
		vcd file cont_ac.msim.vcd -direction
$end
$date
	Sat Oct 12 23:47:29 2019
$end
$version
	ModelSim Version 10.5b
$end
$timescale
	1ps
$end

$scope module cont_ac_vhd_vec_tst $end
$var wire 1 ! clk $end
$var wire 1 " q [1] $end
$var wire 1 # q [0] $end

$scope module i1 $end
$var wire 1 $ gnd $end
$var wire 1 % vcc $end
$var wire 1 & unknown $end
$var wire 1 ' devoe $end
$var wire 1 ( devclrn $end
$var wire 1 ) devpor $end
$var wire 1 * ww_devoe $end
$var wire 1 + ww_devclrn $end
$var wire 1 , ww_devpor $end
$var wire 1 - ww_clk $end
$var wire 1 . ww_q [1] $end
$var wire 1 / ww_q [0] $end
$var wire 1 0 \q[0]~output_o\ $end
$var wire 1 1 \q[1]~output_o\ $end
$var wire 1 2 \clk~input_o\ $end
$var wire 1 3 \s0~0_combout\ $end
$var wire 1 4 \s0~q\ $end
$var wire 1 5 \s1~0_combout\ $end
$var wire 1 6 \s1~q\ $end
$var wire 1 7 \ALT_INV_s0~q\ $end
$upscope $end
$upscope $end
$enddefinitions $end
#0
$dumpvars
0!
0$
1%
x&
1'
1(
1)
1*
1+
1,
0-
00
01
02
13
04
15
06
17
0.
0/
0"
0#
$end
#20000
1!
1-
12
14
07
03
10
1/
1#
#40000
0!
0-
02
#60000
1!
1-
12
04
17
13
16
00
05
0/
0#
11
1.
1"
#80000
0!
0-
02
#100000
1!
1-
12
14
07
03
10
1/
1#
#120000
0!
0-
02
#140000
1!
1-
12
04
17
13
06
00
15
0/
0#
01
0.
0"
#160000
0!
0-
02
#180000
1!
1-
12
14
07
03
10
1/
1#
#200000
0!
0-
02
#220000
1!
1-
12
04
17
13
16
00
05
0/
0#
11
1.
1"
#240000
0!
0-
02
#260000
1!
1-
12
14
07
03
10
1/
1#
#280000
0!
0-
02
#300000
1!
1-
12
04
17
13
06
00
15
0/
0#
01
0.
0"
#320000
0!
0-
02
#340000
1!
1-
12
14
07
03
10
1/
1#
#360000
0!
0-
02
#380000
1!
1-
12
04
17
13
16
00
05
0/
0#
11
1.
1"
#400000
0!
0-
02
#420000
1!
1-
12
14
07
03
10
1/
1#
#440000
0!
0-
02
#460000
1!
1-
12
04
17
13
06
00
15
0/
0#
01
0.
0"
#480000
0!
0-
02
#500000
1!
1-
12
14
07
03
10
1/
1#
#520000
0!
0-
02
#540000
1!
1-
12
04
17
13
16
00
05
0/
0#
11
1.
1"
#560000
0!
0-
02
#580000
1!
1-
12
14
07
03
10
1/
1#
#600000
0!
0-
02
#620000
1!
1-
12
04
17
13
06
00
15
0/
0#
01
0.
0"
#640000
0!
0-
02
#660000
1!
1-
12
14
07
03
10
1/
1#
#680000
0!
0-
02
#700000
1!
1-
12
04
17
13
16
00
05
0/
0#
11
1.
1"
#720000
0!
0-
02
#740000
1!
1-
12
14
07
03
10
1/
1#
#760000
0!
0-
02
#780000
1!
1-
12
04
17
13
06
00
15
0/
0#
01
0.
0"
#800000
0!
0-
02
#820000
1!
1-
12
14
07
03
10
1/
1#
#840000
0!
0-
02
#860000
1!
1-
12
04
17
13
16
00
05
0/
0#
11
1.
1"
#880000
0!
0-
02
#900000
1!
1-
12
14
07
03
10
1/
1#
#920000
0!
0-
02
#940000
1!
1-
12
04
17
13
06
00
15
0/
0#
01
0.
0"
#960000
0!
0-
02
#980000
1!
1-
12
14
07
03
10
1/
1#
