FullAdder_HalfAdder/simulation/qsim/somador_4bits.msim.vcd
$comment
	File created using the following command:
		vcd file somador_4bits.msim.vcd -direction
$end
$date
	Wed Aug 28 20:51:22 2019
$end
$version
	ModelSim Version 10.5b
$end
$timescale
	1ps
$end

$scope module somador_4bits_vhd_vec_tst $end
$var wire 1 ! a [3] $end
$var wire 1 " a [2] $end
$var wire 1 # a [1] $end
$var wire 1 $ a [0] $end
$var wire 1 % b [3] $end
$var wire 1 & b [2] $end
$var wire 1 ' b [1] $end
$var wire 1 ( b [0] $end
$var wire 1 ) cout $end
$var wire 1 * s [3] $end
$var wire 1 + s [2] $end
$var wire 1 , s [1] $end
$var wire 1 - s [0] $end

$scope module i1 $end
$var wire 1 . gnd $end
$var wire 1 / vcc $end
$var wire 1 0 unknown $end
$var wire 1 1 devoe $end
$var wire 1 2 devclrn $end
$var wire 1 3 devpor $end
$var wire 1 4 ww_devoe $end
$var wire 1 5 ww_devclrn $end
$var wire 1 6 ww_devpor $end
$var wire 1 7 ww_a [3] $end
$var wire 1 8 ww_a [2] $end
$var wire 1 9 ww_a [1] $end
$var wire 1 : ww_a [0] $end
$var wire 1 ; ww_b [3] $end
$var wire 1 < ww_b [2] $end
$var wire 1 = ww_b [1] $end
$var wire 1 > ww_b [0] $end
$var wire 1 ? ww_s [3] $end
$var wire 1 @ ww_s [2] $end
$var wire 1 A ww_s [1] $end
$var wire 1 B ww_s [0] $end
$var wire 1 C ww_cout $end
$var wire 1 D \s[0]~output_o\ $end
$var wire 1 E \s[1]~output_o\ $end
$var wire 1 F \s[2]~output_o\ $end
$var wire 1 G \s[3]~output_o\ $end
$var wire 1 H \cout~output_o\ $end
$var wire 1 I \b[0]~input_o\ $end
$var wire 1 J \a[0]~input_o\ $end
$var wire 1 K \i0|s~combout\ $end
$var wire 1 L \a[1]~input_o\ $end
$var wire 1 M \b[1]~input_o\ $end
$var wire 1 N \i1|s~0_combout\ $end
$var wire 1 O \b[2]~input_o\ $end
$var wire 1 P \a[2]~input_o\ $end
$var wire 1 Q \i1|cout~0_combout\ $end
$var wire 1 R \i2|s~0_combout\ $end
$var wire 1 S \a[3]~input_o\ $end
$var wire 1 T \b[3]~input_o\ $end
$var wire 1 U \i2|cout~0_combout\ $end
$var wire 1 V \i3|s~combout\ $end
$var wire 1 W \i3|cout~0_combout\ $end
$upscope $end
$upscope $end
$enddefinitions $end
#0
$dumpvars
0)
0.
1/
x0
11
12
13
14
15
16
0C
0D
0E
0F
0G
0H
xI
xJ
xK
xL
xM
xN
xO
xP
xQ
xR
xS
xT
xU
xV
xW
0!
0"
0#
0$
0%
0&
0'
0(
07
08
09
0:
0;
0<
0=
0>
0?
0@
0A
0B
0*
0+
0,
0-
$end
#746
0M
0P
#776
0S
#786
0J
0O
#796
0L
#806
0I
#816
0T
#3618
xH
xC
x)
#3624
xG
x?
x*
#3628
xF
x@
x+
#3642
xD
xB
x-
#3649
xE
xA
x,
#4269
0Q
#4270
0K
#4324
0U
#4408
0N
#4615
0W
#4652
0R
#4705
0V
#7858
0D
0B
0-
#8022
0E
0A
0,
#8193
0H
0C
0)
#8244
0F
0@
0+
#8294
0G
0?
0*
#50000
1$
1(
1:
1>
#50680
1J
#50700
1I
#53902
1K
#53909
0K
#54239
1N
#57888
1E
1A
1,
#100000
0$
0(
1#
1'
0:
19
0>
1=
#100640
1M
#100690
1L
#100786
0J
#100806
0I
#103544
0N
#103557
1Q
#103929
1R
#104063
1N
#104297
0N
#107158
0E
0A
0,
#107557
1F
1@
1+
#107712
1E
1A
1,
#107911
0E
0A
0,
#150000
1$
1(
1:
1>
#150680
1J
#150700
1I
#153902
1K
#153909
0K
#154239
1N
#157888
1E
1A
1,
#200000
0$
0(
0#
0'
1"
1&
0:
09
18
0>
0=
1<
#200640
1P
#200680
1O
#200746
0M
#200786
0J
#200796
0L
#200806
0I
#203899
1U
#203905
0N
#203927
0R
#203966
1R
#204269
0Q
1V
#204281
1N
#204408
0N
#204652
0R
#207519
0E
0F
0A
0@
0,
0+
#207594
1F
1@
1+
#207893
1G
1?
1*
#207930
1E
1A
1,
#208022
0E
0A
0,
#208244
0F
0@
0+
#250000
1$
1(
1:
1>
#250680
1J
#250700
1I
#253902
1K
#253909
0K
#254239
1N
#257888
1E
1A
1,
#300000
0$
0(
1#
1'
0:
19
0>
1=
#300640
1M
#300690
1L
#300786
0J
#300806
0I
#303544
0N
#303557
1Q
#303929
1R
#304063
1N
#304297
0N
#307158
0E
0A
0,
#307557
1F
1@
1+
#307712
1E
1A
1,
#307911
0E
0A
0,
#350000
1$
1(
1:
1>
#350680
1J
#350700
1I
#353902
1K
#353909
0K
#354239
1N
#357888
1E
1A
1,
#400000
0$
0(
0#
0'
0"
0&
1!
1%
0:
09
08
17
0>
0=
0<
1;
#400670
1S
#400710
1T
#400746
0M
0P
#400786
0O
0J
#400796
0L
#400806
0I
#403840
1W
#403878
0V
#403905
0N
#404265
1V
#404269
0Q
#404281
1N
#404290
0R
#404324
0U
#404331
1R
#404408
0N
#404652
0R
#404705
0V
#407458
1H
1C
1)
#407467
0G
0?
0*
#407519
0E
0A
0,
#407882
0F
0@
0+
#407889
1G
1?
1*
#407930
1E
1A
1,
#407959
1F
1@
1+
#408022
0E
0A
0,
#408244
0F
0@
0+
#408294
0G
0?
0*
#450000
1$
1(
1:
1>
#450680
1J
#450700
1I
#453902
1K
#453909
0K
#454239
1N
#457888
1E
1A
1,
#500000
0$
0(
1#
1'
0:
19
0>
1=
#500640
1M
#500690
1L
#500786
0J
#500806
0I
#503544
0N
#503557
1Q
#503929
1R
#504063
1N
#504297
0N
#507158
0E
0A
0,
#507557
1F
1@
1+
#507712
1E
1A
1,
#507911
0E
0A
0,
#550000
1$
1(
1:
1>
#550680
1J
#550700
1I
#553902
1K
#553909
0K
#554239
1N
#557888
1E
1A
1,
#600000
0$
0(
0#
0'
1"
1&
0:
09
18
0>
0=
1<
#600640
1P
#600680
1O
#600746
0M
#600786
0J
#600796
0L
#600806
0I
#603899
1U
#603905
0N
#603927
0R
#603966
1R
#604269
0Q
1V
#604281
1N
#604408
0N
#604652
0R
#607519
0E
0F
0A
0@
0,
0+
#607594
1F
1@
1+
#607893
1G
1?
1*
#607930
1E
1A
1,
#608022
0E
0A
0,
#608244
0F
0@
0+
#650000
1$
1(
1:
1>
#650680
1J
#650700
1I
#653902
1K
#653909
0K
#654239
1N
#657888
1E
1A
1,
#700000
0$
0(
1#
1'
0:
19
0>
1=
#700640
1M
#700690
1L
#700786
0J
#700806
0I
#703544
0N
#703557
1Q
#703929
1R
#704063
1N
#704297
0N
#707158
0E
0A
0,
#707557
1F
1@
1+
#707712
1E
1A
1,
#707911
0E
0A
0,
#750000
1$
1(
1:
1>
#750680
1J
#750700
1I
#753902
1K
#753909
0K
#754239
1N
#757888
1E
1A
1,
#800000
0$
0(
0#
0'
0"
0&
0!
0%
0:
09
08
07
0>
0=
0<
0;
#800746
0M
0P
#800776
0S
#800786
0O
0J
#800796
0L
#800806
0I
#800816
0T
#803905
0N
#804258
0V
#804269
0Q
#804281
1N
#804290
0R
#804324
0U
#804331
1R
#804408
0N
#804615
0W
#804632
1V
#804652
0R
#804705
0V
#807519
0E
0A
0,
#807847
0G
0?
0*
#807882
0F
0@
0+
#807930
1E
1A
1,
#807959
1F
1@
1+
#808022
0E
0A
0,
#808193
0H
0C
0)
#808244
0F
0@
0+
#808256
1G
1?
1*
#808294
0G
0?
0*
#850000
1$
1(
1:
1>
#850680
1J
#850700
1I
#853902
1K
#853909
0K
#854239
1N
#857888
1E
1A
1,
#900000
0$
0(
1#
1'
0:
19
0>
1=
#900640
1M
#900690
1L
#900786
0J
#900806
0I
#903544
0N
#903557
1Q
#903929
1R
#904063
1N
#904297
0N
#907158
0E
0A
0,
#907557
1F
1@
1+
#907712
1E
1A
1,
#907911
0E
0A
0,
#950000
1$
1(
1:
1>
#950680
1J
#950700
1I
#953902
1K
#953909
0K
#954239
1N
#957888
1E
1A
1,
