Tarefa21/simulation/qsim/Registrador.msim.vcd
$comment
	File created using the following command:
		vcd file Registrador.msim.vcd -direction
$end
$date
	Sat Oct 12 21:56:54 2019
$end
$version
	ModelSim Version 10.5b
$end
$timescale
	1ps
$end

$scope module registrador_vhd_vec_tst $end
$var wire 1 ! clk $end
$var wire 1 " clr $end
$var wire 1 # i [15] $end
$var wire 1 $ i [14] $end
$var wire 1 % i [13] $end
$var wire 1 & i [12] $end
$var wire 1 ' i [11] $end
$var wire 1 ( i [10] $end
$var wire 1 ) i [9] $end
$var wire 1 * i [8] $end
$var wire 1 + i [7] $end
$var wire 1 , i [6] $end
$var wire 1 - i [5] $end
$var wire 1 . i [4] $end
$var wire 1 / i [3] $end
$var wire 1 0 i [2] $end
$var wire 1 1 i [1] $end
$var wire 1 2 i [0] $end
$var wire 1 3 lr $end
$var wire 1 4 q [15] $end
$var wire 1 5 q [14] $end
$var wire 1 6 q [13] $end
$var wire 1 7 q [12] $end
$var wire 1 8 q [11] $end
$var wire 1 9 q [10] $end
$var wire 1 : q [9] $end
$var wire 1 ; q [8] $end
$var wire 1 < q [7] $end
$var wire 1 = q [6] $end
$var wire 1 > q [5] $end
$var wire 1 ? q [4] $end
$var wire 1 @ q [3] $end
$var wire 1 A q [2] $end
$var wire 1 B q [1] $end
$var wire 1 C q [0] $end

$scope module i1 $end
$var wire 1 D gnd $end
$var wire 1 E vcc $end
$var wire 1 F unknown $end
$var wire 1 G devoe $end
$var wire 1 H devclrn $end
$var wire 1 I devpor $end
$var wire 1 J ww_devoe $end
$var wire 1 K ww_devclrn $end
$var wire 1 L ww_devpor $end
$var wire 1 M ww_i [15] $end
$var wire 1 N ww_i [14] $end
$var wire 1 O ww_i [13] $end
$var wire 1 P ww_i [12] $end
$var wire 1 Q ww_i [11] $end
$var wire 1 R ww_i [10] $end
$var wire 1 S ww_i [9] $end
$var wire 1 T ww_i [8] $end
$var wire 1 U ww_i [7] $end
$var wire 1 V ww_i [6] $end
$var wire 1 W ww_i [5] $end
$var wire 1 X ww_i [4] $end
$var wire 1 Y ww_i [3] $end
$var wire 1 Z ww_i [2] $end
$var wire 1 [ ww_i [1] $end
$var wire 1 \ ww_i [0] $end
$var wire 1 ] ww_clk $end
$var wire 1 ^ ww_clr $end
$var wire 1 _ ww_lr $end
$var wire 1 ` ww_q [15] $end
$var wire 1 a ww_q [14] $end
$var wire 1 b ww_q [13] $end
$var wire 1 c ww_q [12] $end
$var wire 1 d ww_q [11] $end
$var wire 1 e ww_q [10] $end
$var wire 1 f ww_q [9] $end
$var wire 1 g ww_q [8] $end
$var wire 1 h ww_q [7] $end
$var wire 1 i ww_q [6] $end
$var wire 1 j ww_q [5] $end
$var wire 1 k ww_q [4] $end
$var wire 1 l ww_q [3] $end
$var wire 1 m ww_q [2] $end
$var wire 1 n ww_q [1] $end
$var wire 1 o ww_q [0] $end
$var wire 1 p \clk~inputclkctrl_INCLK_bus\ [3] $end
$var wire 1 q \clk~inputclkctrl_INCLK_bus\ [2] $end
$var wire 1 r \clk~inputclkctrl_INCLK_bus\ [1] $end
$var wire 1 s \clk~inputclkctrl_INCLK_bus\ [0] $end
$var wire 1 t \q[0]~output_o\ $end
$var wire 1 u \q[1]~output_o\ $end
$var wire 1 v \q[2]~output_o\ $end
$var wire 1 w \q[3]~output_o\ $end
$var wire 1 x \q[4]~output_o\ $end
$var wire 1 y \q[5]~output_o\ $end
$var wire 1 z \q[6]~output_o\ $end
$var wire 1 { \q[7]~output_o\ $end
$var wire 1 | \q[8]~output_o\ $end
$var wire 1 } \q[9]~output_o\ $end
$var wire 1 ~ \q[10]~output_o\ $end
$var wire 1 !! \q[11]~output_o\ $end
$var wire 1 "! \q[12]~output_o\ $end
$var wire 1 #! \q[13]~output_o\ $end
$var wire 1 $! \q[14]~output_o\ $end
$var wire 1 %! \q[15]~output_o\ $end
$var wire 1 &! \clk~input_o\ $end
$var wire 1 '! \clk~inputclkctrl_outclk\ $end
$var wire 1 (! \i[0]~input_o\ $end
$var wire 1 )! \lr~input_o\ $end
$var wire 1 *! \q~0_combout\ $end
$var wire 1 +! \clr~input_o\ $end
$var wire 1 ,! \q[0]~1_combout\ $end
$var wire 1 -! \q[0]~reg0_q\ $end
$var wire 1 .! \i[1]~input_o\ $end
$var wire 1 /! \q~2_combout\ $end
$var wire 1 0! \q[1]~reg0_q\ $end
$var wire 1 1! \i[2]~input_o\ $end
$var wire 1 2! \q~3_combout\ $end
$var wire 1 3! \q[2]~reg0_q\ $end
$var wire 1 4! \i[3]~input_o\ $end
$var wire 1 5! \q~4_combout\ $end
$var wire 1 6! \q[3]~reg0_q\ $end
$var wire 1 7! \i[4]~input_o\ $end
$var wire 1 8! \q~5_combout\ $end
$var wire 1 9! \q[4]~reg0_q\ $end
$var wire 1 :! \i[5]~input_o\ $end
$var wire 1 ;! \q~6_combout\ $end
$var wire 1 <! \q[5]~reg0_q\ $end
$var wire 1 =! \i[6]~input_o\ $end
$var wire 1 >! \q~7_combout\ $end
$var wire 1 ?! \q[6]~reg0_q\ $end
$var wire 1 @! \i[7]~input_o\ $end
$var wire 1 A! \q~8_combout\ $end
$var wire 1 B! \q[7]~reg0_q\ $end
$var wire 1 C! \i[8]~input_o\ $end
$var wire 1 D! \q~9_combout\ $end
$var wire 1 E! \q[8]~reg0_q\ $end
$var wire 1 F! \i[9]~input_o\ $end
$var wire 1 G! \q~10_combout\ $end
$var wire 1 H! \q[9]~reg0_q\ $end
$var wire 1 I! \i[10]~input_o\ $end
$var wire 1 J! \q~11_combout\ $end
$var wire 1 K! \q[10]~reg0_q\ $end
$var wire 1 L! \i[11]~input_o\ $end
$var wire 1 M! \q~12_combout\ $end
$var wire 1 N! \q[11]~reg0_q\ $end
$var wire 1 O! \i[12]~input_o\ $end
$var wire 1 P! \q~13_combout\ $end
$var wire 1 Q! \q[12]~reg0_q\ $end
$var wire 1 R! \i[13]~input_o\ $end
$var wire 1 S! \q~14_combout\ $end
$var wire 1 T! \q[13]~reg0_q\ $end
$var wire 1 U! \i[14]~input_o\ $end
$var wire 1 V! \q~15_combout\ $end
$var wire 1 W! \q[14]~reg0_q\ $end
$var wire 1 X! \i[15]~input_o\ $end
$var wire 1 Y! \q~16_combout\ $end
$var wire 1 Z! \q[15]~reg0_q\ $end
$upscope $end
$upscope $end
$enddefinitions $end
#0
$dumpvars
0!
1"
03
0D
1E
xF
1G
1H
1I
1J
1K
1L
0]
1^
0_
0t
0u
0v
0w
0x
0y
0z
0{
0|
0}
0~
0!!
0"!
0#!
0$!
0%!
0&!
0'!
0(!
0)!
0*!
1+!
1,!
0-!
0.!
0/!
00!
11!
02!
03!
14!
05!
06!
17!
08!
09!
1:!
0;!
0<!
0=!
0>!
0?!
1@!
0A!
0B!
0C!
0D!
0E!
1F!
0G!
0H!
0I!
0J!
0K!
0L!
0M!
0N!
0O!
0P!
0Q!
0R!
0S!
0T!
0U!
0V!
0W!
1X!
0Y!
0Z!
1#
0$
0%
0&
0'
0(
1)
0*
1+
0,
1-
1.
1/
10
01
02
1M
0N
0O
0P
0Q
0R
1S
0T
1U
0V
1W
1X
1Y
1Z
0[
0\
0`
0a
0b
0c
0d
0e
0f
0g
0h
0i
0j
0k
0l
0m
0n
0o
1p
1q
1r
0s
04
05
06
07
08
09
0:
0;
0<
0=
0>
0?
0@
0A
0B
0C
$end
#40000
1!
1]
1&!
1s
1'!
#50000
13
1_
1)!
12!
15!
18!
1;!
1A!
1G!
1Y!
#80000
0!
1%
1&
0)
1*
0.
00
11
0]
1[
0Z
0X
1T
0S
1P
1O
1R!
1O!
0F!
1C!
07!
01!
1.!
0&!
0s
1/!
02!
08!
1D!
0G!
1P!
1S!
0'!
#100000
03
0_
0)!
0/!
05!
0;!
0A!
0D!
0P!
0S!
0Y!
#120000
1!
1]
1&!
1s
1'!
#150000
13
1_
1)!
1/!
15!
1;!
1A!
1D!
1P!
1S!
1Y!
#160000
0!
0&
1.
10
0#
1'
1(
0+
0-
0]
1Z
1X
0W
0U
1R
1Q
0P
0M
0X!
0O!
1L!
1I!
0@!
0:!
17!
11!
0&!
0s
12!
18!
0;!
0A!
1J!
1M!
0P!
0Y!
0'!
#200000
1!
03
1]
0_
0)!
1&!
1s
0/!
02!
05!
08!
0D!
0J!
0M!
0S!
1'!
#240000
0!
0.
0'
0(
1)
0*
1$
0/
12
0]
1\
0Y
0X
0T
1S
0R
0Q
1N
1U!
0L!
0I!
1F!
0C!
07!
04!
1(!
0&!
0s
0'!
#250000
13
1_
1)!
1*!
1/!
12!
1G!
1S!
1V!
#280000
1!
1]
1&!
1s
1'!
1-!
10!
13!
1H!
1T!
1W!
1$!
1#!
1}
1v
1u
1t
1a
1b
1f
1m
1n
1o
1C
1B
1A
1:
16
15
#300000
03
0_
0)!
0*!
0/!
02!
0G!
0S!
0V!
#320000
0!
0$
1/
02
1&
1-
1,
0]
0\
1Y
1W
1V
1P
0N
0U!
1O!
1=!
1:!
14!
0(!
0&!
0s
0'!
#350000
13
1_
1)!
1/!
12!
15!
1;!
1>!
1G!
1P!
1S!
#360000
1!
1]
1&!
1s
1'!
0-!
16!
1<!
1?!
1Q!
0W!
0$!
1"!
1z
1y
1w
0t
0a
1c
1i
1j
1l
0o
0C
1@
1>
1=
17
05
#400000
0!
03
1$
0/
12
0-
0,
1.
1(
1*
1#
0]
0_
1\
0Y
1X
0W
0V
1T
1R
1N
1M
1X!
1U!
1I!
1C!
0=!
0:!
17!
04!
1(!
0)!
0&!
0s
0/!
02!
0G!
0P!
0S!
05!
0;!
0>!
0'!
#440000
1!
1]
1&!
1s
1'!
00!
03!
06!
0<!
0?!
0H!
0Q!
0T!
0#!
0"!
0}
0z
0y
0w
0v
0u
0b
0c
0f
0i
0j
0l
0m
0n
0B
0A
0@
0>
0=
0:
07
06
#450000
13
1_
1)!
1*!
1/!
12!
18!
1D!
1G!
1J!
1P!
1S!
1V!
1Y!
#480000
0!
0$
1-
0.
0*
0&
0)
00
1+
0%
01
0]
0[
0Z
0X
1W
1U
0T
0S
0P
0O
0N
0U!
0R!
0O!
0F!
0C!
1@!
1:!
07!
01!
0.!
0&!
0s
0/!
02!
08!
1;!
1A!
0D!
0G!
0P!
0S!
0V!
0'!
#500000
03
0_
0)!
0*!
0;!
0A!
0J!
0Y!
#520000
1!
1]
1&!
1s
1'!
#550000
13
1_
1)!
1*!
1;!
1A!
1J!
1Y!
#560000
0!
1$
1&
1)
10
1/
0]
1Z
1Y
1S
1P
1N
1U!
1O!
1F!
14!
11!
0&!
0s
12!
15!
1G!
1P!
1V!
0'!
#600000
1!
03
1]
0_
0)!
1&!
1s
0*!
02!
05!
0;!
0A!
0G!
0J!
0P!
0V!
0Y!
1'!
#640000
0!
0&
00
0-
1.
0+
1%
11
1'
0]
1[
0Z
1X
0W
0U
1Q
0P
1O
1R!
0O!
1L!
0@!
0:!
17!
01!
1.!
0&!
0s
0'!
#650000
13
1_
1)!
1*!
1/!
15!
18!
1G!
1J!
1M!
1S!
1V!
1Y!
#680000
1!
1]
1&!
1s
1'!
1-!
10!
16!
19!
1H!
1K!
1N!
1T!
1W!
1Z!
1%!
1$!
1#!
1!!
1~
1}
1x
1w
1u
1t
1`
1a
1b
1d
1e
1f
1k
1l
1n
1o
1C
1B
1@
1?
1:
19
18
16
15
14
#700000
03
0_
0)!
0*!
0/!
05!
08!
0G!
0J!
0M!
0S!
0V!
0Y!
#720000
0!
0.
0%
01
0'
1*
1,
0]
0[
0X
1V
1T
0Q
0O
0R!
0L!
1C!
1=!
07!
0.!
0&!
0s
0'!
#750000
13
1_
1)!
1*!
15!
1>!
1D!
1G!
1J!
1V!
1Y!
#760000
1!
1]
1&!
1s
1'!
00!
09!
1?!
1E!
0N!
0T!
0#!
0!!
1|
1z
0x
0u
0b
0d
1g
1i
0k
0n
0B
0?
1=
1;
08
06
#800000
0!
03
1.
1%
1'
0*
0,
1-
0$
0)
0(
0#
0]
0_
1X
1W
0V
0T
0S
0R
1Q
1O
0N
0M
0X!
0U!
1R!
1L!
0I!
0F!
0C!
0=!
1:!
17!
0)!
0&!
0s
0*!
05!
0>!
0D!
0G!
0J!
0V!
0Y!
0'!
#840000
1!
1]
1&!
1s
1'!
0-!
06!
0?!
0E!
0H!
0K!
0W!
0Z!
0%!
0$!
0~
0}
0|
0z
0w
0t
0`
0a
0e
0f
0g
0i
0l
0o
0C
0@
0=
0;
0:
09
05
04
#850000
13
1_
1)!
1*!
15!
18!
1;!
1M!
1S!
#880000
0!
1)
1#
1&
1+
02
0]
0\
1U
1S
1P
1M
1X!
1O!
1F!
1@!
0(!
0&!
0s
0*!
1A!
1G!
1P!
1Y!
0'!
#900000
03
0_
0)!
05!
08!
0;!
0A!
0G!
0M!
0P!
0S!
0Y!
#920000
1!
1]
1&!
1s
1'!
#950000
13
1_
1)!
15!
18!
1;!
1A!
1G!
1M!
1P!
1S!
1Y!
#960000
0!
12
0.
0-
1$
11
0]
1\
1[
0X
0W
1N
1U!
0:!
07!
1.!
1(!
0&!
0s
1*!
1/!
08!
0;!
1V!
0'!
