Tarefa12_2/simulation/qsim/MaiorDe3.msim.vcd
$comment
	File created using the following command:
		vcd file MaiorDe3.msim.vcd -direction
$end
$date
	Thu Sep 05 18:43:35 2019
$end
$version
	ModelSim Version 10.5b
$end
$timescale
	1ps
$end

$scope module maiorde3_vhd_vec_tst $end
$var wire 1 ! a [7] $end
$var wire 1 " a [6] $end
$var wire 1 # a [5] $end
$var wire 1 $ a [4] $end
$var wire 1 % a [3] $end
$var wire 1 & a [2] $end
$var wire 1 ' a [1] $end
$var wire 1 ( a [0] $end
$var wire 1 ) Amaior $end
$var wire 1 * b [7] $end
$var wire 1 + b [6] $end
$var wire 1 , b [5] $end
$var wire 1 - b [4] $end
$var wire 1 . b [3] $end
$var wire 1 / b [2] $end
$var wire 1 0 b [1] $end
$var wire 1 1 b [0] $end
$var wire 1 2 Bmaior $end
$var wire 1 3 c [7] $end
$var wire 1 4 c [6] $end
$var wire 1 5 c [5] $end
$var wire 1 6 c [4] $end
$var wire 1 7 c [3] $end
$var wire 1 8 c [2] $end
$var wire 1 9 c [1] $end
$var wire 1 : c [0] $end
$var wire 1 ; Cmaior $end

$scope module i1 $end
$var wire 1 < gnd $end
$var wire 1 = vcc $end
$var wire 1 > unknown $end
$var wire 1 ? devoe $end
$var wire 1 @ devclrn $end
$var wire 1 A devpor $end
$var wire 1 B ww_devoe $end
$var wire 1 C ww_devclrn $end
$var wire 1 D ww_devpor $end
$var wire 1 E ww_a [7] $end
$var wire 1 F ww_a [6] $end
$var wire 1 G ww_a [5] $end
$var wire 1 H ww_a [4] $end
$var wire 1 I ww_a [3] $end
$var wire 1 J ww_a [2] $end
$var wire 1 K ww_a [1] $end
$var wire 1 L ww_a [0] $end
$var wire 1 M ww_b [7] $end
$var wire 1 N ww_b [6] $end
$var wire 1 O ww_b [5] $end
$var wire 1 P ww_b [4] $end
$var wire 1 Q ww_b [3] $end
$var wire 1 R ww_b [2] $end
$var wire 1 S ww_b [1] $end
$var wire 1 T ww_b [0] $end
$var wire 1 U ww_c [7] $end
$var wire 1 V ww_c [6] $end
$var wire 1 W ww_c [5] $end
$var wire 1 X ww_c [4] $end
$var wire 1 Y ww_c [3] $end
$var wire 1 Z ww_c [2] $end
$var wire 1 [ ww_c [1] $end
$var wire 1 \ ww_c [0] $end
$var wire 1 ] ww_Amaior $end
$var wire 1 ^ ww_Bmaior $end
$var wire 1 _ ww_Cmaior $end
$var wire 1 ` \Amaior~output_o\ $end
$var wire 1 a \Bmaior~output_o\ $end
$var wire 1 b \Cmaior~output_o\ $end
$var wire 1 c \a[3]~input_o\ $end
$var wire 1 d \a[2]~input_o\ $end
$var wire 1 e \c[3]~input_o\ $end
$var wire 1 f \c[2]~input_o\ $end
$var wire 1 g \Equal1~1_combout\ $end
$var wire 1 h \c[5]~input_o\ $end
$var wire 1 i \a[5]~input_o\ $end
$var wire 1 j \a[4]~input_o\ $end
$var wire 1 k \c[4]~input_o\ $end
$var wire 1 l \Equal1~2_combout\ $end
$var wire 1 m \c[0]~input_o\ $end
$var wire 1 n \c[1]~input_o\ $end
$var wire 1 o \a[1]~input_o\ $end
$var wire 1 p \a[0]~input_o\ $end
$var wire 1 q \Equal1~0_combout\ $end
$var wire 1 r \a[6]~input_o\ $end
$var wire 1 s \a[7]~input_o\ $end
$var wire 1 t \c[6]~input_o\ $end
$var wire 1 u \c[7]~input_o\ $end
$var wire 1 v \Equal1~3_combout\ $end
$var wire 1 w \Equal1~4_combout\ $end
$var wire 1 x \b[7]~input_o\ $end
$var wire 1 y \b[6]~input_o\ $end
$var wire 1 z \b[5]~input_o\ $end
$var wire 1 { \b[4]~input_o\ $end
$var wire 1 | \b[3]~input_o\ $end
$var wire 1 } \b[2]~input_o\ $end
$var wire 1 ~ \b[1]~input_o\ $end
$var wire 1 !! \b[0]~input_o\ $end
$var wire 1 "! \LessThan0~1_cout\ $end
$var wire 1 #! \LessThan0~3_cout\ $end
$var wire 1 $! \LessThan0~5_cout\ $end
$var wire 1 %! \LessThan0~7_cout\ $end
$var wire 1 &! \LessThan0~9_cout\ $end
$var wire 1 '! \LessThan0~11_cout\ $end
$var wire 1 (! \LessThan0~13_cout\ $end
$var wire 1 )! \LessThan0~14_combout\ $end
$var wire 1 *! \LessThan1~1_cout\ $end
$var wire 1 +! \LessThan1~3_cout\ $end
$var wire 1 ,! \LessThan1~5_cout\ $end
$var wire 1 -! \LessThan1~7_cout\ $end
$var wire 1 .! \LessThan1~9_cout\ $end
$var wire 1 /! \LessThan1~11_cout\ $end
$var wire 1 0! \LessThan1~13_cout\ $end
$var wire 1 1! \LessThan1~14_combout\ $end
$var wire 1 2! \Equal0~3_combout\ $end
$var wire 1 3! \Equal0~0_combout\ $end
$var wire 1 4! \Equal0~2_combout\ $end
$var wire 1 5! \Equal0~1_combout\ $end
$var wire 1 6! \Equal0~4_combout\ $end
$var wire 1 7! \Amaior~0_combout\ $end
$var wire 1 8! \LessThan2~1_cout\ $end
$var wire 1 9! \LessThan2~3_cout\ $end
$var wire 1 :! \LessThan2~5_cout\ $end
$var wire 1 ;! \LessThan2~7_cout\ $end
$var wire 1 <! \LessThan2~9_cout\ $end
$var wire 1 =! \LessThan2~11_cout\ $end
$var wire 1 >! \LessThan2~13_cout\ $end
$var wire 1 ?! \LessThan2~14_combout\ $end
$var wire 1 @! \LessThan3~1_cout\ $end
$var wire 1 A! \LessThan3~3_cout\ $end
$var wire 1 B! \LessThan3~5_cout\ $end
$var wire 1 C! \LessThan3~7_cout\ $end
$var wire 1 D! \LessThan3~9_cout\ $end
$var wire 1 E! \LessThan3~11_cout\ $end
$var wire 1 F! \LessThan3~13_cout\ $end
$var wire 1 G! \LessThan3~14_combout\ $end
$var wire 1 H! \Equal3~3_combout\ $end
$var wire 1 I! \Equal3~2_combout\ $end
$var wire 1 J! \Equal3~1_combout\ $end
$var wire 1 K! \Equal3~0_combout\ $end
$var wire 1 L! \Equal3~4_combout\ $end
$var wire 1 M! \Bmaior~0_combout\ $end
$var wire 1 N! \LessThan4~1_cout\ $end
$var wire 1 O! \LessThan4~3_cout\ $end
$var wire 1 P! \LessThan4~5_cout\ $end
$var wire 1 Q! \LessThan4~7_cout\ $end
$var wire 1 R! \LessThan4~9_cout\ $end
$var wire 1 S! \LessThan4~11_cout\ $end
$var wire 1 T! \LessThan4~13_cout\ $end
$var wire 1 U! \LessThan4~14_combout\ $end
$var wire 1 V! \LessThan5~1_cout\ $end
$var wire 1 W! \LessThan5~3_cout\ $end
$var wire 1 X! \LessThan5~5_cout\ $end
$var wire 1 Y! \LessThan5~7_cout\ $end
$var wire 1 Z! \LessThan5~9_cout\ $end
$var wire 1 [! \LessThan5~11_cout\ $end
$var wire 1 \! \LessThan5~13_cout\ $end
$var wire 1 ]! \LessThan5~14_combout\ $end
$var wire 1 ^! \Cmaior~0_combout\ $end
$upscope $end
$upscope $end
$enddefinitions $end
#0
$dumpvars
0)
02
0;
0<
1=
x>
1?
1@
1A
1B
1C
1D
0]
0^
0_
0`
0a
0b
xc
xd
xe
xf
xg
xh
xi
xj
xk
xl
xm
xn
xo
xp
xq
xr
xs
xt
xu
xv
xw
xx
xy
xz
x{
x|
x}
x~
x!!
x"!
x#!
x$!
x%!
x&!
x'!
x(!
x)!
x*!
x+!
x,!
x-!
x.!
x/!
x0!
x1!
x2!
x3!
x4!
x5!
x6!
x7!
x8!
x9!
x:!
x;!
x<!
x=!
x>!
x?!
x@!
xA!
xB!
xC!
xD!
xE!
xF!
xG!
xH!
xI!
xJ!
xK!
xL!
xM!
xN!
xO!
xP!
xQ!
xR!
xS!
xT!
xU!
xV!
xW!
xX!
xY!
xZ!
x[!
x\!
x]!
x^!
0!
0"
0#
0$
0%
0&
0'
0(
0*
0+
0,
0-
0.
0/
00
01
03
04
05
06
07
08
09
0:
0E
0F
0G
0H
0I
0J
0K
0L
0M
0N
0O
0P
0Q
0R
0S
0T
0U
0V
0W
0X
0Y
0Z
0[
0\
$end
#736
0|
#746
0h
0m
#756
0d
0e
0n
0t
0u
0y
0}
#766
0f
0i
0j
0k
0o
0z
#776
0r
0!!
#796
0c
0s
#806
0{
#816
0x
0~
#826
0p
#3604
xb
x_
x;
#3682
x`
x]
x)
#4028
xa
x^
x2
#4394
0V!
#4460
1W!
#4510
1H!
#4526
0X!
#4628
1K!
#4707
1J!
#4732
0N!
#4748
0@!
#4798
1O!
#4814
1A!
#4831
14!
#4833
13!
#4847
1q
#4864
0P!
#4877
08!
#4880
0B!
#4930
1Q!
#4943
19!
#4946
1C!
#4956
1l
#4996
0R!
#5009
0:!
#5062
1S!
#5074
0*!
#5075
1;!
#5086
15!
#5093
0"!
#5125
12!
#5128
0T!
#5140
1+!
#5141
0<!
#5159
1#!
#5203
1Y!
#5206
0,!
#5207
1=!
#5225
0$!
#5269
0Z!
#5272
1-!
#5273
0>!
#5289
1g
#5291
1%!
#5332
1v
#5335
1[!
#5338
0.!
#5357
0&!
#5401
0\!
#5404
1/!
#5423
1'!
#5470
00!
#5480
1I!
#5489
0(!
#5599
0D!
#5640
0U!
#5665
1E!
#5693
1w
#5714
16!
#5731
0F!
#5785
0?!
#5913
0]!
#5982
01!
#6001
0)!
#6072
1L!
#6243
0G!
#6738
17!
#6769
1M!
#6897
1^!
#10420
1`
1]
1)
#10501
1b
1_
1;
#10797
1a
1^
12
#80000
13
14
15
16
17
18
19
1:
1\
1[
1Z
1Y
1X
1W
1V
1U
#80640
1h
1m
#80650
1u
1t
1e
1n
#80660
1k
1f
#83526
0K!
#83557
0l
#83793
1]!
#83839
0v
#83862
0H!
#83869
0g
#83898
0L!
0I!
#84026
0Q!
#84092
1R!
#84128
0J!
#84158
0S!
#84169
0q
#84183
1V!
#84196
0w
#84215
1P!
#84224
1T!
#84249
0W!
#84278
0M!
#84315
1X!
#84346
0O!
#84381
0Y!
#84385
0[!
#84447
1Z!
#84448
1U!
#84451
1\!
#84527
1N!
#85276
07!
#85375
0^!
#85607
1^!
#88267
0a
0^
02
#88899
0`
0]
0)
#88944
0b
0_
0;
#89211
1b
1_
1;
#160000
03
04
05
06
07
08
09
0:
1*
1+
1,
1-
1.
1/
10
11
0\
0[
0Z
0Y
0X
0W
0V
0U
1T
1S
1R
1Q
1P
1O
1N
1M
#160630
1|
#160650
1y
1}
#160660
1z
#160670
1!!
#160700
1{
#160710
1x
1~
#160746
0h
0m
#160756
0u
0t
0e
0n
#160766
0k
0f
#163969
1:!
#163972
1?!
#164035
0;!
#164086
05!
#164101
1<!
#164141
02!
#164163
0=!
#164213
09!
#164227
1G!
#164229
1>!
#164239
1K!
#164272
0K!
#164353
1J!
#164359
0V!
#164394
04!
#164425
1W!
#164453
06!
#164461
0J!
#164491
03!
0X!
#164507
0A!
#164516
0]!
#164520
1l
#164540
1@!
#164557
1Y!
#164573
1B!
#164576
1q
#164609
1g
#164623
0Z!
#164624
1v
#164637
18!
#164639
0C!
#164689
1[!
#164705
1D!
#164721
1M!
#164732
0N!
#164755
0\!
#164771
0E!
#164798
1O!
#164837
1F!
#164864
0P!
#164930
1Q!
#164996
0R!
#165062
1S!
#165065
0^!
#165128
0T!
#165198
1w
#165640
0U!
#168634
0b
0_
0;
#168749
1a
1^
12
#240000
13
14
15
16
17
18
19
1:
1\
1[
1Z
1Y
1X
1W
1V
1U
#240640
1h
1m
#240650
1u
1t
1e
1n
#240660
1k
1f
#243557
0l
#243839
0v
#243869
0g
#244020
0@!
#244026
0Q!
#244086
1A!
#244092
1R!
#244152
0B!
#244158
0S!
#244169
0q
#244174
1K!
#244196
0w
#244215
1P!
#244218
1C!
#244224
1T!
#244284
0D!
#244346
0O!
#244350
1E!
#244388
1H!
#244416
0F!
#244437
1J!
#244448
1U!
#244527
1N!
#244594
1I!
#244928
0G!
#245186
1L!
#245447
0M!
#245554
1M!
#245834
1^!
#249436
0a
0^
02
#249438
1b
1_
1;
#249582
1a
1^
12
#320000
03
04
05
06
07
08
09
0:
0*
0+
0,
0-
0.
0/
00
01
1!
1"
1#
1$
1%
1&
1'
1(
0\
0[
0Z
0Y
0X
0W
0V
0U
0T
0S
0R
0Q
0P
0O
0N
0M
1L
1K
1J
1I
1H
1G
1F
1E
#320650
1d
#320660
1i
1j
1o
#320670
1r
#320690
1s
1c
#320720
1p
#320736
0|
#320746
0h
0m
#320756
0y
0}
0u
0t
0e
0n
#320766
0z
0k
0f
#320776
0!!
#320806
0{
#320816
0x
0~
#323888
0K!
#324227
1G!
#324238
0H!
#324260
0L!
#324285
0G!
#324370
0:!
#324429
0P!
#324442
1l
#324465
1H!
#324495
1Q!
#324498
13!
#324501
1@!
#324507
0A!
#324515
1$!
#324543
0l
#324558
1,!
#324561
0R!
#324573
1B!
#324581
0%!
#324624
1v
0-!
#324627
1S!
#324628
1K!
#324639
0C!
#324647
1&!
#324651
1=!
#324678
0'!
#324685
0[!
#324690
1.!
#324693
0T!
#324700
19!
0+!
#324705
1D!
#324717
0>!
#324725
0/!
#324727
0N!
#324744
1(!
#324748
0@!
#324751
1\!
#324758
08!
#324771
0E!
#324783
0#!
#324786
11!
#324791
10!
#324793
1O!
#324802
1)!
#324804
0M!
#324811
0U!
#324814
1A!
#324837
1F!
#324843
03!
#324850
1[!
#324873
1*!
#324880
0B!
#324916
0\!
#324933
1;!
#324942
0I!
#324946
1C!
#324968
0^!
#324992
1L!
#324993
0Y!
#324999
0<!
#325001
0v
#325028
0?!
#325059
1Z!
#325125
0[!
#325142
1"!
#325191
1\!
#325203
1Y!
#325269
0Z!
#325287
1]!
#325335
1[!
#325360
1M!
#325373
1G!
#325401
0\!
#325428
0]!
#325480
1I!
#325581
0L!
#325599
0D!
#325640
1^!
#325665
1E!
#325727
1]!
#325731
0F!
#325775
17!
#325831
0^!
#325913
0]!
#325961
0M!
#326072
1L!
#326243
0G!
#328537
0b
0_
0;
#328793
0a
0^
02
#329244
1b
1_
1;
#329388
1a
1^
12
#329400
0b
0_
0;
#329457
1`
1]
1)
#329950
0a
0^
02
#400000
13
14
15
16
17
18
19
1:
1\
1[
1Z
1Y
1X
1W
1V
1U
#400640
1h
1m
#400650
1u
1t
1e
1n
#400660
1k
1f
#403526
0K!
#403793
1]!
#403862
0H!
#403898
0L!
0I!
#404128
0J!
#404153
1l
#404183
1V!
#404220
1q
#404249
0W!
#404282
1v
#404287
1g
#404315
1X!
#404381
0Y!
#404385
0[!
#404394
0*!
#404447
1Z!
#404451
1\!
#404460
1+!
#404526
0,!
#404592
1-!
#404658
0.!
#404724
1/!
#404790
00!
#404876
1w
#405302
01!
#406080
1^!
#409684
1b
1_
1;
#480000
03
04
05
06
07
08
09
0:
1*
1+
1,
1-
1.
1/
10
11
0\
0[
0Z
0Y
0X
0W
0V
0U
1T
1S
1R
1Q
1P
1O
1N
1M
#480630
1|
#480650
1y
1}
#480660
1z
#480670
1!!
#480700
1{
#480710
1x
1~
#480746
0h
0m
#480756
0u
0t
0e
0n
#480766
0k
0f
#483915
0l
#484195
0v
#484223
0g
#484227
1G!
#484239
1K!
#484272
0K!
#484353
1J!
#484359
0V!
#484384
0-!
#484425
1W!
#484450
1.!
#484461
0J!
#484491
0X!
#484493
14!
#484494
12!
#484507
0A!
#484516
0]!
0/!
#484532
0q
#484540
1@!
#484554
0w
#484557
1Y!
#484558
1,!
#484573
1B!
#484582
10!
#484623
0Z!
#484639
0C!
#484668
0"!
#484689
1[!
#484700
0+!
#484705
1D!
#484713
13!
#484734
1#!
#484742
15!
#484755
0\!
#484771
0E!
#484797
11!
#484800
0$!
#484837
1F!
#484866
1%!
#484873
1*!
#484932
0&!
#484998
1'!
#485064
0(!
#485065
0^!
#485301
16!
#485576
0)!
#485634
07!
#485685
17!
#486413
1M!
#488634
0b
0_
0;
#489257
0`
0]
0)
#489367
1`
1]
1)
#490441
1a
1^
12
#560000
13
14
15
16
17
18
19
1:
1\
1[
1Z
1Y
1X
1W
1V
1U
#560640
1h
1m
#560650
1u
1t
1e
1n
#560660
1k
1f
#564020
0@!
#564086
1A!
#564152
0B!
#564153
1l
#564174
1K!
#564218
1C!
#564220
1q
#564282
1v
#564284
0D!
#564287
1g
#564350
1E!
#564388
1H!
#564394
0*!
#564416
0F!
#564437
1J!
#564460
1+!
#564526
0,!
#564592
1-!
#564594
1I!
#564658
0.!
#564724
1/!
#564790
00!
#564876
1w
#564928
0G!
#565186
1L!
#565302
01!
#565447
0M!
#565554
1M!
#566080
1^!
#569436
0a
0^
02
#569582
1a
1^
12
#569684
1b
1_
1;
#640000
03
04
05
06
07
08
09
0:
0*
0+
0,
0-
0.
0/
00
01
0!
0"
0#
0$
0%
0&
0'
0(
0\
0[
0Z
0Y
0X
0W
0V
0U
0T
0S
0R
0Q
0P
0O
0N
0M
0L
0K
0J
0I
0H
0G
0F
0E
#640736
0|
#640746
0h
0m
#640756
0d
0y
0}
0u
0t
0e
0n
#640766
0i
0j
0o
0z
0k
0f
#640776
0r
0!!
#640796
0s
0c
#640806
0{
#640816
0x
0~
#640826
0p
#643888
0K!
#643915
0l
#644195
0v
#644223
0g
#644227
1G!
#644238
0H!
#644260
0L!
#644285
0G!
#644384
0-!
#644434
05!
#644450
1.!
#644465
1H!
#644482
02!
#644501
1@!
#644507
0A!
#644515
1$!
#644516
0/!
#644523
09!
#644532
0q
#644539
1)!
#644554
0w
#644558
1,!
#644573
1B!
#644581
0%!
#644582
10!
#644586
03!
#644589
15!
1:!
#644628
1K!
#644639
0C!
#644647
1&!
#644678
0'!
#644685
0[!
#644700
0+!
19!
#644705
1D!
#644707
0,!
#644712
0$!
#644743
04!
#644744
1(!
#644748
0@!
#644751
1\!
#644758
14!
#644766
0:!
1,!
#644771
0E!
#644773
1-!
#644778
1%!
#644793
05!
#644797
11!
#644801
06!
#644804
0M!
#644814
1A!
#644817
13!
#644832
0-!
#644837
1F!
#644839
0.!
#644844
0&!
#644847
1q
#644850
1[!
#644873
1*!
#644880
0B!
#644898
1.!
#644905
1/!
#644910
1'!
#644916
0\!
#644925
1+!
#644939
0+!
#644942
0I!
#644946
1C!
#644956
1l
#644964
0/!
#644968
0^!
#644971
00!
#644976
0(!
#644991
0,!
#644992
1L!
#644993
0Y!
#645005
1,!
#645030
10!
#645057
1-!
#645059
1Z!
#645071
0-!
#645074
0*!
#645086
15!
#645123
0.!
#645125
12!
0[!
#645137
1.!
#645140
1+!
#645147
0)!
#645189
1/!
#645191
1\!
#645203
1Y!
0/!
#645206
0,!
#645213
1<!
#645255
00!
#645269
0Z!
10!
#645272
1-!
#645279
0=!
#645280
1)!
#645287
1]!
#645289
1g
#645327
0<!
#645332
1v
#645335
1[!
#645338
0.!
#645345
1>!
#645360
1M!
#645373
1G!
#645393
1=!
#645401
0\!
#645404
1/!
#645428
0]!
#645459
0>!
#645470
00!
#645480
1I!
#645483
01!
#645488
0)!
#645566
11!
#645581
0L!
#645599
0D!
#645634
07!
#645640
1^!
#645665
1E!
#645693
1w
#645714
16!
#645727
1]!
#645731
0F!
#645733
0^!
#645767
01!
#645805
11!
#645856
0M!
#645881
1?!
#645913
0]!
#645922
17!
#645971
0?!
#645982
01!
#646072
1L!
#646243
0G!
#646467
07!
#646555
17!
#646769
1M!
#646897
1^!
#648537
0b
0_
0;
#648793
0a
0^
02
#649244
1b
1_
1;
#649257
0`
0]
0)
#649302
0b
0_
0;
#649388
1a
1^
12
#649604
1`
1]
1)
#649845
0a
0^
02
#650090
0`
0]
0)
#650237
1`
1]
1)
#650501
1b
1_
1;
#650797
1a
1^
12
#720000
13
14
15
16
17
18
19
1:
1\
1[
1Z
1Y
1X
1W
1V
1U
#720640
1h
1m
#720650
1u
1t
1e
1n
#720660
1k
1f
#723526
0K!
#723557
0l
#723793
1]!
#723839
0v
#723862
0H!
#723869
0g
#723898
0L!
0I!
#724026
0Q!
#724092
1R!
#724128
0J!
#724158
0S!
#724169
0q
#724183
1V!
#724196
0w
#724215
1P!
#724224
1T!
#724249
0W!
#724278
0M!
#724315
1X!
#724346
0O!
#724381
0Y!
#724385
0[!
#724447
1Z!
#724448
1U!
#724451
1\!
#724527
1N!
#725276
07!
#725375
0^!
#725607
1^!
#728267
0a
0^
02
#728899
0`
0]
0)
#728944
0b
0_
0;
#729211
1b
1_
1;
#800000
03
04
05
06
07
08
09
0:
1*
1+
1,
1-
1.
1/
10
11
0\
0[
0Z
0Y
0X
0W
0V
0U
1T
1S
1R
1Q
1P
1O
1N
1M
#800630
1|
#800650
1y
1}
#800660
1z
#800670
1!!
#800700
1{
#800710
1x
1~
#800746
0h
0m
#800756
0u
0t
0e
0n
#800766
0k
0f
#803969
1:!
#803972
1?!
#804035
0;!
#804086
05!
#804101
1<!
#804141
02!
#804163
0=!
#804213
09!
#804227
1G!
#804229
1>!
#804239
1K!
#804272
0K!
#804353
1J!
#804359
0V!
#804394
04!
#804425
1W!
#804453
06!
#804461
0J!
#804491
03!
0X!
#804507
0A!
#804516
0]!
#804520
1l
#804540
1@!
#804557
1Y!
#804573
1B!
#804576
1q
#804609
1g
#804623
0Z!
#804624
1v
#804637
18!
#804639
0C!
#804689
1[!
#804705
1D!
#804721
1M!
#804732
0N!
#804755
0\!
#804771
0E!
#804798
1O!
#804837
1F!
#804864
0P!
#804930
1Q!
#804996
0R!
#805062
1S!
#805065
0^!
#805128
0T!
#805198
1w
#805640
0U!
#808634
0b
0_
0;
#808749
1a
1^
12
#880000
13
14
15
16
17
18
19
1:
1\
1[
1Z
1Y
1X
1W
1V
1U
#880640
1h
1m
#880650
1u
1t
1e
1n
#880660
1k
1f
#883557
0l
#883839
0v
#883869
0g
#884020
0@!
#884026
0Q!
#884086
1A!
#884092
1R!
#884152
0B!
#884158
0S!
#884169
0q
#884174
1K!
#884196
0w
#884215
1P!
#884218
1C!
#884224
1T!
#884284
0D!
#884346
0O!
#884350
1E!
#884388
1H!
#884416
0F!
#884437
1J!
#884448
1U!
#884527
1N!
#884594
1I!
#884928
0G!
#885186
1L!
#885447
0M!
#885554
1M!
#885834
1^!
#889436
0a
0^
02
#889438
1b
1_
1;
#889582
1a
1^
12
#960000
03
04
05
06
07
08
09
0:
0*
0+
0,
0-
0.
0/
00
01
1!
1"
1#
1$
1%
1&
1'
1(
0\
0[
0Z
0Y
0X
0W
0V
0U
0T
0S
0R
0Q
0P
0O
0N
0M
1L
1K
1J
1I
1H
1G
1F
1E
#960650
1d
#960660
1i
1j
1o
#960670
1r
#960690
1s
1c
#960720
1p
#960736
0|
#960746
0h
0m
#960756
0y
0}
0u
0t
0e
0n
#960766
0z
0k
0f
#960776
0!!
#960806
0{
#960816
0x
0~
#963888
0K!
#964227
1G!
#964238
0H!
#964260
0L!
#964285
0G!
#964370
0:!
#964429
0P!
#964442
1l
#964465
1H!
#964495
1Q!
#964498
13!
#964501
1@!
#964507
0A!
#964515
1$!
#964543
0l
#964558
1,!
#964561
0R!
#964573
1B!
#964581
0%!
#964624
1v
0-!
#964627
1S!
#964628
1K!
#964639
0C!
#964647
1&!
#964651
1=!
#964678
0'!
#964685
0[!
#964690
1.!
#964693
0T!
#964700
19!
0+!
#964705
1D!
#964717
0>!
#964725
0/!
#964727
0N!
#964744
1(!
#964748
0@!
#964751
1\!
#964758
08!
#964771
0E!
#964783
0#!
#964786
11!
#964791
10!
#964793
1O!
#964802
1)!
#964804
0M!
#964811
0U!
#964814
1A!
#964837
1F!
#964843
03!
#964850
1[!
#964873
1*!
#964880
0B!
#964916
0\!
#964933
1;!
#964942
0I!
#964946
1C!
#964968
0^!
#964992
1L!
#964993
0Y!
#964999
0<!
#965001
0v
#965028
0?!
#965059
1Z!
#965125
0[!
#965142
1"!
#965191
1\!
#965203
1Y!
#965269
0Z!
#965287
1]!
#965335
1[!
#965360
1M!
#965373
1G!
#965401
0\!
#965428
0]!
#965480
1I!
#965581
0L!
#965599
0D!
#965640
1^!
#965665
1E!
#965727
1]!
#965731
0F!
#965775
17!
#965831
0^!
#965913
0]!
#965961
0M!
#966072
1L!
#966243
0G!
#968537
0b
0_
0;
#968793
0a
0^
02
#969244
1b
1_
1;
#969388
1a
1^
12
#969400
0b
0_
0;
#969457
1`
1]
1)
#969950
0a
0^
02
