Tarefa1_3/simulation/qsim/ex3.msim.vcd
$comment
	File created using the following command:
		vcd file ex3.msim.vcd -direction
$end
$date
	Fri Aug 23 20:46:03 2019
$end
$version
	ModelSim Version 10.5b
$end
$timescale
	1ps
$end

$scope module ex3_vhd_vec_tst $end
$var wire 1 ! a $end
$var wire 1 " b $end
$var wire 1 # c $end

$scope module i1 $end
$var wire 1 $ gnd $end
$var wire 1 % vcc $end
$var wire 1 & unknown $end
$var wire 1 ' devoe $end
$var wire 1 ( devclrn $end
$var wire 1 ) devpor $end
$var wire 1 * ww_devoe $end
$var wire 1 + ww_devclrn $end
$var wire 1 , ww_devpor $end
$var wire 1 - ww_a $end
$var wire 1 . ww_b $end
$var wire 1 / ww_c $end
$var wire 1 0 \c~output_o\ $end
$var wire 1 1 \a~input_o\ $end
$var wire 1 2 \b~input_o\ $end
$var wire 1 3 \c~0_combout\ $end
$var wire 1 4 \ALT_INV_c~0_combout\ $end
$upscope $end
$upscope $end
$enddefinitions $end
#0
$dumpvars
0!
0"
0#
0$
1%
x&
1'
1(
1)
1*
1+
1,
0-
0.
0/
00
x1
x2
x3
x4
$end
#796
01
#816
02
#3566
x0
x/
x#
#3956
03
14
#7507
10
1/
1#
#50000
1!
1-
#50690
11
#100000
0!
1"
0-
1.
#100710
12
#100796
01
#103615
13
04
#104184
03
14
#107206
00
0/
0#
#107735
10
1/
1#
#150000
1!
1-
#150690
11
#153811
13
04
#157402
00
0/
0#
#200000
0!
0"
0-
0.
#200796
01
#200816
02
#203956
03
14
#207507
10
1/
1#
#250000
1!
1-
#250690
11
#300000
0!
1"
0-
1.
#300710
12
#300796
01
#303615
13
04
#304184
03
14
#307206
00
0/
0#
#307735
10
1/
1#
#350000
1!
1-
#350690
11
#353811
13
04
#357402
00
0/
0#
#400000
0!
0"
0-
0.
#400796
01
#400816
02
#403956
03
14
#407507
10
1/
1#
#450000
1!
1-
#450690
11
#500000
0!
1"
0-
1.
#500710
12
#500796
01
#503615
13
04
#504184
03
14
#507206
00
0/
0#
#507735
10
1/
1#
#550000
1!
1-
#550690
11
#553811
13
04
#557402
00
0/
0#
#600000
0!
0"
0-
0.
#600796
01
#600816
02
#603956
03
14
#607507
10
1/
1#
#650000
1!
1-
#650690
11
#700000
0!
1"
0-
1.
#700710
12
#700796
01
#703615
13
04
#704184
03
14
#707206
00
0/
0#
#707735
10
1/
1#
#750000
1!
1-
#750690
11
#753811
13
04
#757402
00
0/
0#
#800000
0!
0"
0-
0.
#800796
01
#800816
02
#803956
03
14
#807507
10
1/
1#
#850000
1!
1-
#850690
11
#900000
0!
1"
0-
1.
#900710
12
#900796
01
#903615
13
04
#904184
03
14
#907206
00
0/
0#
#907735
10
1/
1#
#950000
1!
1-
#950690
11
#953811
13
04
#957402
00
0/
0#
