Shift/simulation/qsim/Deslocador.msim.vcd
$comment
	File created using the following command:
		vcd file Deslocador.msim.vcd -direction
$end
$date
	Sat Sep 07 10:27:14 2019
$end
$version
	ModelSim Version 10.5b
$end
$timescale
	1ps
$end

$scope module deslocador_vhd_vec_tst $end
$var wire 1 ! DESLOCA [1] $end
$var wire 1 " DESLOCA [0] $end
$var wire 1 # ENTRA [7] $end
$var wire 1 $ ENTRA [6] $end
$var wire 1 % ENTRA [5] $end
$var wire 1 & ENTRA [4] $end
$var wire 1 ' ENTRA [3] $end
$var wire 1 ( ENTRA [2] $end
$var wire 1 ) ENTRA [1] $end
$var wire 1 * ENTRA [0] $end
$var wire 1 + SAIDA [7] $end
$var wire 1 , SAIDA [6] $end
$var wire 1 - SAIDA [5] $end
$var wire 1 . SAIDA [4] $end
$var wire 1 / SAIDA [3] $end
$var wire 1 0 SAIDA [2] $end
$var wire 1 1 SAIDA [1] $end
$var wire 1 2 SAIDA [0] $end

$scope module i1 $end
$var wire 1 3 gnd $end
$var wire 1 4 vcc $end
$var wire 1 5 unknown $end
$var wire 1 6 devoe $end
$var wire 1 7 devclrn $end
$var wire 1 8 devpor $end
$var wire 1 9 ww_devoe $end
$var wire 1 : ww_devclrn $end
$var wire 1 ; ww_devpor $end
$var wire 1 < ww_ENTRA [7] $end
$var wire 1 = ww_ENTRA [6] $end
$var wire 1 > ww_ENTRA [5] $end
$var wire 1 ? ww_ENTRA [4] $end
$var wire 1 @ ww_ENTRA [3] $end
$var wire 1 A ww_ENTRA [2] $end
$var wire 1 B ww_ENTRA [1] $end
$var wire 1 C ww_ENTRA [0] $end
$var wire 1 D ww_DESLOCA [1] $end
$var wire 1 E ww_DESLOCA [0] $end
$var wire 1 F ww_SAIDA [7] $end
$var wire 1 G ww_SAIDA [6] $end
$var wire 1 H ww_SAIDA [5] $end
$var wire 1 I ww_SAIDA [4] $end
$var wire 1 J ww_SAIDA [3] $end
$var wire 1 K ww_SAIDA [2] $end
$var wire 1 L ww_SAIDA [1] $end
$var wire 1 M ww_SAIDA [0] $end
$var wire 1 N \SAIDA[0]~output_o\ $end
$var wire 1 O \SAIDA[1]~output_o\ $end
$var wire 1 P \SAIDA[2]~output_o\ $end
$var wire 1 Q \SAIDA[3]~output_o\ $end
$var wire 1 R \SAIDA[4]~output_o\ $end
$var wire 1 S \SAIDA[5]~output_o\ $end
$var wire 1 T \SAIDA[6]~output_o\ $end
$var wire 1 U \SAIDA[7]~output_o\ $end
$var wire 1 V \DESLOCA[0]~input_o\ $end
$var wire 1 W \ENTRA[0]~input_o\ $end
$var wire 1 X \ENTRA[1]~input_o\ $end
$var wire 1 Y \DESLOCA[1]~input_o\ $end
$var wire 1 Z \Mux7~0_combout\ $end
$var wire 1 [ \ENTRA[2]~input_o\ $end
$var wire 1 \ \Mux6~0_combout\ $end
$var wire 1 ] \Mux6~1_combout\ $end
$var wire 1 ^ \ENTRA[3]~input_o\ $end
$var wire 1 _ \Mux5~0_combout\ $end
$var wire 1 ` \Mux5~1_combout\ $end
$var wire 1 a \ENTRA[4]~input_o\ $end
$var wire 1 b \Mux4~0_combout\ $end
$var wire 1 c \Mux4~1_combout\ $end
$var wire 1 d \ENTRA[5]~input_o\ $end
$var wire 1 e \Mux3~0_combout\ $end
$var wire 1 f \Mux3~1_combout\ $end
$var wire 1 g \ENTRA[6]~input_o\ $end
$var wire 1 h \Mux2~0_combout\ $end
$var wire 1 i \Mux2~1_combout\ $end
$var wire 1 j \ENTRA[7]~input_o\ $end
$var wire 1 k \Mux1~0_combout\ $end
$var wire 1 l \Mux1~1_combout\ $end
$var wire 1 m \Mux0~0_combout\ $end
$upscope $end
$upscope $end
$enddefinitions $end
#0
$dumpvars
03
14
x5
16
17
18
19
1:
1;
0N
0O
0P
0Q
0R
0S
0T
0U
xV
xW
xX
xY
xZ
x[
x\
x]
x^
x_
x`
xa
xb
xc
xd
xe
xf
xg
xh
xi
xj
xk
xl
xm
0!
0"
0#
0$
0%
0&
1'
0(
1)
0*
0<
0=
0>
0?
1@
0A
1B
0C
0D
0E
0F
0G
0H
0I
0J
0K
0L
0M
0+
0,
0-
0.
0/
00
01
02
$end
#670
1^
#680
1X
#746
0V
0W
#786
0d
#796
0[
0g
0j
#806
0a
#816
0Y
#3293
xR
xI
x.
#3574
xQ
xJ
x/
#3613
xS
xH
x-
#3617
xN
xM
x2
#3624
xO
xL
x1
#3645
xU
xF
x+
#3649
xT
xG
x,
#4254
0h
#4407
0e
0m
#4417
0k
#4419
0b
0_
#4421
0\
0Z
#4625
0i
#4723
1]
#4726
1c
#4777
0f
#4825
xP
xK
x0
#4934
0l
#4940
0`
#8000
0N
0M
02
#8014
0U
0F
0+
#8035
0R
0I
0.
#8198
0S
0H
0-
#8300
1Q
1J
1/
#8347
1O
1L
11
#8529
0T
0G
0,
#9826
0P
0K
00
#80000
1$
1%
1&
1(
0)
1"
0B
1A
1?
1>
1=
1E
#80640
1V
#80680
1d
#80690
1g
1[
#80700
1a
#80786
0X
#83711
1i
#83909
1m
#83977
1e
#83983
0c
#83989
0i
#83990
1_
#83993
0]
#83994
1k
#84123
1h
#84244
1b
#84339
1f
#84399
0_
#84485
1l
1`
#84486
1i
#84606
1c
#84920
0`
#87324
1S
1H
1-
#87523
0Q
0J
0/
#87554
1U
1F
1+
#87562
0S
0H
0-
#87580
0O
0L
01
#87632
1R
1I
1.
#88099
1S
1H
1-
#88134
1T
1G
1,
#88180
1Q
1J
1/
#89310
1P
1K
10
#89806
0P
0K
00
#160000
0%
0(
0"
1#
1!
0A
0>
1<
0E
1D
#160690
1j
#160710
1Y
#160746
0V
#160786
0d
#160796
0[
#164046
0k
#164047
0b
#164049
0e
#164066
1`
#164385
1\
#164390
1b
#164395
1_
#164398
0m
#164401
1k
#164415
0`
#164417
0c
#164419
0f
#164563
0l
#164568
0\
#164748
1]
#164752
1c
#164890
1`
#164892
1l
#164939
0]
#167677
0R
0I
0.
#167957
0Q
0J
0/
#168005
0U
0F
0+
#168158
0T
0G
0,
#168326
1Q
1J
1/
#168372
1O
1L
11
#168526
0O
0L
01
#168541
1T
1G
1,
#168891
1P
1K
10
#169301
0P
0K
00
#169715
1P
1K
10
#240000
1"
0$
0&
1)
1E
1B
0?
0=
#240640
1V
#240680
1X
#240796
0g
#240806
0a
#243960
0h
#243978
1f
#243983
1m
#243990
0_
#243994
0k
#244012
0b
#244047
1]
#244331
0i
#244477
0f
#244511
0l
0`
#247271
1R
1I
1.
#247628
1U
1F
1+
#247671
1O
1L
11
#247735
0R
0I
0.
#247904
0S
0H
0-
#248106
0T
0G
0,
#249397
0P
0K
00
#320000
0"
1&
0!
0'
0E
0D
0@
1?
#320700
1a
#320746
0V
#320776
0^
#320816
0Y
#324068
0c
#324124
1f
#324390
1b
#324391
0f
#324398
0m
#324399
0]
#324401
1k
#324413
1Z
#324417
0k
#324419
0b
#324421
0Z
#324723
1m
1]
#324725
1f
#324752
1c
#324789
0c
#324892
1l
#324934
0l
#327417
1R
1I
1.
#327608
0Q
0J
0/
#327649
0R
0I
0.
#327986
0O
0L
01
#328005
0U
0F
0+
#328018
1R
1I
1.
#328326
1Q
1J
1/
#328329
0Q
0J
0/
#328347
1O
1L
11
#328368
1U
1F
1+
#400000
1"
0&
1'
1$
1%
0#
1*
1E
1C
1@
0?
1>
1=
0<
#400640
1W
1V
#400670
1^
#400680
1d
#400690
1g
#400796
0j
#400806
0a
#403711
1i
#403714
1c
#403912
1h
#403977
1e
#403983
0c
#403987
0f
#403989
0i
#403990
1_
#403993
0]
#403994
1k
#404030
1\
#404275
1i
#404339
1f
#404393
1]
#404477
0h
#404485
1l
1`
#404848
0i
#407245
0R
0I
0.
#407288
1Q
1J
1/
#407324
1S
1H
1-
#407523
0Q
0J
0/
#407562
0S
0H
0-
#407580
0O
0L
01
#407632
1R
1I
1.
#407888
1S
1H
1-
#408017
1O
1L
11
#408134
1T
1G
1,
#408421
0S
0H
0-
#409310
1P
1K
10
#480000
0"
0'
0%
1#
1!
0)
0E
1D
0B
0@
0>
1<
#480690
1j
#480710
1Y
#480746
0V
#480776
0^
#480786
0d
0X
#484046
0k
#484047
0_
#484049
0e
0\
#484065
1Z
#484380
1h
#484398
0m
#484401
1k
#484402
0Z
#484419
0f
#484420
0]
#484563
0l
#484568
0`
#484743
1i
#484892
1l
#487677
0R
0I
0.
#487682
1N
1M
12
#487981
0N
0M
02
#488005
0U
0F
0+
#488007
0O
0L
01
#488158
0T
0G
0,
#488356
1S
1H
1-
#488541
1T
1G
1,
#489454
0P
0K
00
#560000
1"
1'
1%
1&
1(
1E
1A
1@
1?
1>
#560640
1V
#560670
1^
#560680
1d
#560690
1[
#560700
1a
#563706
1e
#563800
1_
#563960
0h
#563974
1c
#563983
1m
#563990
0_
#563994
0k
#564004
0e
#564010
1Z
#564068
1f
#564264
1`
#567361
1R
1I
1.
#567548
1Q
1J
1/
#567627
1N
1M
12
#567628
1U
1F
1+
#569089
1P
1K
10
#640000
0"
0%
0(
0!
0$
0*
0E
0D
0C
0A
0>
0=
#640746
0W
0V
#640786
0d
#640796
0g
0[
#640816
0Y
#644075
0i
#644251
0m
0l
#644383
1\
#644386
0c
#644390
1b
#644391
0f
#644395
1_
#644401
1k
#644415
0`
#644417
0k
#644419
0b
0_
#644421
0Z
0\
#644723
1m
#644725
1f
#644726
1c
#644746
1]
#644792
0]
#644890
1`
#644892
1l
#644934
0l
#644940
0`
#647648
0S
0H
0-
#647649
0R
0I
0.
#647846
0T
0G
0,
#647858
0U
0F
0+
#647926
0Q
0J
0/
#648000
0N
0M
02
#648018
1R
1I
1.
#648300
1Q
1J
1/
#648368
1U
1F
1+
#648370
1O
1L
11
#648379
0O
0L
01
#649301
0P
0K
00
#649715
1P
1K
10
#649826
0P
0K
00
#720000
1"
1%
1$
1*
0'
0#
1E
1C
0@
1>
1=
0<
#720640
1W
1V
#720680
1d
#720690
1g
#720776
0^
#720796
0j
#723711
1i
#723912
1h
#723977
1e
#723983
0c
#723987
0f
#723989
0i
#723994
1k
#724030
1\
#724241
0e
#724275
1i
#724339
1f
#724393
1]
#724485
1l
#724611
0f
#727245
0R
0I
0.
#727324
1S
1H
1-
#727523
0Q
0J
0/
#727562
0S
0H
0-
#727632
1R
1I
1.
#727869
0R
0I
0.
#727888
1S
1H
1-
#728017
1O
1L
11
#728134
1T
1G
1,
#800000
0"
0%
0*
1'
1#
1(
1!
0E
1D
0C
1A
1@
0>
1<
#800670
1^
#800690
1j
1[
#800710
1Y
#800746
0W
0V
#800786
0d
#803845
1e
#804046
0k
#804049
0e
0\
#804065
1Z
#804066
1`
#804207
1f
#804342
1c
#804383
1\
#804386
0c
#804390
1b
#804395
1_
#804398
0m
#804401
1k
#804415
0`
#804419
0f
#804420
0]
#804421
0Z
#804563
0l
#804746
1]
#804752
1c
#804890
1`
#804892
1l
#807500
1R
1I
1.
#807677
0R
0I
0.
#807682
1N
1M
12
#807916
1Q
1J
1/
#807926
0Q
0J
0/
#808000
0N
0M
02
#808005
0U
0F
0+
#808007
0O
0L
01
#808158
0T
0G
0,
#808326
1Q
1J
1/
#808370
1O
1L
11
#808541
1T
1G
1,
#808891
1P
1K
10
#809301
0P
0K
00
#809715
1P
1K
10
#880000
1"
1*
0'
0&
1E
1C
0@
0?
#880640
1W
1V
#880776
0^
#880806
0a
#883960
0h
#883978
1f
#883982
0\
#883983
1m
#883990
0_
#883994
0k
#884012
0b
#884203
1Z
#884331
0i
#884353
0]
#884382
0c
#884477
0f
#887271
1R
1I
1.
#887628
1U
1F
1+
#887735
0R
0I
0.
#887820
1N
1M
12
#887904
0S
0H
0-
#887922
0Q
0J
0/
#887940
0O
0L
01
#960000
0"
1&
1%
0(
0!
0E
0D
0A
1?
1>
#960680
1d
#960700
1a
#960746
0V
#960796
0[
#960816
0Y
#963711
1i
#964124
1f
#964357
0l
#964380
1h
1e
#964385
1\
#964390
1b
#964391
0f
#964394
0i
#964398
0m
#964401
1k
#964415
0`
#964417
0k
#964419
0b
#964421
0Z
0e
0\
#964437
1Z
#964682
1l
#964723
1m
#964724
1i
#964725
1f
#964748
1]
#964752
1c
#964769
0h
#964789
0c
#964792
0]
#967324
1S
1H
1-
#967417
1R
1I
1.
#967649
0R
0I
0.
#967952
0T
0G
0,
#967967
0S
0H
0-
#968000
0N
0M
02
#968005
0U
0F
0+
#968018
1R
1I
1.
#968054
1N
1M
12
#968326
1Q
1J
1/
#968329
0Q
0J
0/
#968331
1T
1G
1,
#968337
1S
1H
1-
#968368
1U
1F
1+
#968372
1O
1L
11
#968379
0O
0L
01
#969301
0P
0K
00
