ULA/simulation/qsim/ComponenteLogico.msim.vcd
$comment
	File created using the following command:
		vcd file ComponenteLogico.msim.vcd -direction
$end
$date
	Fri Sep 06 20:47:05 2019
$end
$version
	ModelSim Version 10.5b
$end
$timescale
	1ps
$end

$scope module componentelogico_vhd_vec_tst $end
$var wire 1 ! Ai $end
$var wire 1 " Bi $end
$var wire 1 # Mi $end
$var wire 1 $ S0i $end
$var wire 1 % S1i $end
$var wire 1 & Xi $end
$var wire 1 ' Yi $end

$scope module i1 $end
$var wire 1 ( gnd $end
$var wire 1 ) vcc $end
$var wire 1 * unknown $end
$var wire 1 + devoe $end
$var wire 1 , devclrn $end
$var wire 1 - devpor $end
$var wire 1 . ww_devoe $end
$var wire 1 / ww_devclrn $end
$var wire 1 0 ww_devpor $end
$var wire 1 1 ww_Ai $end
$var wire 1 2 ww_Bi $end
$var wire 1 3 ww_Mi $end
$var wire 1 4 ww_S1i $end
$var wire 1 5 ww_S0i $end
$var wire 1 6 ww_Xi $end
$var wire 1 7 ww_Yi $end
$var wire 1 8 \Xi~output_o\ $end
$var wire 1 9 \Yi~output_o\ $end
$var wire 1 : \Mi~input_o\ $end
$var wire 1 ; \Ai~input_o\ $end
$var wire 1 < \S0i~input_o\ $end
$var wire 1 = \S1i~input_o\ $end
$var wire 1 > \Bi~input_o\ $end
$var wire 1 ? \Xi~0_combout\ $end
$var wire 1 @ \Xi~1_combout\ $end
$var wire 1 A \Yi~0_combout\ $end
$var wire 1 B \ALT_INV_Xi~1_combout\ $end
$upscope $end
$upscope $end
$enddefinitions $end
#0
$dumpvars
0!
0"
0#
0$
0%
0&
0'
0(
1)
x*
1+
1,
1-
1.
1/
10
01
02
03
04
05
06
07
08
09
x:
x;
x<
x=
x>
x?
x@
xA
xB
$end
#746
0:
#756
0<
#796
0>
#806
0;
#816
0=
#3568
x9
x7
x'
#3578
x8
x6
x&
#4332
0A
#4445
0?
#4449
1@
0B
#7860
09
07
0'
#8052
08
06
0&
#25000
1$
15
#25650
1<
#28983
1A
#32551
19
17
1'
#50000
0$
1%
05
14
#50710
1=
#50756
0<
#53924
1?
#53965
0A
#54520
0?
#57493
09
07
0'
#75000
1$
15
#75650
1<
#79133
1?
#100000
0$
0%
1#
05
04
13
#100640
1:
#100756
0<
#100816
0=
#103802
0@
1B
#104307
0?
#104691
1@
0B
#107368
18
16
1&
#108294
08
06
0&
#125000
1$
15
#125650
1<
#150000
0$
1%
05
14
#150710
1=
#150756
0<
#153924
1?
#154269
0@
1B
#154520
0?
#154904
1@
0B
#157835
18
16
1&
#158507
08
06
0&
#175000
1$
15
#175650
1<
#179133
1?
#179478
0@
1B
#183044
18
16
1&
#200000
0$
0%
0#
1"
05
04
03
12
#200690
1>
#200746
0:
#200756
0<
#200816
0=
#203596
0?
#203980
1@
0B
#204284
1?
#204339
1A
#204520
0?
#207583
08
06
0&
#207907
19
17
1'
#225000
1$
15
#225650
1<
#228976
0A
#229133
1?
#232504
09
07
0'
#250000
0$
1%
05
14
#250710
1=
#250756
0<
#253947
0?
#254496
1?
#275000
1$
15
#275650
1<
#279157
0?
#300000
0$
0%
1#
05
04
13
#300640
1:
#300756
0<
#300816
0=
#304284
1?
#304520
0?
#304629
0@
1B
#304904
1@
0B
#308195
18
16
1&
#308507
08
06
0&
#325000
1$
15
#325650
1<
#329133
1?
#329478
0@
1B
#333044
18
16
1&
#350000
0$
1%
05
14
#350710
1=
#350756
0<
#353947
0?
#354331
1@
0B
#354496
1?
#354841
0@
1B
#357934
08
06
0&
#358407
18
16
1&
#375000
1$
15
#375650
1<
#379157
0?
#379541
1@
0B
#383144
08
06
0&
#400000
0$
0%
0#
0"
1!
05
04
03
02
11
#400700
1;
#400746
0:
#400756
0<
#400796
0>
#400816
0=
#403975
1?
#404087
0@
1B
#404322
1A
#404332
0A
#404520
0?
#407653
18
16
1&
#425000
1$
15
#425650
1<
#428983
1A
#429133
1?
#432551
19
17
1'
#450000
0$
1%
05
14
#450710
1=
#450756
0<
#453965
0A
#457493
09
07
0'
#475000
1$
15
#475650
1<
#500000
0$
0%
1#
05
04
13
#500640
1:
#500756
0<
#500816
0=
#504520
0?
#504904
1@
0B
#508507
08
06
0&
#525000
1$
15
#525650
1<
#529133
1?
#529478
0@
1B
#533044
18
16
1&
#550000
0$
1%
05
14
#550710
1=
#550756
0<
#575000
1$
15
#575650
1<
#600000
0$
0%
0#
1"
05
04
03
12
#600690
1>
#600746
0:
#600756
0<
#600816
0=
#603596
0?
#604284
1?
#604339
1A
#607907
19
17
1'
#625000
1$
15
#625650
1<
#628976
0A
#632504
09
07
0'
#650000
0$
1%
05
14
#650710
1=
#650756
0<
#653947
0?
#675000
1$
15
#675650
1<
#700000
0$
0%
1#
05
04
13
#700640
1:
#700756
0<
#700816
0=
#703811
1@
0B
#704284
1?
#704629
0@
1B
#707414
08
06
0&
#708195
18
16
1&
#725000
1$
15
#725650
1<
#750000
0$
1%
05
14
#750710
1=
#750756
0<
#753947
0?
#754331
1@
0B
#757934
08
06
0&
#775000
1$
15
#775650
1<
#800000
0$
0%
0#
0"
0!
05
04
03
02
01
#800746
0:
#800756
0<
#800796
0>
#800806
0;
#800816
0=
#803975
1?
#804173
0@
1B
#804322
1A
#804332
0A
#804336
1@
0B
#804445
0?
#807739
18
16
1&
#807939
08
06
0&
#825000
1$
15
#825650
1<
#828983
1A
#832551
19
17
1'
#850000
0$
1%
05
14
#850710
1=
#850756
0<
#853924
1?
#853965
0A
#854520
0?
#857493
09
07
0'
#875000
1$
15
#875650
1<
#879133
1?
#900000
0$
0%
1#
05
04
13
#900640
1:
#900756
0<
#900816
0=
#903802
0@
1B
#904307
0?
#904691
1@
0B
#907368
18
16
1&
#908294
08
06
0&
#925000
1$
15
#925650
1<
#950000
0$
1%
05
14
#950710
1=
#950756
0<
#953924
1?
#954269
0@
1B
#954520
0?
#954904
1@
0B
#957835
18
16
1&
#958507
08
06
0&
#975000
1$
15
#975650
1<
#979133
1?
#979478
0@
1B
#983044
18
16
1&
