Maq_Cafe/simulation/qsim/maq_cafe.msim.vcd
$comment
	File created using the following command:
		vcd file maq_cafe.msim.vcd -direction
$end
$date
	Sun Aug 25 20:29:35 2019
$end
$version
	ModelSim Version 10.5b
$end
$timescale
	1ps
$end

$scope module maq_cafe_vhd_vec_tst $end
$var wire 1 ! A $end
$var wire 1 " B $end
$var wire 1 # b1 $end
$var wire 1 $ b2 $end
$var wire 1 % b3 $end
$var wire 1 & b4 $end
$var wire 1 ' b5 $end
$var wire 1 ( b6 $end
$var wire 1 ) b7 $end
$var wire 1 * b8 $end
$var wire 1 + C $end
$var wire 1 , D $end
$var wire 1 - E $end
$var wire 1 . F $end
$var wire 1 / G $end
$var wire 1 0 H $end
$var wire 1 1 k [2] $end
$var wire 1 2 k [1] $end
$var wire 1 3 k [0] $end

$scope module i1 $end
$var wire 1 4 gnd $end
$var wire 1 5 vcc $end
$var wire 1 6 unknown $end
$var wire 1 7 devoe $end
$var wire 1 8 devclrn $end
$var wire 1 9 devpor $end
$var wire 1 : ww_devoe $end
$var wire 1 ; ww_devclrn $end
$var wire 1 < ww_devpor $end
$var wire 1 = ww_b1 $end
$var wire 1 > ww_b2 $end
$var wire 1 ? ww_b3 $end
$var wire 1 @ ww_b4 $end
$var wire 1 A ww_b5 $end
$var wire 1 B ww_b6 $end
$var wire 1 C ww_b7 $end
$var wire 1 D ww_b8 $end
$var wire 1 E ww_A $end
$var wire 1 F ww_B $end
$var wire 1 G ww_C $end
$var wire 1 H ww_D $end
$var wire 1 I ww_E $end
$var wire 1 J ww_F $end
$var wire 1 K ww_G $end
$var wire 1 L ww_H $end
$var wire 1 M \k[0]~input_o\ $end
$var wire 1 N \k[1]~input_o\ $end
$var wire 1 O \k[2]~input_o\ $end
$var wire 1 P \k[0]~output_o\ $end
$var wire 1 Q \k[1]~output_o\ $end
$var wire 1 R \k[2]~output_o\ $end
$var wire 1 S \A~output_o\ $end
$var wire 1 T \B~output_o\ $end
$var wire 1 U \C~output_o\ $end
$var wire 1 V \D~output_o\ $end
$var wire 1 W \E~output_o\ $end
$var wire 1 X \F~output_o\ $end
$var wire 1 Y \G~output_o\ $end
$var wire 1 Z \H~output_o\ $end
$var wire 1 [ \b5~input_o\ $end
$var wire 1 \ \b7~input_o\ $end
$var wire 1 ] \b6~input_o\ $end
$var wire 1 ^ \b4~input_o\ $end
$var wire 1 _ \k[0]~3_combout\ $end
$var wire 1 ` \b3~input_o\ $end
$var wire 1 a \b1~input_o\ $end
$var wire 1 b \b2~input_o\ $end
$var wire 1 c \k[2]~4_combout\ $end
$var wire 1 d \b8~input_o\ $end
$var wire 1 e \k[0]~5_combout\ $end
$var wire 1 f \k[0]~6_combout\ $end
$var wire 1 g \comb~2_combout\ $end
$var wire 1 h \comb~3_combout\ $end
$var wire 1 i \k[0]$latch~combout\ $end
$var wire 1 j \k[1]~7_combout\ $end
$var wire 1 k \k[1]~8_combout\ $end
$var wire 1 l \comb~6_combout\ $end
$var wire 1 m \comb~5_combout\ $end
$var wire 1 n \k[1]$latch~combout\ $end
$var wire 1 o \comb~4_combout\ $end
$var wire 1 p \comb~7_combout\ $end
$var wire 1 q \k[2]$latch~combout\ $end
$var wire 1 r \Equal7~0_combout\ $end
$var wire 1 s \Equal7~1_combout\ $end
$var wire 1 t \Equal7~2_combout\ $end
$var wire 1 u \Equal7~3_combout\ $end
$var wire 1 v \Equal7~4_combout\ $end
$var wire 1 w \Equal7~5_combout\ $end
$var wire 1 x \Equal7~6_combout\ $end
$var wire 1 y \Equal7~7_combout\ $end
$upscope $end
$upscope $end
$enddefinitions $end
#0
$dumpvars
0!
0"
0#
0$
0%
1&
0'
0(
0)
0*
0+
0,
0-
0.
0/
00
04
15
x6
17
18
19
1:
1;
1<
0=
0>
0?
1@
0A
0B
0C
0D
0E
0F
0G
0H
0I
0J
0K
0L
0M
0N
0O
0P
0Q
0R
0S
0T
0U
0V
0W
0X
0Y
0Z
x[
x\
x]
x^
x_
x`
xa
xb
xc
xd
xe
xf
xg
xh
xi
xj
xk
xl
xm
xn
xo
xp
xq
xr
xs
xt
xu
xv
xw
xx
xy
01
02
03
$end
#679
1^
#735
0\
#755
0[
#765
0]
#785
0`
0a
0d
#795
0b
#3382
xS
xE
x!
#3418
xT
xF
x"
#3431
xW
xI
x-
#3438
xY
xK
x/
#3637
xQ
x2
xN
#3653
xV
xH
x,
#3750
xP
x3
xM
#3852
xU
xG
x+
#3890
0e
#3893
0j
0_
#3895
xX
xJ
x.
#3962
xZ
xL
x0
#3975
xR
x1
xO
#4829
0k
#4830
0f
#4834
1p
#4868
1c
#5213
0h
#5230
1g
#5248
0o
#5360
0l
#5364
1m
#5711
0n
#5904
0i
#5962
1q
#6520
0t
#6521
0s
#6524
0x
#6525
0w
#6575
0v
#6913
0y
#6916
0r
#7114
1u
#9242
0Q
02
0N
#9565
0P
03
0M
#9847
0T
0F
0"
#9880
0Y
0K
0/
#9924
0W
0I
0-
#9937
1R
11
1O
#10214
0S
0E
0!
#10245
0U
0G
0+
#10279
0X
0J
0.
#10764
0Z
0L
00
#10767
1V
1H
1,
#50000
0&
1)
0@
1C
#50629
1\
#50785
0^
#54269
1e
#54271
1j
#54765
1k
#54926
1f
#55259
0m
#55266
1l
#55282
0g
#55298
1h
#55924
1n
#55980
1i
#56736
0u
#56754
1w
#57137
1x
#57161
0w
#59561
1Q
12
1N
#59730
1P
13
1M
#60273
0V
0H
0,
#60575
1Y
1K
1/
#60649
1X
1J
1.
#60915
0X
0J
0.
#100000
1&
0)
1@
0C
#100679
1^
#100735
0\
#103890
0e
#103893
0j
#104412
0k
#104576
0f
#104943
0l
#104947
1m
#104959
0h
#104976
1g
#105294
0n
#105650
0i
#105855
1v
#106107
0x
#106321
0v
#106860
1u
#108825
0Q
02
0N
#109286
1W
1I
1-
#109311
0P
03
0M
#109463
0Y
0K
0/
#109670
0W
0I
0-
#110513
1V
1H
1,
#150000
0&
1)
0@
1C
#150629
1\
#150785
0^
#154269
1e
#154271
1j
#154765
1k
#154926
1f
#155259
0m
#155266
1l
#155282
0g
#155298
1h
#155924
1n
#155980
1i
#156736
0u
#156754
1w
#157137
1x
#157161
0w
#159561
1Q
12
1N
#159730
1P
13
1M
#160273
0V
0H
0,
#160575
1Y
1K
1/
#160649
1X
1J
1.
#160915
0X
0J
0.
#200000
1&
0)
1@
0C
#200679
1^
#200735
0\
#203890
0e
#203893
0j
#204412
0k
#204576
0f
#204943
0l
#204947
1m
#204959
0h
#204976
1g
#205294
0n
#205650
0i
#205855
1v
#206107
0x
#206321
0v
#206860
1u
#208825
0Q
02
0N
#209286
1W
1I
1-
#209311
0P
03
0M
#209463
0Y
0K
0/
#209670
0W
0I
0-
#210513
1V
1H
1,
#250000
0&
1)
0@
1C
#250629
1\
#250785
0^
#254269
1e
#254271
1j
#254765
1k
#254926
1f
#255259
0m
#255266
1l
#255282
0g
#255298
1h
#255924
1n
#255980
1i
#256736
0u
#256754
1w
#257137
1x
#257161
0w
#259561
1Q
12
1N
#259730
1P
13
1M
#260273
0V
0H
0,
#260575
1Y
1K
1/
#260649
1X
1J
1.
#260915
0X
0J
0.
#300000
1&
0)
1@
0C
#300679
1^
#300735
0\
#303890
0e
#303893
0j
#304412
0k
#304576
0f
#304943
0l
#304947
1m
#304959
0h
#304976
1g
#305294
0n
#305650
0i
#305855
1v
#306107
0x
#306321
0v
#306860
1u
#308825
0Q
02
0N
#309286
1W
1I
1-
#309311
0P
03
0M
#309463
0Y
0K
0/
#309670
0W
0I
0-
#310513
1V
1H
1,
#350000
0&
1)
0@
1C
#350629
1\
#350785
0^
#354269
1e
#354271
1j
#354765
1k
#354926
1f
#355259
0m
#355266
1l
#355282
0g
#355298
1h
#355924
1n
#355980
1i
#356736
0u
#356754
1w
#357137
1x
#357161
0w
#359561
1Q
12
1N
#359730
1P
13
1M
#360273
0V
0H
0,
#360575
1Y
1K
1/
#360649
1X
1J
1.
#360915
0X
0J
0.
#400000
1&
0)
1@
0C
#400679
1^
#400735
0\
#403890
0e
#403893
0j
#404412
0k
#404576
0f
#404943
0l
#404947
1m
#404959
0h
#404976
1g
#405294
0n
#405650
0i
#405855
1v
#406107
0x
#406321
0v
#406860
1u
#408825
0Q
02
0N
#409286
1W
1I
1-
#409311
0P
03
0M
#409463
0Y
0K
0/
#409670
0W
0I
0-
#410513
1V
1H
1,
#450000
0&
1)
0@
1C
#450629
1\
#450785
0^
#454269
1e
#454271
1j
#454765
1k
#454926
1f
#455259
0m
#455266
1l
#455282
0g
#455298
1h
#455924
1n
#455980
1i
#456736
0u
#456754
1w
#457137
1x
#457161
0w
#459561
1Q
12
1N
#459730
1P
13
1M
#460273
0V
0H
0,
#460575
1Y
1K
1/
#460649
1X
1J
1.
#460915
0X
0J
0.
#500000
1&
0)
1@
0C
#500679
1^
#500735
0\
#503890
0e
#503893
0j
#504412
0k
#504576
0f
#504943
0l
#504947
1m
#504959
0h
#504976
1g
#505294
0n
#505650
0i
#505855
1v
#506107
0x
#506321
0v
#506860
1u
#508825
0Q
02
0N
#509286
1W
1I
1-
#509311
0P
03
0M
#509463
0Y
0K
0/
#509670
0W
0I
0-
#510513
1V
1H
1,
#550000
0&
1)
0@
1C
#550629
1\
#550785
0^
#554269
1e
#554271
1j
#554765
1k
#554926
1f
#555259
0m
#555266
1l
#555282
0g
#555298
1h
#555924
1n
#555980
1i
#556736
0u
#556754
1w
#557137
1x
#557161
0w
#559561
1Q
12
1N
#559730
1P
13
1M
#560273
0V
0H
0,
#560575
1Y
1K
1/
#560649
1X
1J
1.
#560915
0X
0J
0.
#600000
1&
0)
1@
0C
#600679
1^
#600735
0\
#603890
0e
#603893
0j
#604412
0k
#604576
0f
#604943
0l
#604947
1m
#604959
0h
#604976
1g
#605294
0n
#605650
0i
#605855
1v
#606107
0x
#606321
0v
#606860
1u
#608825
0Q
02
0N
#609286
1W
1I
1-
#609311
0P
03
0M
#609463
0Y
0K
0/
#609670
0W
0I
0-
#610513
1V
1H
1,
#650000
0&
1)
0@
1C
#650629
1\
#650785
0^
#654269
1e
#654271
1j
#654765
1k
#654926
1f
#655259
0m
#655266
1l
#655282
0g
#655298
1h
#655924
1n
#655980
1i
#656736
0u
#656754
1w
#657137
1x
#657161
0w
#659561
1Q
12
1N
#659730
1P
13
1M
#660273
0V
0H
0,
#660575
1Y
1K
1/
#660649
1X
1J
1.
#660915
0X
0J
0.
#700000
1&
0)
1@
0C
#700679
1^
#700735
0\
#703890
0e
#703893
0j
#704412
0k
#704576
0f
#704943
0l
#704947
1m
#704959
0h
#704976
1g
#705294
0n
#705650
0i
#705855
1v
#706107
0x
#706321
0v
#706860
1u
#708825
0Q
02
0N
#709286
1W
1I
1-
#709311
0P
03
0M
#709463
0Y
0K
0/
#709670
0W
0I
0-
#710513
1V
1H
1,
#750000
0&
1)
0@
1C
#750629
1\
#750785
0^
#754269
1e
#754271
1j
#754765
1k
#754926
1f
#755259
0m
#755266
1l
#755282
0g
#755298
1h
#755924
1n
#755980
1i
#756736
0u
#756754
1w
#757137
1x
#757161
0w
#759561
1Q
12
1N
#759730
1P
13
1M
#760273
0V
0H
0,
#760575
1Y
1K
1/
#760649
1X
1J
1.
#760915
0X
0J
0.
#800000
1&
0)
1@
0C
#800679
1^
#800735
0\
#803890
0e
#803893
0j
#804412
0k
#804576
0f
#804943
0l
#804947
1m
#804959
0h
#804976
1g
#805294
0n
#805650
0i
#805855
1v
#806107
0x
#806321
0v
#806860
1u
#808825
0Q
02
0N
#809286
1W
1I
1-
#809311
0P
03
0M
#809463
0Y
0K
0/
#809670
0W
0I
0-
#810513
1V
1H
1,
#850000
0&
1)
0@
1C
#850629
1\
#850785
0^
#854269
1e
#854271
1j
#854765
1k
#854926
1f
#855259
0m
#855266
1l
#855282
0g
#855298
1h
#855924
1n
#855980
1i
#856736
0u
#856754
1w
#857137
1x
#857161
0w
#859561
1Q
12
1N
#859730
1P
13
1M
#860273
0V
0H
0,
#860575
1Y
1K
1/
#860649
1X
1J
1.
#860915
0X
0J
0.
#900000
1&
0)
1@
0C
#900679
1^
#900735
0\
#903890
0e
#903893
0j
#904412
0k
#904576
0f
#904943
0l
#904947
1m
#904959
0h
#904976
1g
#905294
0n
#905650
0i
#905855
1v
#906107
0x
#906321
0v
#906860
1u
#908825
0Q
02
0N
#909286
1W
1I
1-
#909311
0P
03
0M
#909463
0Y
0K
0/
#909670
0W
0I
0-
#910513
1V
1H
1,
#950000
0&
1)
0@
1C
#950629
1\
#950785
0^
#954269
1e
#954271
1j
#954765
1k
#954926
1f
#955259
0m
#955266
1l
#955282
0g
#955298
1h
#955924
1n
#955980
1i
#956736
0u
#956754
1w
#957137
1x
#957161
0w
#959561
1Q
12
1N
#959730
1P
13
1M
#960273
0V
0H
0,
#960575
1Y
1K
1/
#960649
1X
1J
1.
#960915
0X
0J
0.
