Tarefa28/e2/simulation/qsim/po.msim.vcd
$comment
	File created using the following command:
		vcd file po.msim.vcd -direction
$end
$date
	Sun Nov 03 16:15:11 2019
$end
$version
	ModelSim Version 10.5b
$end
$timescale
	1ps
$end

$scope module po_vhd_vec_tst $end
$var wire 1 ! a [7] $end
$var wire 1 " a [6] $end
$var wire 1 # a [5] $end
$var wire 1 $ a [4] $end
$var wire 1 % a [3] $end
$var wire 1 & a [2] $end
$var wire 1 ' a [1] $end
$var wire 1 ( a [0] $end
$var wire 1 ) clk $end
$var wire 1 * n_troco $end
$var wire 1 + s [7] $end
$var wire 1 , s [6] $end
$var wire 1 - s [5] $end
$var wire 1 . s [4] $end
$var wire 1 / s [3] $end
$var wire 1 0 s [2] $end
$var wire 1 1 s [1] $end
$var wire 1 2 s [0] $end
$var wire 1 3 tot_clr $end
$var wire 1 4 tot_ld $end
$var wire 1 5 tot_lt_s $end

$scope module i1 $end
$var wire 1 6 gnd $end
$var wire 1 7 vcc $end
$var wire 1 8 unknown $end
$var wire 1 9 devoe $end
$var wire 1 : devclrn $end
$var wire 1 ; devpor $end
$var wire 1 < ww_devoe $end
$var wire 1 = ww_devclrn $end
$var wire 1 > ww_devpor $end
$var wire 1 ? ww_clk $end
$var wire 1 @ ww_tot_ld $end
$var wire 1 A ww_tot_clr $end
$var wire 1 B ww_s [7] $end
$var wire 1 C ww_s [6] $end
$var wire 1 D ww_s [5] $end
$var wire 1 E ww_s [4] $end
$var wire 1 F ww_s [3] $end
$var wire 1 G ww_s [2] $end
$var wire 1 H ww_s [1] $end
$var wire 1 I ww_s [0] $end
$var wire 1 J ww_a [7] $end
$var wire 1 K ww_a [6] $end
$var wire 1 L ww_a [5] $end
$var wire 1 M ww_a [4] $end
$var wire 1 N ww_a [3] $end
$var wire 1 O ww_a [2] $end
$var wire 1 P ww_a [1] $end
$var wire 1 Q ww_a [0] $end
$var wire 1 R ww_tot_lt_s $end
$var wire 1 S ww_n_troco $end
$var wire 1 T \tot_lt_s~output_o\ $end
$var wire 1 U \n_troco~output_o\ $end
$var wire 1 V \clk~input_o\ $end
$var wire 1 W \a[7]~input_o\ $end
$var wire 1 X \a[6]~input_o\ $end
$var wire 1 Y \a[5]~input_o\ $end
$var wire 1 Z \a[4]~input_o\ $end
$var wire 1 [ \a[3]~input_o\ $end
$var wire 1 \ \a[2]~input_o\ $end
$var wire 1 ] \a[1]~input_o\ $end
$var wire 1 ^ \a[0]~input_o\ $end
$var wire 1 _ \tot_saida[0]~8_combout\ $end
$var wire 1 ` \tot_clr~input_o\ $end
$var wire 1 a \tot_ld~input_o\ $end
$var wire 1 b \tot_saida[7]~24_combout\ $end
$var wire 1 c \tot_saida[0]~9\ $end
$var wire 1 d \tot_saida[1]~10_combout\ $end
$var wire 1 e \tot_saida[1]~11\ $end
$var wire 1 f \tot_saida[2]~12_combout\ $end
$var wire 1 g \tot_saida[2]~13\ $end
$var wire 1 h \tot_saida[3]~14_combout\ $end
$var wire 1 i \tot_saida[3]~15\ $end
$var wire 1 j \tot_saida[4]~16_combout\ $end
$var wire 1 k \tot_saida[4]~17\ $end
$var wire 1 l \tot_saida[5]~18_combout\ $end
$var wire 1 m \tot_saida[5]~19\ $end
$var wire 1 n \tot_saida[6]~20_combout\ $end
$var wire 1 o \tot_saida[6]~21\ $end
$var wire 1 p \tot_saida[7]~22_combout\ $end
$var wire 1 q \s[7]~input_o\ $end
$var wire 1 r \s[6]~input_o\ $end
$var wire 1 s \s[5]~input_o\ $end
$var wire 1 t \s[4]~input_o\ $end
$var wire 1 u \s[3]~input_o\ $end
$var wire 1 v \s[2]~input_o\ $end
$var wire 1 w \s[1]~input_o\ $end
$var wire 1 x \s[0]~input_o\ $end
$var wire 1 y \LessThan1~1_cout\ $end
$var wire 1 z \LessThan1~3_cout\ $end
$var wire 1 { \LessThan1~5_cout\ $end
$var wire 1 | \LessThan1~7_cout\ $end
$var wire 1 } \LessThan1~9_cout\ $end
$var wire 1 ~ \LessThan1~11_cout\ $end
$var wire 1 !! \LessThan1~13_cout\ $end
$var wire 1 "! \LessThan1~14_combout\ $end
$var wire 1 #! \LessThan0~1_cout\ $end
$var wire 1 $! \LessThan0~3_cout\ $end
$var wire 1 %! \LessThan0~5_cout\ $end
$var wire 1 &! \LessThan0~7_cout\ $end
$var wire 1 '! \LessThan0~9_cout\ $end
$var wire 1 (! \LessThan0~11_cout\ $end
$var wire 1 )! \LessThan0~13_cout\ $end
$var wire 1 *! \LessThan0~14_combout\ $end
$var wire 1 +! \tot_lt_s~0_combout\ $end
$var wire 1 ,! tot_saida [7] $end
$var wire 1 -! tot_saida [6] $end
$var wire 1 .! tot_saida [5] $end
$var wire 1 /! tot_saida [4] $end
$var wire 1 0! tot_saida [3] $end
$var wire 1 1! tot_saida [2] $end
$var wire 1 2! tot_saida [1] $end
$var wire 1 3! tot_saida [0] $end
$var wire 1 4! \ALT_INV_LessThan0~14_combout\ $end
$upscope $end
$upscope $end
$enddefinitions $end
#0
$dumpvars
0)
1*
03
04
15
06
17
x8
19
1:
1;
1<
1=
1>
0?
0@
0A
1R
1S
1T
1U
0V
0W
0X
0Y
0Z
0[
0\
0]
1^
1_
0`
0a
0b
0c
0d
1e
0f
0g
0h
1i
0j
0k
0l
1m
0n
0o
0p
0q
0r
0s
0t
0u
0v
1w
0x
0y
0z
1{
0|
1}
0~
1!!
1"!
0#!
1$!
0%!
1&!
0'!
1(!
0)!
0*!
1+!
14!
0!
0"
0#
0$
0%
0&
0'
1(
0+
0,
0-
0.
0/
00
11
02
0B
0C
0D
0E
0F
0G
1H
0I
0J
0K
0L
0M
0N
0O
0P
1Q
0,!
0-!
0.!
0/!
00!
01!
02!
03!
$end
#10000
14
1@
1a
1b
#20000
1)
1?
1V
13!
0_
1c
1#!
1d
#30000
04
0@
0a
0b
#40000
0)
0?
0V
#50000
14
1@
1a
1b
#60000
1)
1?
1V
03!
12!
0d
0e
1z
0$!
1_
0c
0#!
1$!
1d
1e
1%!
0{
1f
1|
0&!
0f
0%!
1&!
1'!
0}
1~
0(!
0'!
1(!
1)!
0!!
0"!
1*!
0)!
04!
0*!
0+!
14!
0U
0T
0S
1U
0R
0*
1S
05
1*
#70000
04
0@
0a
0b
#80000
0)
0?
0V
#100000
1)
1?
1V
#120000
0)
0?
0V
#140000
1)
1?
1V
#160000
0)
0?
0V
#170000
13
1A
1`
1b
#180000
1)
1?
1V
02!
0d
0z
1{
0|
1}
0~
1!!
1"!
1+!
1T
1R
15
#190000
03
0A
0`
0b
#200000
0)
0?
0V
#220000
1)
1?
1V
#240000
0)
0?
0V
#260000
1)
1?
1V
#280000
0)
0?
0V
#290000
14
1'
1@
1P
1]
1a
1b
1d
#300000
1)
1?
1V
13!
12!
0d
0e
1z
0_
1c
1#!
0$!
1d
0{
1f
1|
1%!
0&!
0}
1~
1'!
0(!
0!!
0"!
1)!
1*!
0+!
04!
0T
0U
0R
0S
05
0*
#310000
04
0@
0a
0b
#320000
0)
0?
0V
#340000
1)
1?
1V
#360000
0)
0?
0V
#380000
1)
1?
1V
#400000
0)
0?
0V
#420000
1)
1?
1V
#440000
0)
0?
0V
#460000
1)
1?
1V
#470000
0'
0P
0]
0d
#480000
0)
0?
0V
#500000
1)
1?
1V
#520000
0)
0?
0V
#540000
1)
1?
1V
#560000
0)
0?
0V
#580000
1)
1?
1V
#600000
0)
0?
0V
#620000
1)
1?
1V
#640000
0)
0?
0V
#660000
1)
1?
1V
#680000
0)
0?
0V
#700000
1)
1?
1V
#720000
0)
0?
0V
#740000
1)
1?
1V
#760000
0)
0?
0V
#780000
1)
1?
1V
#800000
0)
0?
0V
#820000
1)
1?
1V
#840000
0)
0?
0V
#860000
1)
1?
1V
#880000
0)
0?
0V
#900000
1)
1?
1V
#920000
0)
0?
0V
#940000
1)
1?
1V
#960000
0)
0?
0V
#980000
1)
1?
1V
