Tarefa12_1/simulation/qsim/Comp_5bits.msim.vcd
$comment
	File created using the following command:
		vcd file Comp_5bits.msim.vcd -direction
$end
$date
	Thu Sep 05 18:13:26 2019
$end
$version
	ModelSim Version 10.5b
$end
$timescale
	1ps
$end

$scope module comp_5bits_vhd_vec_tst $end
$var wire 1 ! a [4] $end
$var wire 1 " a [3] $end
$var wire 1 # a [2] $end
$var wire 1 $ a [1] $end
$var wire 1 % a [0] $end
$var wire 1 & b [4] $end
$var wire 1 ' b [3] $end
$var wire 1 ( b [2] $end
$var wire 1 ) b [1] $end
$var wire 1 * b [0] $end
$var wire 1 + x $end
$var wire 1 , y $end
$var wire 1 - z $end

$scope module i1 $end
$var wire 1 . gnd $end
$var wire 1 / vcc $end
$var wire 1 0 unknown $end
$var wire 1 1 devoe $end
$var wire 1 2 devclrn $end
$var wire 1 3 devpor $end
$var wire 1 4 ww_devoe $end
$var wire 1 5 ww_devclrn $end
$var wire 1 6 ww_devpor $end
$var wire 1 7 ww_a [4] $end
$var wire 1 8 ww_a [3] $end
$var wire 1 9 ww_a [2] $end
$var wire 1 : ww_a [1] $end
$var wire 1 ; ww_a [0] $end
$var wire 1 < ww_b [4] $end
$var wire 1 = ww_b [3] $end
$var wire 1 > ww_b [2] $end
$var wire 1 ? ww_b [1] $end
$var wire 1 @ ww_b [0] $end
$var wire 1 A ww_x $end
$var wire 1 B ww_y $end
$var wire 1 C ww_z $end
$var wire 1 D \x~output_o\ $end
$var wire 1 E \y~output_o\ $end
$var wire 1 F \z~output_o\ $end
$var wire 1 G \a[2]~input_o\ $end
$var wire 1 H \b[2]~input_o\ $end
$var wire 1 I \a[0]~input_o\ $end
$var wire 1 J \b[1]~input_o\ $end
$var wire 1 K \a[1]~input_o\ $end
$var wire 1 L \b[0]~input_o\ $end
$var wire 1 M \c5|o~0_combout\ $end
$var wire 1 N \b[4]~input_o\ $end
$var wire 1 O \a[4]~input_o\ $end
$var wire 1 P \a[3]~input_o\ $end
$var wire 1 Q \b[3]~input_o\ $end
$var wire 1 R \c3|ob~0_combout\ $end
$var wire 1 S \c5|o~combout\ $end
$var wire 1 T \c5|oa~1_combout\ $end
$var wire 1 U \c5|oa~2_combout\ $end
$var wire 1 V \c5|oa~0_combout\ $end
$var wire 1 W \c5|oa~3_combout\ $end
$var wire 1 X \c5|ob~0_combout\ $end
$var wire 1 Y \c5|ob~1_combout\ $end
$var wire 1 Z \c5|ob~2_combout\ $end
$var wire 1 [ \c5|ob~3_combout\ $end
$var wire 1 \ \c5|ALT_INV_o~combout\ $end
$upscope $end
$upscope $end
$enddefinitions $end
#0
$dumpvars
0+
0,
0-
0.
1/
x0
11
12
13
14
15
16
0A
0B
0C
0D
0E
0F
xG
xH
xI
xJ
xK
xL
xM
xN
xO
xP
xQ
xR
xS
xT
xU
xV
xW
xX
xY
xZ
x[
x\
0!
0"
1#
1$
1%
0&
1'
0(
0)
1*
07
08
19
1:
1;
0<
1=
0>
0?
1@
$end
#640
1L
#650
1Q
#670
1I
#680
1K
#690
1G
#766
0O
#776
0P
#786
0N
#796
0H
0J
#3412
xD
xA
x+
#3563
xF
xC
x-
#3576
xE
xB
x,
#4114
0Z
#4147
0Y
#4242
1S
0\
#4257
1M
#4282
1T
#4401
0R
#4560
0V
#4600
1X
#4793
0U
#5258
1[
#5494
0W
#7682
0D
0A
0+
#8821
1F
1C
1-
#9033
0E
0B
0,
#80000
0$
0%
1(
0;
0:
1>
#80690
1H
#80776
0I
#80786
0K
#84391
0M
#84393
0T
#84510
1Y
#84550
1M
#160000
1%
0(
1"
0#
1)
0*
1;
09
18
0@
1?
0>
#160670
1P
1I
#160690
1J
#160746
0L
#160796
0H
0G
#164041
0X
#164047
1R
#164426
1Z
#164749
0[
#164918
1[
#168274
0F
0C
0-
#168481
1F
1C
1-
#240000
0%
1(
1#
1$
1!
1&
0;
1:
19
17
1>
1<
#240660
1O
#240680
1N
1K
#240690
1H
1G
#240776
0I
#243878
1X
#243891
0R
#244032
0Y
#244041
1T
#244205
1R
#244242
0X
#244285
0Z
#244533
0T
#244537
0M
#244583
1U
#244950
0[
#245058
0S
1\
#245168
0U
#245241
1W
#245869
0W
#248445
1D
1A
1+
#248475
0F
0C
0-
#248817
1E
1B
1,
#249408
0E
0B
0,
#320000
1%
0#
0"
1*
1;
09
08
1@
#320640
1L
#320670
1I
#320776
0P
#320796
0G
#323913
1Y
1M
#324147
0Y
#324167
0M
#324238
1Z
#324239
1S
0\
#324401
0R
#324404
1X
#324730
1[
#324795
0Z
#327679
0D
0A
0+
#328293
1F
1C
1-
#400000
0%
1#
0$
0)
0'
0;
0:
19
0?
0=
#400690
1G
#400756
0Q
#400776
0I
#400786
0K
#400796
0J
#404235
0X
#404251
1R
#404257
1M
#404282
1T
#404391
0M
#404393
0T
#404510
1Y
#404550
1M
#404879
1U
#404912
0S
1\
#404943
0[
#405028
0U
#405042
1S
0\
#405111
1Z
#405537
1W
#405603
1[
#405729
0W
#408299
1D
1A
1+
#408468
0F
0C
0-
#408482
0D
0A
0+
#409113
1E
1B
1,
#409166
1F
1C
1-
#409268
0E
0B
0,
#480000
0#
1$
0*
0!
1:
09
07
0@
#480680
1K
#480746
0L
#480766
0O
#480796
0G
#484032
0Y
#484041
1T
#484590
0R
#484600
1X
#484984
0Z
#560000
0$
1*
1'
0(
0&
0:
1@
0>
1=
0<
#560640
1L
#560650
1Q
#560786
0N
0K
#560796
0H
#564393
0T
#564395
1Y
#640000
1$
1(
1&
1#
1!
1%
1;
1:
19
17
1>
1<
#640660
1O
#640670
1I
#640680
1N
1K
#640690
1H
1G
#644032
0Y
#644041
1T
#720000
0(
0&
0#
1"
0>
0<
09
18
#720670
1P
#720786
0N
#720796
0G
0H
#724041
0X
#724047
1R
#724274
0R
#724275
1V
#724425
1U
#724666
0U
#724749
0[
#724769
1W
#728274
0F
0C
0-
#728345
1E
1B
1,
#800000
1(
1#
1)
1?
1>
19
#800690
1G
1H
1J
#803880
0M
#803916
0T
#880000
0(
0#
0)
0"
0!
0%
0?
0>
0;
09
08
07
#880766
0O
#880776
0P
0I
#880796
0G
0H
0J
#884257
1M
#884282
1T
#884560
0V
#884600
1X
#885080
0W
#885258
1[
#888619
0E
0B
0,
#888821
1F
1C
1-
#960000
1)
1!
1%
0$
0*
0@
1?
1;
0:
17
#960660
1O
#960670
1I
#960690
1J
#960746
0L
#960786
0K
#963888
1Y
#963916
0T
#964147
0Y
#964167
0M
#964215
1V
#964242
0X
#964270
1Y
1M
#964709
1W
#964950
0[
#968285
1E
1B
1,
#968475
0F
0C
0-
