Atividade2_1/simulation/qsim/hex_7seg.msim.vcd
$comment
	File created using the following command:
		vcd file hex_7seg.msim.vcd -direction
$end
$date
	Sat Nov 09 16:59:02 2019
$end
$version
	ModelSim Version 10.5b
$end
$timescale
	1ps
$end

$scope module hex_7seg_vhd_vec_tst $end
$var wire 1 ! A $end
$var wire 1 " B $end
$var wire 1 # C $end
$var wire 1 $ D $end
$var wire 1 % E $end
$var wire 1 & entrada [3] $end
$var wire 1 ' entrada [2] $end
$var wire 1 ( entrada [1] $end
$var wire 1 ) entrada [0] $end
$var wire 1 * F $end
$var wire 1 + G $end

$scope module i1 $end
$var wire 1 , gnd $end
$var wire 1 - vcc $end
$var wire 1 . unknown $end
$var wire 1 / devoe $end
$var wire 1 0 devclrn $end
$var wire 1 1 devpor $end
$var wire 1 2 ww_devoe $end
$var wire 1 3 ww_devclrn $end
$var wire 1 4 ww_devpor $end
$var wire 1 5 ww_entrada [3] $end
$var wire 1 6 ww_entrada [2] $end
$var wire 1 7 ww_entrada [1] $end
$var wire 1 8 ww_entrada [0] $end
$var wire 1 9 ww_A $end
$var wire 1 : ww_B $end
$var wire 1 ; ww_C $end
$var wire 1 < ww_D $end
$var wire 1 = ww_E $end
$var wire 1 > ww_F $end
$var wire 1 ? ww_G $end
$var wire 1 @ \A~output_o\ $end
$var wire 1 A \B~output_o\ $end
$var wire 1 B \C~output_o\ $end
$var wire 1 C \D~output_o\ $end
$var wire 1 D \E~output_o\ $end
$var wire 1 E \F~output_o\ $end
$var wire 1 F \G~output_o\ $end
$var wire 1 G \entrada[0]~input_o\ $end
$var wire 1 H \entrada[1]~input_o\ $end
$var wire 1 I \entrada[2]~input_o\ $end
$var wire 1 J \entrada[3]~input_o\ $end
$var wire 1 K \Mux0~0_combout\ $end
$var wire 1 L \Mux1~0_combout\ $end
$var wire 1 M \Mux2~0_combout\ $end
$var wire 1 N \Mux3~0_combout\ $end
$var wire 1 O \Mux4~0_combout\ $end
$var wire 1 P \Mux5~0_combout\ $end
$var wire 1 Q \Mux6~0_combout\ $end
$var wire 1 R \ALT_INV_Mux0~0_combout\ $end
$var wire 1 S \ALT_INV_Mux2~0_combout\ $end
$var wire 1 T \ALT_INV_Mux3~0_combout\ $end
$var wire 1 U \ALT_INV_Mux4~0_combout\ $end
$var wire 1 V \ALT_INV_Mux5~0_combout\ $end
$var wire 1 W \ALT_INV_Mux1~0_combout\ $end
$upscope $end
$upscope $end
$enddefinitions $end
#0
$dumpvars
1!
1"
1#
1$
1%
1*
0+
0,
1-
x.
1/
10
11
12
13
14
19
1:
1;
1<
1=
1>
0?
1@
1A
1B
1C
1D
1E
0F
0G
0H
0I
0J
0K
0L
0M
0N
0O
0P
0Q
1R
1S
1T
1U
1V
1W
0&
0'
0(
0)
05
06
07
08
$end
#40000
1)
18
1G
1K
1N
1O
1P
0V
0U
0T
0R
0@
0C
0D
0E
09
0<
0=
0>
0!
0$
0%
0*
#80000
0)
1(
08
17
1H
0G
0K
1M
0N
0O
1Q
1U
1T
0S
1R
1F
1@
0B
1C
1D
1?
19
0;
1<
1=
1+
1!
0#
1$
1%
#120000
1)
18
1G
0M
1O
0U
1S
1B
0D
1;
0=
1#
0%
#160000
0)
0(
1'
08
07
16
1I
0H
0G
1K
1N
0P
1V
0T
0R
0@
0C
1E
09
0<
1>
0!
0$
1*
#200000
1)
18
1G
0K
1L
0N
1T
0W
1R
1@
0A
1C
19
0:
1<
1!
0"
1$
#240000
0)
1(
08
17
1H
0G
0O
1U
1D
1=
1%
#280000
1)
18
1G
0L
1N
1O
1P
0Q
0V
0U
0T
1W
0F
1A
0C
0D
0E
0?
1:
0<
0=
0>
0+
1"
0$
0%
0*
#320000
0)
0(
0'
1&
08
07
06
15
1J
0I
0H
0G
0N
0O
0P
1Q
1V
1U
1T
1F
1C
1D
1E
1?
1<
1=
1>
1+
1$
1%
1*
#360000
1)
18
1G
1O
0U
0D
0=
0%
#400000
0)
1(
08
17
1H
0G
1N
0O
1U
0T
0C
1D
0<
1=
0$
1%
#440000
1)
18
1G
1K
1L
0N
1T
0W
0R
0@
0A
1C
09
0:
1<
0!
0"
1$
#480000
0)
0(
1'
08
07
16
1I
0H
0G
0K
1M
0Q
0S
1R
0F
1@
0B
0?
19
0;
0+
1!
0#
#520000
1)
18
1G
1K
0L
0M
1P
1Q
0V
1S
1W
0R
1F
0@
1A
1B
0E
1?
09
1:
1;
0>
1+
0!
1"
1#
0*
#560000
0)
1(
08
17
1H
0G
0K
1L
1M
0P
1V
0S
0W
1R
1@
0A
0B
1E
19
0:
0;
1>
1!
0"
0#
1*
#600000
1)
18
1G
1N
0T
0C
0<
0$
#640000
0)
0(
0'
0&
08
07
06
05
0J
0I
0H
0G
0L
0M
0N
0Q
1T
1S
1W
0F
1A
1B
1C
0?
1:
1;
1<
0+
1"
1#
1$
#680000
1)
18
1G
1K
1N
1O
1P
0V
0U
0T
0R
0@
0C
0D
0E
09
0<
0=
0>
0!
0$
0%
0*
#720000
0)
1(
08
17
1H
0G
0K
1M
0N
0O
1Q
1U
1T
0S
1R
1F
1@
0B
1C
1D
1?
19
0;
1<
1=
1+
1!
0#
1$
1%
#760000
1)
18
1G
0M
1O
0U
1S
1B
0D
1;
0=
1#
0%
#800000
0)
0(
1'
08
07
16
1I
0H
0G
1K
1N
0P
1V
0T
0R
0@
0C
1E
09
0<
1>
0!
0$
1*
#840000
1)
18
1G
0K
1L
0N
1T
0W
1R
1@
0A
1C
19
0:
1<
1!
0"
1$
#880000
0)
1(
08
17
1H
0G
0O
1U
1D
1=
1%
#920000
1)
18
1G
0L
1N
1O
1P
0Q
0V
0U
0T
1W
0F
1A
0C
0D
0E
0?
1:
0<
0=
0>
0+
1"
0$
0%
0*
#960000
0)
0(
0'
1&
08
07
06
15
1J
0I
0H
0G
0N
0O
0P
1Q
1V
1U
1T
1F
1C
1D
1E
1?
1<
1=
1>
1+
1$
1%
1*
